<?xml version="1.0" encoding="utf-8"?>
<!-- Generator: Adobe Illustrator 23.0.3, SVG Export Plug-In . SVG Version: 6.00 Build 0)  -->
<svg version="1.1" id="Layer_1" xmlns="http://www.w3.org/2000/svg" xmlns:xlink="http://www.w3.org/1999/xlink" x="0px" y="0px"
	 viewBox="0 0 283.2 76" style="enable-background:new 0 0 283.2 76;" xml:space="preserve">
<style type="text/css">
	.st0{fill:#3A8DDE;}
</style>
<g>
	<path class="st0" d="M40.1,65c-15.6,0-28.3-12.7-28.3-28.3c0-15.6,12.7-28.3,28.3-28.3c15.6,0,28.3,12.7,28.3,28.3
		C68.5,52.3,55.7,65,40.1,65z M40,25.5c0,0,2.3,2.4,2.3,4.4c0,2.1-1.6,2.6-2.2,2.6c0,0-0.1,0-0.1,0h0c0,0-0.1,0-0.1,0
		c-0.6,0-2.2-0.5-2.2-2.6C37.7,27.9,40,25.5,40,25.5z M18.7,38.3h2.6v-4.8h4.3v-2h-4.3v-2.7h4.5v-2h-7.1V38.3z M42.3,25.8h2.7
		l-3.2-11.4h-3.5l-3.3,11.4h2.5l0.7-2.6h3.3L42.3,25.8z M41.2,21.4h-2.4l1.1-5h0.2L41.2,21.4z M53.2,32.5c0,3.4,1.6,5.9,4.8,5.9
		c3.3,0,4.9-2.6,4.9-5.9c0-3.4-1.6-5.9-4.9-5.9C54.7,26.6,53.2,29.2,53.2,32.5z M55.9,32.5c0-2.2,0.5-4,2.1-4c1.6,0,2.1,1.8,2.1,4
		c0,2.2-0.6,4-2.1,4C56.5,36.5,55.9,34.7,55.9,32.5z M38.9,61.9c0.2-1.1,0.3-2.9,0.3-5c0-0.6,0-0.2,0-0.4c0-2.9-0.1-3.9-2.1-4.6
		c-3-1-4.3-4.4-3.6-8.6L23.5,17.8c-5.2,4.6-8.6,11.4-8.6,18.9C14.9,50.2,25.6,61.2,38.9,61.9z M40.1,45.5c-4-0.9-5.5-4.6-5.5-7.8
		L25.8,16c-0.6,0.4-1.1,0.8-1.7,1.3c1.9,4.6,10.7,25.3,10.7,25.3c1.5,3.7,4.4,2.5,5,5.6c0.2,0.7,0.2,1.1,0.2,1.1h0.3
		c0,0,0-0.3,0.2-1.1c0.7-3.1,3.5-1.8,5-5.6c0,0,8.7-20.7,10.7-25.3c-0.5-0.4-1.1-0.9-1.7-1.3l-8.8,21.7
		C45.6,40.9,44.1,44.6,40.1,45.5L40.1,45.5z M40.1,39c-1.7-0.4-3.8-2.1-4.1-4.2c-0.1-0.8-0.2-1.1-0.1-2.7l-7.7-17.5
		c-0.6,0.3-1.2,0.7-1.8,1.1c2.3,5.2,9.4,21.1,9.4,21.1c1.1,2.4,3.1,2.4,3.8,3.8c0.4,0.8,0.4,1.6,0.5,1.6h0.3c0-0.1,0-0.8,0.5-1.6
		c0.7-1.4,2.6-1.5,3.8-3.8c0,0,7.1-15.9,9.4-21.1c-0.6-0.4-1.2-0.8-1.8-1.1L44.3,32c0.1,1.6,0,1.9-0.1,2.7
		C43.9,36.9,41.8,38.6,40.1,39L40.1,39z M40.2,36l0.1-1c0.5-2.2,2.1-1.9,3.2-4.1c0,0,0,0,0,0c0-0.1,5.5-11.8,7.8-16.7
		c-3.4-1.7-7.2-2.7-11.2-2.7c-4,0-7.9,1-11.2,2.7c2.3,4.9,7.8,16.7,7.8,16.7c0,0,0,0,0,0c1.1,2.2,2.7,1.9,3.2,4.1l0.1,1H40.2z
		 M65.3,36.7c0-7.5-3.3-14.3-8.6-18.9L46.7,43.4c0.7,4.2-0.6,7.6-3.6,8.6c-2,0.6-2.1,1.6-2.1,4.6c0,0.2,0-0.2,0,0.4
		c0,2.1,0.2,3.9,0.3,5C54.7,61.2,65.3,50.2,65.3,36.7z M22.9,44.1c0,0,0.4,0.8,0.7,1.4c0.3,0.6,0.7,1.2,0.7,1.2l-0.7,0.4
		c0,0-0.5-0.8-1-1.8c-0.1,0.1-0.9,0.5-1.1,0.5c0.1,0.1,0.9,1.7,0.9,1.7l-0.7,0.4c0,0-0.8-1.6-0.9-1.7c-0.1,0.1-1.9,1-1.9,1l-0.4-0.8
		L22.9,44.1L22.9,44.1z M25.5,48.4l0.6,0.7l-3.7,3.1l-0.6-0.7L25.5,48.4L25.5,48.4z M28.9,51.7l0.7,0.5l-0.9,5.1l-0.8-0.5
		c0,0,0.2-1,0.2-1.1c0,0-0.5-0.3-1-0.7c-0.5-0.3-0.9-0.7-1-0.8c-0.1,0.1-1,0.6-1,0.6l-0.7-0.6L28.9,51.7L28.9,51.7z M26.8,53.8
		c0.1,0.1,0.4,0.3,0.7,0.6c0.3,0.2,0.7,0.4,0.8,0.5c0-0.2,0.4-1.9,0.5-2.2C28.5,52.8,27,53.7,26.8,53.8z M32,53.5
		c0,0,0.8,0.4,1.9,0.8c0.8,0.3,1.4,0.5,2,0.6l-0.2,0.7c0,0-0.6-0.1-1.6-0.4C34,55.4,32.8,59,32.8,59l-0.9-0.3c0,0,1.3-3.6,1.3-3.8
		c-0.9-0.3-1.5-0.7-1.5-0.7L32,53.5z M47.1,54.5c0.3,0.2,0.5,0.5,0.7,0.9c0.1,0.2,0.1,0.3,0.1,0.5c0,0.7-0.5,1.2-1.3,1.5
		c0,0-0.4,0.1-0.6,0.2c0.1,0.2,0.6,1.8,0.6,1.8l-0.8,0.2l-1.4-4.6l1.3-0.4C46.2,54.3,46.7,54.3,47.1,54.5z M45.4,55.4
		c0,0.1,0.4,1.3,0.4,1.4c0.2-0.1,0.6-0.2,0.6-0.2c0.1,0,0.4-0.2,0.6-0.4c0-0.1,0.1-0.2,0.1-0.3c0-0.1,0-0.2,0-0.2
		c-0.1-0.2-0.2-0.3-0.3-0.4c-0.3-0.1-0.6-0.1-0.8,0C45.8,55.2,45.5,55.3,45.4,55.4z M50,52.5l4.2,3l-0.7,0.5c0,0-0.8-0.6-0.9-0.7
		c0,0-0.5,0.3-0.9,0.6c-0.4,0.3-0.9,0.5-1,0.5c0,0.1,0.2,1.1,0.2,1.1L50,58l-0.7-5.1L50,52.5z M50.5,55.7c0.1-0.1,0.4-0.2,0.8-0.4
		c0.3-0.2,0.5-0.3,0.6-0.4c-0.2-0.1-1.5-1.1-1.7-1.3C50.2,53.9,50.4,55.5,50.5,55.7z M54.8,48.3l3.6,3.2l-0.7,0.8c0,0-3.4-1-3.9-1.1
		c0.4,0.4,2.5,2.6,2.5,2.6l-0.6,0.6l-3.4-3.5l0.8-0.7c0,0,3.3,1,3.8,1.1c-0.4-0.4-2.6-2.3-2.6-2.3L54.8,48.3z M56.4,45.9l4.2,2.4
		L60.2,49L56,46.6L56.4,45.9z M58.2,41.8l0.7,0.4l-0.1,0.1c-0.2,0.3-0.3,0.4-0.5,0.8c-0.1,0.1-0.1,0.4,0,0.6
		c0.1,0.1,0.1,0.2,0.3,0.2c0.3,0.1,0.6-0.2,0.9-0.5c0.4-0.5,1-1,1.9-0.7c0.9,0.3,1.2,1.1,0.8,2.2c-0.1,0.3-0.3,0.6-0.5,0.9l0,0.1
		L61,45.5l0.1-0.1c0.1-0.1,0.4-0.5,0.5-0.8c0.1-0.3,0.1-0.9-0.4-1c-0.4-0.1-0.7,0.2-1.1,0.5c-0.4,0.4-0.9,1-1.7,0.7
		c-0.4-0.1-0.6-0.3-0.8-0.6c-0.2-0.4-0.2-0.8,0-1.3C57.8,42.5,58,42.2,58.2,41.8L58.2,41.8z"/>
</g>
<g>
	<path class="st0" d="M82.9,13.9c2.3,0,4.4,1.7,4.4,5.7c0,4-2.1,5.7-4.4,5.7c-2.3,0-4.4-1.7-4.4-5.7C78.5,15.7,80.6,13.9,82.9,13.9z
		 M82.9,23.9c1.3,0,2.3-1.1,2.3-4.2c0-3.1-1-4.2-2.3-4.2c-1.3,0-2.3,1.1-2.3,4.2C80.6,22.8,81.6,23.9,82.9,23.9z"/>
	<path class="st0" d="M89.1,18.4c0-0.5,0-1-0.1-1.4h1.8c0,0.5,0.1,1,0.1,1.5h0c0.2-0.6,0.9-1.6,2.1-1.6c0.1,0,0.2,0,0.3,0v1.9
		c-0.2,0-0.4-0.1-0.6-0.1c-0.8,0-1.7,0.5-1.7,2v4.5h-2V18.4z"/>
	<path class="st0" d="M94.7,26.5c0.5,0.3,1.4,0.7,2.4,0.7c1.9,0,2.2-1.3,2.2-2.6v-0.8h0c-0.3,0.6-0.9,1.4-2.2,1.4
		c-1.2,0-2.9-0.8-2.9-4.1c0-2.3,0.8-4.3,3-4.3c1.2,0,1.8,0.7,2.2,1.4h0.1c0-0.4,0-0.8,0.1-1.3h1.8c0,0.4-0.1,0.9-0.1,1.3v6.1
		c0,2.6-0.8,4.4-3.8,4.4c-1.3,0-2.4-0.3-2.8-0.5L94.7,26.5z M97.6,23.8c1.2,0,1.7-0.9,1.7-2.8c0-1.7-0.7-2.7-1.6-2.6
		c-1,0-1.4,1-1.4,2.7C96.3,23,96.9,23.8,97.6,23.8z"/>
	<path class="st0" d="M103.5,17.5c0.6-0.3,1.3-0.6,2.6-0.6c2.6,0,3.1,1.2,3.1,3.3v3.6c0,0.6,0.1,1.1,0.1,1.5h-1.8
		c-0.1-0.3-0.1-0.7-0.1-1.1h0c-0.5,0.7-1.1,1.2-2.3,1.2c-1.3,0-2.5-0.9-2.5-2.4c0-2.2,1.8-2.8,4.3-2.8h0.4v-0.3
		c0-0.8-0.4-1.6-1.5-1.6c-1,0-1.9,0.5-2.3,0.8L103.5,17.5z M107.4,21.2h-0.2c-1.7,0-2.7,0.4-2.7,1.6c0,0.8,0.5,1.3,1.3,1.3
		c1.2,0,1.6-0.9,1.6-2.4V21.2z"/>
	<path class="st0" d="M111.1,18.4c0-0.5,0-1-0.1-1.4h1.9c0,0.4,0.1,0.8,0.1,1.3h0c0.3-0.5,0.8-1.4,2.2-1.4c1.9,0,2.4,1.4,2.4,3.1
		v5.3h-2v-4.9c0-1.3-0.3-1.8-1.1-1.8c-1,0-1.4,0.9-1.4,1.9v4.8h-2V18.4z"/>
	<path class="st0" d="M119.5,13.5h2v2h-2V13.5z M119.5,17h2v8.2h-2V17z"/>
	<path class="st0" d="M123.1,23.6l3.5-5h-3.4V17h5.4v1.7l-3.5,5h3.6v1.5h-5.6V23.6z"/>
	<path class="st0" d="M130.4,17.5c0.6-0.3,1.3-0.6,2.6-0.6c2.6,0,3.1,1.2,3.1,3.3v3.6c0,0.6,0.1,1.1,0.1,1.5h-1.8
		c-0.1-0.3-0.1-0.7-0.1-1.1h0c-0.5,0.7-1.1,1.2-2.3,1.2c-1.3,0-2.5-0.9-2.5-2.4c0-2.2,1.8-2.8,4.3-2.8h0.4v-0.3
		c0-0.8-0.4-1.6-1.5-1.6c-1,0-1.9,0.5-2.3,0.8L130.4,17.5z M134.3,21.2h-0.2c-1.7,0-2.7,0.4-2.7,1.6c0,0.8,0.5,1.3,1.3,1.3
		c1.2,0,1.6-0.9,1.6-2.4V21.2z"/>
	<path class="st0" d="M143.6,25.1c-0.5,0.2-1.2,0.3-2,0.3c-2.7,0-3.9-1.9-3.9-4.2c0-2.3,1.2-4.3,4-4.3c0.6,0,1.4,0.2,1.7,0.3
		l-0.1,1.6c-0.4-0.2-0.8-0.4-1.4-0.4c-1.5,0-2.2,1-2.2,2.8c0,1.5,0.7,2.7,2.3,2.7c0.5,0,1.1-0.2,1.4-0.4L143.6,25.1z"/>
	<path class="st0" d="M145,13.5h2v2h-2V13.5z M145,17h2v8.2h-2V17z"/>
	<path class="st0" d="M152.4,16.9c1.7,0,3.6,0.9,3.6,4.2c0,3.5-1.9,4.3-3.6,4.3c-1.7,0-3.6-0.8-3.6-4.3
		C148.7,17.8,150.7,16.9,152.4,16.9z M152.4,24c1.3,0,1.6-1.5,1.6-2.8c0-1.4-0.3-2.8-1.6-2.8c-1.3,0-1.6,1.5-1.6,2.8
		C150.8,22.5,151.1,24,152.4,24z M152.5,13.8h1.9l-1.6,2.3h-1.2L152.5,13.8z"/>
	<path class="st0" d="M157.6,18.4c0-0.5,0-1-0.1-1.4h1.9c0,0.4,0.1,0.8,0.1,1.3h0c0.3-0.5,0.8-1.4,2.2-1.4c1.9,0,2.4,1.4,2.4,3.1
		v5.3h-2v-4.9c0-1.3-0.3-1.8-1.1-1.8c-1,0-1.4,0.9-1.4,1.9v4.8h-2V18.4z"/>
	<path class="st0" d="M176.8,13.3v10.6c0,0.6,0,1.1,0.1,1.4H175c0-0.2-0.1-0.7-0.1-1.3h0c-0.3,0.7-0.9,1.4-2.2,1.4
		c-2,0-2.9-2-2.9-4.2c0-2.7,1.1-4.3,2.8-4.3c1.2,0,1.8,0.7,2.1,1.3h0v-4.9H176.8z M173.2,23.9c1.2,0,1.6-1.3,1.6-2.8
		c0-1.6-0.4-2.8-1.5-2.8c-1.1,0-1.5,1.1-1.5,2.7C171.8,23,172.1,23.9,173.2,23.9z"/>
	<path class="st0" d="M184.6,24.9c-0.4,0.2-1.3,0.5-2.5,0.5c-2.7,0-3.8-1.9-3.8-4.1c0-2.5,1.3-4.4,3.4-4.4c1.8,0,3.3,1,3.3,4.4v0.4
		h-4.8c0,1.4,0.6,2.3,2.1,2.3c1.2,0,1.8-0.4,2.2-0.6L184.6,24.9z M183.1,20.4c0-1.5-0.5-2.2-1.4-2.2c-1,0-1.5,1.1-1.5,2.2H183.1z"/>
	<path class="st0" d="M190.9,13.3h2v12h-2V13.3z"/>
	<path class="st0" d="M195.3,17.5c0.6-0.3,1.3-0.6,2.6-0.6c2.6,0,3.1,1.2,3.1,3.3v3.6c0,0.6,0.1,1.1,0.1,1.5h-1.8
		c-0.1-0.3-0.1-0.7-0.1-1.1h0c-0.5,0.7-1.1,1.2-2.3,1.2c-1.3,0-2.5-0.9-2.5-2.4c0-2.2,1.8-2.8,4.3-2.8h0.4v-0.3
		c0-0.8-0.4-1.6-1.5-1.6c-1,0-1.9,0.5-2.3,0.8L195.3,17.5z M199.2,21.2H199c-1.7,0-2.7,0.4-2.7,1.6c0,0.8,0.5,1.3,1.3,1.3
		c1.2,0,1.6-0.9,1.6-2.4V21.2z"/>
	<path class="st0" d="M202.7,23.4c0.3,0.1,1.1,0.5,2.1,0.5c0.7,0,1.3-0.2,1.3-0.8c0-0.3-0.2-0.6-0.9-1l-0.8-0.5
		c-0.8-0.5-1.7-1-1.7-2.3c0-1.1,1.1-2.3,2.8-2.3c1.1,0,1.9,0.3,2.1,0.3l-0.1,1.5c-0.5-0.2-1-0.4-1.7-0.4c-0.8,0-1.1,0.3-1.1,0.8
		c0,0.4,0.4,0.7,0.9,1.1l1,0.6c1,0.7,1.5,1.1,1.5,2.1c0,1.5-1.3,2.4-3.1,2.4c-1,0-1.9-0.2-2.3-0.4L202.7,23.4z"/>
	<path class="st0" d="M213.8,14.1h2.4l3.7,8.8h0v-8.8h1.9v11.2h-2.4l-3.7-8.7h0v8.7h-1.9V14.1z"/>
	<path class="st0" d="M224.3,17.5c0.6-0.3,1.3-0.6,2.6-0.6c2.6,0,3.2,1.2,3.2,3.3v3.6c0,0.6,0.1,1.1,0.1,1.5h-1.8
		c-0.1-0.3-0.1-0.7-0.1-1.1h0c-0.5,0.7-1.1,1.2-2.3,1.2c-1.3,0-2.5-0.9-2.5-2.4c0-2.2,1.8-2.8,4.3-2.8h0.4v-0.3
		c0-0.8-0.4-1.6-1.5-1.6c-1,0-1.9,0.5-2.3,0.8L224.3,17.5z M228.2,21.2H228c-1.7,0-2.7,0.4-2.7,1.6c0,0.8,0.5,1.3,1.3,1.3
		c1.2,0,1.6-0.9,1.6-2.4V21.2z"/>
	<path class="st0" d="M237.5,25.1c-0.5,0.2-1.2,0.3-2,0.3c-2.7,0-3.9-1.9-3.9-4.2c0-2.3,1.2-4.3,4-4.3c0.6,0,1.4,0.2,1.7,0.3
		l-0.1,1.6c-0.4-0.2-0.8-0.4-1.4-0.4c-1.5,0-2.2,1-2.2,2.8c0,1.5,0.7,2.7,2.3,2.7c0.5,0,1.1-0.2,1.4-0.4L237.5,25.1z"/>
	<path class="st0" d="M238.9,13.5h2v2h-2V13.5z M238.9,17h2v8.2h-2V17z"/>
	<path class="st0" d="M246.3,16.9c1.7,0,3.6,0.9,3.6,4.2c0,3.5-1.9,4.3-3.6,4.3s-3.6-0.8-3.6-4.3C242.6,17.8,244.6,16.9,246.3,16.9z
		 M246.3,24c1.3,0,1.6-1.5,1.6-2.8c0-1.4-0.3-2.8-1.6-2.8c-1.3,0-1.6,1.5-1.6,2.8C244.7,22.5,245,24,246.3,24z"/>
	<path class="st0" d="M251.4,18.4c0-0.5,0-1-0.1-1.4h1.9c0,0.4,0.1,0.8,0.1,1.3h0c0.3-0.5,0.8-1.4,2.2-1.4c1.9,0,2.4,1.4,2.4,3.1
		v5.3h-2v-4.9c0-1.3-0.3-1.8-1.1-1.8c-1,0-1.4,0.9-1.4,1.9v4.8h-2V18.4z"/>
	<path class="st0" d="M265.8,24.9c-0.4,0.2-1.3,0.5-2.5,0.5c-2.7,0-3.8-1.9-3.8-4.1c0-2.5,1.3-4.4,3.4-4.4c1.8,0,3.3,1,3.3,4.4v0.4
		h-4.8c0,1.4,0.6,2.3,2.1,2.3c1.2,0,1.8-0.4,2.2-0.6L265.8,24.9z M264.3,20.4c0-1.5-0.5-2.2-1.4-2.2c-1,0-1.5,1.1-1.5,2.2H264.3z"/>
	<path class="st0" d="M267.5,23.4c0.3,0.1,1.1,0.5,2.1,0.5c0.7,0,1.3-0.2,1.3-0.8c0-0.3-0.2-0.6-0.9-1l-0.8-0.5
		c-0.8-0.5-1.7-1-1.7-2.3c0-1.1,1.1-2.3,2.8-2.3c1.1,0,1.9,0.3,2.1,0.3l-0.1,1.5c-0.5-0.2-1-0.4-1.7-0.4c-0.8,0-1.1,0.3-1.1,0.8
		c0,0.4,0.4,0.7,0.9,1.1l1,0.6c1,0.7,1.5,1.1,1.5,2.1c0,1.5-1.3,2.4-3.1,2.4c-1,0-1.9-0.2-2.3-0.4L267.5,23.4z"/>
	<path class="st0" d="M80.9,32.2v7.2c0,1.9,0.6,2.5,1.8,2.5c1.2,0,1.7-0.6,1.7-2.5v-7.2h2v7.2c0,2.9-1.7,4.1-3.8,4.1
		c-2.1,0-3.8-1.2-3.8-4.1v-7.2H80.9z"/>
	<path class="st0" d="M88.4,36.5c0-0.5,0-1-0.1-1.4h1.9c0,0.4,0.1,0.8,0.1,1.3h0c0.3-0.5,0.8-1.4,2.2-1.4c1.9,0,2.4,1.4,2.4,3.1v5.3
		h-2v-4.9c0-1.3-0.3-1.8-1.1-1.8c-1,0-1.4,0.9-1.4,1.9v4.8h-2V36.5z"/>
	<path class="st0" d="M96.9,31.6h2v2h-2V31.6z M96.9,35.1h2v8.2h-2V35.1z"/>
	<path class="st0" d="M107.6,31.3v10.6c0,0.6,0,1.1,0.1,1.4h-1.9c0-0.2-0.1-0.7-0.1-1.3h0c-0.3,0.7-0.9,1.4-2.2,1.4
		c-2,0-2.9-1.9-2.9-4.2c0-2.7,1.1-4.3,2.8-4.3c1.2,0,1.8,0.7,2.1,1.3h0v-4.9H107.6z M104.1,42c1.2,0,1.6-1.3,1.6-2.8
		c0-1.6-0.4-2.8-1.5-2.8c-1.1,0-1.5,1.1-1.5,2.7C102.6,41.1,102.9,42,104.1,42z"/>
	<path class="st0" d="M109.9,35.6c0.6-0.3,1.3-0.6,2.6-0.6c2.6,0,3.1,1.2,3.1,3.3v3.6c0,0.6,0.1,1.1,0.1,1.5h-1.8
		c-0.1-0.3-0.1-0.7-0.1-1.1h0c-0.5,0.7-1.1,1.2-2.3,1.2c-1.3,0-2.5-0.9-2.5-2.4c0-2.2,1.8-2.8,4.3-2.8h0.4v-0.3
		c0-0.8-0.4-1.6-1.5-1.6c-1,0-1.9,0.5-2.3,0.8L109.9,35.6z M113.8,39.3h-0.2c-1.7,0-2.7,0.4-2.7,1.6c0,0.8,0.5,1.3,1.3,1.3
		c1.2,0,1.6-0.9,1.6-2.3V39.3z"/>
	<path class="st0" d="M117.2,41.4c0.3,0.1,1.1,0.5,2.1,0.5c0.7,0,1.3-0.2,1.3-0.8c0-0.3-0.2-0.6-0.9-1l-0.8-0.5
		c-0.8-0.5-1.7-1-1.7-2.3c0-1.1,1.1-2.3,2.8-2.3c1.1,0,1.9,0.3,2.1,0.3l-0.1,1.5c-0.5-0.2-1-0.4-1.7-0.4c-0.8,0-1.1,0.3-1.1,0.8
		c0,0.4,0.4,0.7,0.9,1.1l1,0.6c1,0.7,1.5,1.1,1.5,2.1c0,1.5-1.3,2.4-3.1,2.4c-1,0-1.9-0.2-2.3-0.4L117.2,41.4z"/>
	<path class="st0" d="M128.1,36.5c0-0.6,0-1.1-0.1-1.4h1.9c0,0.2,0.1,0.7,0.1,1.3h0c0.3-0.7,0.9-1.4,2.2-1.4c2,0,2.9,2,2.9,4.2
		c0,2.7-1.1,4.3-2.8,4.3c-1.2,0-1.8-0.7-2.1-1.3h0v4.6h-2V36.5z M131.7,42c1.1,0,1.5-1.1,1.5-2.7c0-1.9-0.3-2.9-1.5-2.9
		c-1.2,0-1.6,1.3-1.6,2.8C130.1,40.8,130.6,42,131.7,42z"/>
	<path class="st0" d="M137.1,35.6c0.6-0.3,1.3-0.6,2.6-0.6c2.6,0,3.1,1.2,3.1,3.3v3.6c0,0.6,0.1,1.1,0.1,1.5h-1.8
		c-0.1-0.3-0.1-0.7-0.1-1.1h0c-0.5,0.7-1.1,1.2-2.3,1.2c-1.3,0-2.5-0.9-2.5-2.4c0-2.2,1.8-2.8,4.3-2.8h0.4v-0.3
		c0-0.8-0.4-1.6-1.5-1.6c-1,0-1.9,0.5-2.3,0.8L137.1,35.6z M141,39.3h-0.2c-1.7,0-2.7,0.4-2.7,1.6c0,0.8,0.5,1.3,1.3,1.3
		c1.2,0,1.6-0.9,1.6-2.3V39.3z"/>
	<path class="st0" d="M144.7,36.5c0-0.5,0-1-0.1-1.4h1.8c0,0.5,0.1,1,0.1,1.5h0c0.2-0.6,0.9-1.6,2.1-1.6c0.1,0,0.2,0,0.3,0v1.9
		c-0.2,0-0.4-0.1-0.6-0.1c-0.8,0-1.7,0.5-1.7,2v4.5h-2V36.5z"/>
	<path class="st0" d="M150.5,35.6c0.6-0.3,1.3-0.6,2.6-0.6c2.6,0,3.2,1.2,3.2,3.3v3.6c0,0.6,0.1,1.1,0.1,1.5h-1.8
		c-0.1-0.3-0.1-0.7-0.1-1.1h0c-0.5,0.7-1.1,1.2-2.3,1.2c-1.3,0-2.5-0.9-2.5-2.4c0-2.2,1.8-2.8,4.3-2.8h0.4v-0.3
		c0-0.8-0.4-1.6-1.5-1.6c-1,0-1.9,0.5-2.3,0.8L150.5,35.6z M154.5,39.3h-0.2c-1.7,0-2.7,0.4-2.7,1.6c0,0.8,0.5,1.3,1.3,1.3
		c1.2,0,1.6-0.9,1.6-2.3V39.3z"/>
	<path class="st0" d="M162.5,31.3h2v12h-2V31.3z"/>
	<path class="st0" d="M166.9,35.6c0.6-0.3,1.3-0.6,2.6-0.6c2.6,0,3.2,1.2,3.2,3.3v3.6c0,0.6,0.1,1.1,0.1,1.5h-1.8
		c-0.1-0.3-0.1-0.7-0.1-1.1h0c-0.5,0.7-1.1,1.2-2.3,1.2c-1.3,0-2.5-0.9-2.5-2.4c0-2.2,1.8-2.8,4.3-2.8h0.4v-0.3
		c0-0.8-0.4-1.6-1.5-1.6c-1,0-1.9,0.5-2.3,0.8L166.9,35.6z M170.8,39.3h-0.2c-1.7,0-2.7,0.4-2.7,1.6c0,0.8,0.5,1.3,1.3,1.3
		c1.2,0,1.6-0.9,1.6-2.3V39.3z"/>
	<path class="st0" d="M183.6,40.7h-3.8l-0.8,2.7h-2l3.7-11.2h2.2l3.6,11.2h-2.1L183.6,40.7z M183.2,39.1l-1.4-5.2h0l-1.5,5.2H183.2z
		"/>
	<path class="st0" d="M187.7,31.3h2v12h-2V31.3z"/>
	<path class="st0" d="M191.8,31.6h2v2h-2V31.6z M191.8,35.1h2v8.2h-2V35.1z"/>
	<path class="st0" d="M195.8,36.4c0-0.6,0-1-0.1-1.3h2c0,0.4,0.1,0.9,0.1,1.3h0c0.3-0.6,0.9-1.4,2.1-1.4c1.4,0,1.8,0.9,2.1,1.3
		c0.4-0.6,1-1.3,2.2-1.3c1.8,0,2.4,1.3,2.4,3.3v5.1h-2v-5.2c0-1-0.3-1.5-1.1-1.5c-0.9,0-1.3,0.8-1.3,1.7v5h-2v-5.2
		c0-1-0.3-1.5-1.1-1.5c-0.9,0-1.3,0.8-1.3,1.7v5h-2V36.4z"/>
	<path class="st0" d="M214.3,42.9c-0.4,0.2-1.3,0.5-2.5,0.5c-2.7,0-3.8-1.9-3.8-4.1c0-2.5,1.3-4.4,3.4-4.4c1.8,0,3.3,1,3.3,4.4v0.4
		h-4.8c0,1.4,0.6,2.3,2.1,2.3c1.2,0,1.8-0.4,2.2-0.6L214.3,42.9z M212.8,38.5c0-1.5-0.5-2.2-1.4-2.2c-1,0-1.5,1.1-1.5,2.2H212.8z"/>
	<path class="st0" d="M216.2,36.5c0-0.5,0-1-0.1-1.4h1.9c0,0.4,0.1,0.8,0.1,1.3h0c0.3-0.5,0.8-1.4,2.2-1.4c1.9,0,2.4,1.4,2.4,3.1
		v5.3h-2v-4.9c0-1.3-0.3-1.8-1.1-1.8c-1,0-1.4,0.9-1.4,1.9v4.8h-2V36.5z"/>
	<path class="st0" d="M225.3,33.4l2-0.6v2.3h1.6v1.5h-1.6v4.3c0,0.9,0.3,1.1,0.9,1.1c0.4,0,0.6-0.1,0.8-0.2v1.4
		c-0.3,0.1-0.7,0.3-1.3,0.3c-1.5,0-2.3-0.7-2.3-2.4v-4.5h-1.3v-1.5h1.3V33.4z"/>
	<path class="st0" d="M230.5,35.6c0.6-0.3,1.3-0.6,2.6-0.6c2.6,0,3.2,1.2,3.2,3.3v3.6c0,0.6,0.1,1.1,0.1,1.5h-1.8
		c-0.1-0.3-0.1-0.7-0.1-1.1h0c-0.5,0.7-1.1,1.2-2.3,1.2c-1.3,0-2.5-0.9-2.5-2.4c0-2.2,1.8-2.8,4.3-2.8h0.4v-0.3
		c0-0.8-0.4-1.6-1.5-1.6c-1,0-1.9,0.5-2.3,0.8L230.5,35.6z M234.4,39.3h-0.2c-1.7,0-2.7,0.4-2.7,1.6c0,0.8,0.5,1.3,1.3,1.3
		c1.2,0,1.6-0.9,1.6-2.3V39.3z"/>
	<path class="st0" d="M243.7,43.1c-0.5,0.2-1.2,0.3-2,0.3c-2.7,0-3.9-1.9-3.9-4.2c0-2.3,1.2-4.3,4-4.3c0.6,0,1.4,0.2,1.7,0.3
		l-0.1,1.6c-0.4-0.2-0.8-0.4-1.4-0.4c-1.5,0-2.2,1-2.2,2.8c0,1.5,0.7,2.7,2.3,2.7c0.5,0,1.1-0.2,1.4-0.4L243.7,43.1z"/>
	<path class="st0" d="M245.1,31.6h2v2h-2V31.6z M245.1,35.1h2v8.2h-2V35.1z"/>
	<path class="st0" d="M252.5,35c1.7,0,3.6,0.9,3.6,4.2c0,3.5-1.9,4.3-3.6,4.3c-1.7,0-3.6-0.8-3.6-4.3C248.9,35.9,250.8,35,252.5,35z
		 M252.5,42.1c1.3,0,1.6-1.5,1.6-2.8s-0.3-2.8-1.6-2.8c-1.3,0-1.6,1.5-1.6,2.8S251.2,42.1,252.5,42.1z M252.6,31.9h1.9l-1.6,2.3
		h-1.2L252.6,31.9z"/>
	<path class="st0" d="M257.7,36.5c0-0.5,0-1-0.1-1.4h1.9c0,0.4,0.1,0.8,0.1,1.3h0c0.3-0.5,0.8-1.4,2.2-1.4c1.9,0,2.4,1.4,2.4,3.1
		v5.3h-2v-4.9c0-1.3-0.3-1.8-1.1-1.8c-1,0-1.4,0.9-1.4,1.9v4.8h-2V36.5z"/>
	<path class="st0" d="M81.6,59.4L81.6,59.4l1.6-6.2h1.9l-3,9.8c-0.4,1.1-1,2-2.4,2c-0.5,0-1-0.1-1.3-0.2l0.1-1.5
		c0.2,0.1,0.4,0.2,0.8,0.2c0.6,0,0.8-0.4,1.1-1.2l0.1-0.7l-2.7-8.3h2L81.6,59.4z"/>
	<path class="st0" d="M90.4,49.4h2v12h-2V49.4z"/>
	<path class="st0" d="M94.8,53.6c0.6-0.3,1.3-0.6,2.6-0.6c2.6,0,3.2,1.2,3.2,3.3v3.6c0,0.6,0.1,1.1,0.1,1.5h-1.8
		c-0.1-0.3-0.1-0.7-0.1-1.1h0c-0.5,0.7-1.1,1.2-2.3,1.2c-1.3,0-2.5-0.9-2.5-2.4c0-2.2,1.8-2.8,4.3-2.8h0.4V56c0-0.8-0.4-1.6-1.5-1.6
		c-1,0-1.9,0.5-2.3,0.8L94.8,53.6z M98.7,57.4h-0.2c-1.7,0-2.7,0.4-2.7,1.5c0,0.8,0.5,1.3,1.3,1.3c1.2,0,1.6-0.9,1.6-2.3V57.4z"/>
	<path class="st0" d="M111.5,58.7h-3.8l-0.8,2.7h-2l3.7-11.2h2.2l3.6,11.2h-2.1L111.5,58.7z M111.1,57.2l-1.4-5.2h0l-1.5,5.2H111.1z
		"/>
	<path class="st0" d="M115.7,62.7c0.5,0.3,1.4,0.7,2.4,0.7c1.9,0,2.2-1.3,2.2-2.6V60h0c-0.3,0.6-0.9,1.4-2.2,1.4
		c-1.2,0-2.9-0.8-2.9-4.1c0-2.3,0.8-4.3,3-4.3c1.2,0,1.8,0.7,2.2,1.4h0.1c0-0.4,0-0.8,0.1-1.3h1.8c0,0.4-0.1,0.9-0.1,1.3v6.1
		c0,2.6-0.8,4.4-3.8,4.4c-1.3,0-2.4-0.3-2.8-0.5L115.7,62.7z M118.5,59.9c1.2,0,1.7-0.9,1.7-2.8c0-1.7-0.7-2.7-1.6-2.6
		c-1,0-1.4,1-1.4,2.7C117.2,59.1,117.8,59.9,118.5,59.9z"/>
	<path class="st0" d="M124,54.5c0-0.5,0-1-0.1-1.4h1.8c0,0.5,0.1,1,0.1,1.5h0c0.2-0.6,0.9-1.6,2.1-1.6c0.1,0,0.2,0,0.3,0v1.9
		c-0.2,0-0.4-0.1-0.6-0.1c-0.8,0-1.7,0.5-1.7,2v4.5h-2V54.5z"/>
	<path class="st0" d="M129.8,49.7h2v2h-2V49.7z M129.8,53.2h2v8.2h-2V53.2z"/>
	<path class="st0" d="M139.4,61.2c-0.5,0.2-1.2,0.3-2,0.3c-2.7,0-3.9-1.9-3.9-4.2c0-2.3,1.2-4.3,4-4.3c0.6,0,1.4,0.2,1.7,0.3
		l-0.1,1.6c-0.4-0.2-0.8-0.4-1.4-0.4c-1.5,0-2.2,1-2.2,2.8c0,1.5,0.7,2.7,2.3,2.7c0.5,0,1.1-0.2,1.4-0.4L139.4,61.2z"/>
	<path class="st0" d="M147.1,60c0,0.5,0,1,0.1,1.4h-1.9c0-0.4-0.1-0.8-0.1-1.3l0,0l0,0c-0.4,0.6-0.9,1.4-2.2,1.4
		c-1.9,0-2.4-1.4-2.4-3.1v-5.3h2v4.9c0,1.3,0.4,1.8,1.2,1.8c1.1,0,1.4-1,1.4-2v-4.7h2V60z"/>
	<path class="st0" d="M149.1,49.4h2v12h-2V49.4z"/>
	<path class="st0" d="M153.8,51.5l2-0.6v2.3h1.6v1.5h-1.6v4.3c0,0.9,0.3,1.1,0.9,1.1c0.4,0,0.6-0.1,0.8-0.2v1.4
		c-0.3,0.1-0.7,0.3-1.3,0.3c-1.5,0-2.3-0.7-2.3-2.4v-4.5h-1.3v-1.5h1.3V51.5z"/>
	<path class="st0" d="M165.2,60c0,0.5,0,1,0.1,1.4h-1.9c0-0.4-0.1-0.8-0.1-1.3l0,0l0,0c-0.4,0.6-0.9,1.4-2.2,1.4
		c-1.9,0-2.4-1.4-2.4-3.1v-5.3h2v4.9c0,1.3,0.4,1.8,1.2,1.8c1.1,0,1.4-1,1.4-2v-4.7h2V60z"/>
	<path class="st0" d="M167,54.5c0-0.5,0-1-0.1-1.4h1.8c0,0.5,0.1,1,0.1,1.5h0c0.2-0.6,0.9-1.6,2.1-1.6c0.1,0,0.2,0,0.3,0v1.9
		c-0.2,0-0.4-0.1-0.6-0.1c-0.8,0-1.7,0.5-1.7,2v4.5h-2V54.5z"/>
	<path class="st0" d="M172.8,53.6c0.6-0.3,1.3-0.6,2.6-0.6c2.6,0,3.2,1.2,3.2,3.3v3.6c0,0.6,0.1,1.1,0.1,1.5h-1.8
		c-0.1-0.3-0.1-0.7-0.1-1.1h0c-0.5,0.7-1.1,1.2-2.3,1.2c-1.3,0-2.5-0.9-2.5-2.4c0-2.2,1.8-2.8,4.3-2.8h0.4V56c0-0.8-0.4-1.6-1.5-1.6
		c-1,0-1.9,0.5-2.3,0.8L172.8,53.6z M176.7,57.4h-0.2c-1.7,0-2.7,0.4-2.7,1.5c0,0.8,0.5,1.3,1.3,1.3c1.2,0,1.6-0.9,1.6-2.3V57.4z"/>
</g>
<g>
</g>
<g>
</g>
<g>
</g>
<g>
</g>
<g>
</g>
<g>
</g>
</svg>
