<?xml version="1.0" encoding="utf-8"?>
<!-- Generator: Adobe Illustrator 24.0.2, SVG Export Plug-In . SVG Version: 6.00 Build 0)  -->
<svg version="1.1" id="Layer_1" xmlns="http://www.w3.org/2000/svg" xmlns:xlink="http://www.w3.org/1999/xlink" x="0px" y="0px"
	 viewBox="0 0 792 129" style="enable-background:new 0 0 792 129;" xml:space="preserve">
<style type="text/css">
	.st0{fill:#FCC30B;}
	.st1{fill:#A21942;}
	.st2{fill:#FD6925;}
	.st3{fill:#DD1367;}
	.st4{fill:#FD9D24;}
	.st5{fill:#BE8B2E;}
	.st6{fill:#FFFFFF;}
</style>
<rect x="7" y="5" class="st0" width="118" height="118"/>
<rect x="139.2" y="5" class="st1" width="118" height="118"/>
<rect x="271.4" y="5" class="st2" width="118" height="118"/>
<rect x="403.6" y="5" class="st3" width="118" height="118"/>
<rect x="535.8" y="5" class="st4" width="118" height="118"/>
<rect x="668" y="5" class="st5" width="118" height="118"/>
<g>
	<path class="st6" d="M282.4,36.6c-0.9-1-1.3-2.4-1.3-4.3V32h4.1c0,1,0.1,1.7,0.3,2.2c0.2,0.4,0.7,0.6,1.3,0.6c0.5,0,0.8-0.1,1-0.4
		c0.2-0.3,0.4-0.7,0.5-1.4c0.1-0.6,0.1-1.6,0.1-2.8v-2.3c-0.2,0.4-0.6,0.7-1.1,1c-0.5,0.2-1.1,0.3-1.8,0.3c-1.7,0-2.9-0.6-3.6-1.8
		c-0.8-1.2-1.1-2.8-1.1-4.9c0-5.1,2-7.6,6.1-7.6c2.1,0,3.6,0.6,4.6,1.9c1,1.3,1.5,3,1.5,5.3v8.2c0,2.4-0.4,4.3-1.3,5.7
		c-0.9,1.4-2.5,2-4.7,2C284.7,38.1,283.2,37.6,282.4,36.6 M288.4,24.9v-3.6c0-1-0.1-1.8-0.4-2.3c-0.2-0.6-0.7-0.9-1.3-0.9
		c-0.7,0-1.1,0.3-1.3,0.9c-0.2,0.6-0.3,1.6-0.3,3c0,1,0,1.7,0.1,2.2c0.1,0.5,0.2,0.9,0.5,1.2c0.2,0.3,0.6,0.5,1.2,0.5
		C287.4,26,288,25.6,288.4,24.9"/>
	<rect x="302.3" y="15.1" class="st6" width="1.5" height="8.6"/>
	<polygon class="st6" points="305,23.7 305,15.1 306.1,15.1 308.2,20 308.2,15.1 309.5,15.1 309.5,23.7 308.4,23.7 306.3,18.6 
		306.3,23.7 	"/>
	<path class="st6" d="M310.5,23.7v-8.6h2c0.5,0,1,0.1,1.3,0.2s0.6,0.3,0.8,0.5c0.2,0.2,0.4,0.5,0.4,0.8c0.1,0.3,0.1,0.7,0.1,1.2v3.1
		c0,0.5,0,0.9-0.1,1.2c-0.1,0.3-0.2,0.6-0.4,0.9c-0.2,0.2-0.5,0.4-0.8,0.5c-0.3,0.1-0.8,0.2-1.3,0.2H310.5z M312.1,22.6h0.4
		c0.2,0,0.3,0,0.4,0c0.1,0,0.2-0.1,0.3-0.1c0.1,0,0.1-0.1,0.2-0.2c0.1-0.1,0.1-0.2,0.1-0.2c0-0.1,0-0.2,0.1-0.3c0-0.1,0-0.3,0-0.4
		c0-0.1,0-0.3,0-0.5v-3.1c0-0.2,0-0.4,0-0.5c0-0.1,0-0.3,0-0.4c0-0.1-0.1-0.2-0.1-0.3c-0.1-0.1-0.1-0.1-0.2-0.2
		c-0.1-0.1-0.2-0.1-0.3-0.1c-0.1,0-0.3,0-0.5,0h-0.4V22.6z"/>
	<path class="st6" d="M318.6,23.8c-0.4,0-0.7,0-1-0.1c-0.3-0.1-0.5-0.2-0.7-0.4s-0.3-0.4-0.4-0.6c-0.1-0.3-0.2-0.5-0.2-0.8
		c0-0.3-0.1-0.6-0.1-1v-5.7h1.5V21c0,0.2,0,0.4,0,0.5c0,0.1,0,0.3,0.1,0.4c0,0.2,0.1,0.3,0.1,0.4c0.1,0.1,0.2,0.2,0.3,0.2
		c0.1,0.1,0.2,0.1,0.4,0.1c0.2,0,0.3,0,0.4-0.1c0.1-0.1,0.2-0.1,0.3-0.2c0.1-0.1,0.1-0.2,0.1-0.4c0-0.2,0.1-0.3,0.1-0.4
		c0-0.1,0-0.3,0-0.5v-5.9h1.5v5.7c0,0.4,0,0.7-0.1,1c0,0.3-0.1,0.6-0.2,0.8c-0.1,0.3-0.3,0.5-0.4,0.6c-0.2,0.2-0.4,0.3-0.7,0.4
		C319.3,23.7,318.9,23.8,318.6,23.8"/>
	<path class="st6" d="M324.1,23.8c-1.5,0-2.3-0.9-2.4-2.6l1.4-0.3c0,1.1,0.4,1.7,1,1.7c0.2,0,0.4-0.1,0.5-0.2
		c0.1-0.1,0.2-0.3,0.2-0.6c0-0.2,0-0.5-0.1-0.7c-0.1-0.2-0.2-0.4-0.3-0.5c-0.1-0.1-0.3-0.3-0.5-0.5l-1.1-1c-0.3-0.3-0.6-0.6-0.7-0.9
		c-0.2-0.3-0.2-0.7-0.2-1.2c0-0.7,0.2-1.2,0.6-1.6c0.4-0.4,0.9-0.6,1.6-0.6c0.3,0,0.6,0,0.8,0.1c0.2,0.1,0.4,0.2,0.6,0.3
		c0.2,0.1,0.3,0.3,0.4,0.5c0.1,0.2,0.2,0.4,0.2,0.6c0.1,0.2,0.1,0.5,0.1,0.7l-1.3,0.3c0-0.2,0-0.3,0-0.5c0-0.1,0-0.3-0.1-0.4
		s-0.1-0.2-0.1-0.3c-0.1-0.1-0.1-0.1-0.2-0.2c-0.1,0-0.2-0.1-0.4-0.1c-0.2,0-0.4,0.1-0.5,0.2c-0.1,0.1-0.2,0.3-0.2,0.6
		c0,0.3,0.1,0.5,0.2,0.7c0.1,0.2,0.3,0.4,0.5,0.6l1.1,1c0.2,0.2,0.3,0.3,0.5,0.5c0.1,0.2,0.3,0.3,0.4,0.5c0.1,0.2,0.2,0.4,0.3,0.7
		c0.1,0.2,0.1,0.5,0.1,0.8c0,0.6-0.2,1.1-0.6,1.5C325.3,23.6,324.8,23.8,324.1,23.8"/>
	<polygon class="st6" points="327.8,23.7 327.8,16.2 326.4,16.2 326.4,15.1 330.8,15.1 330.8,16.2 329.4,16.2 329.4,23.7 	"/>
	<path class="st6" d="M331.3,23.7v-8.6h2c0.5,0,0.8,0,1.2,0.1c0.3,0.1,0.6,0.2,0.8,0.4c0.2,0.2,0.4,0.4,0.5,0.7
		c0.1,0.3,0.2,0.7,0.2,1.1c0,0.5-0.1,1-0.2,1.3c-0.2,0.3-0.4,0.6-0.8,0.7l1.2,4.2h-1.6l-1-3.9h-0.7v3.9H331.3z M332.8,18.8h0.4
		c0.5,0,0.8-0.1,1-0.3c0.2-0.2,0.3-0.5,0.3-1c0-0.5-0.1-0.8-0.3-1c-0.2-0.2-0.5-0.3-0.9-0.3h-0.5V18.8z"/>
	<rect x="337" y="15.1" class="st6" width="1.5" height="8.6"/>
	<path class="st6" d="M339.2,23.7l1.7-8.6h1.6l1.7,8.6h-1.5l-0.3-2H341l-0.4,2H339.2z M341.2,20.7h1.2l-0.6-3.5L341.2,20.7z"/>
	<path class="st6" d="M345,25.1l-0.2-0.5c0.2-0.1,0.4-0.2,0.5-0.3c0.1-0.2,0.2-0.4,0.2-0.6h-0.8v-1.4h1.4v1.3
		C346.2,24.5,345.8,25,345,25.1"/>
	<rect x="302.3" y="29.1" class="st6" width="1.5" height="8.6"/>
	<polygon class="st6" points="305,37.7 305,29.1 306.1,29.1 308.2,34 308.2,29.1 309.5,29.1 309.5,37.7 308.4,37.7 306.3,32.6 
		306.3,37.7 	"/>
	<polygon class="st6" points="310.5,37.7 310.5,29.1 311.6,29.1 313.7,34 313.7,29.1 315,29.1 315,37.7 314,37.7 311.9,32.6 
		311.9,37.7 	"/>
	<path class="st6" d="M318.4,37.8c-0.9,0-1.5-0.2-1.9-0.7c-0.4-0.5-0.6-1.2-0.6-2.1v-3.2c0-0.5,0-0.9,0.1-1.2
		c0.1-0.3,0.2-0.6,0.4-0.9c0.2-0.2,0.4-0.4,0.8-0.6c0.3-0.1,0.7-0.2,1.2-0.2c0.9,0,1.5,0.2,1.9,0.7c0.4,0.5,0.6,1.2,0.6,2.1V35
		c0,0.5,0,0.8-0.1,1.2c-0.1,0.3-0.2,0.6-0.4,0.9c-0.2,0.3-0.4,0.4-0.8,0.6C319.3,37.8,318.9,37.8,318.4,37.8 M318,36.6
		c0.1,0,0.2,0.1,0.4,0.1c0.2,0,0.3,0,0.4-0.1c0.1,0,0.2-0.1,0.3-0.2c0.1-0.1,0.1-0.2,0.2-0.3c0-0.1,0.1-0.2,0.1-0.4s0-0.3,0-0.4
		v-3.9c0-0.2,0-0.4,0-0.5c0-0.1-0.1-0.3-0.1-0.4c-0.1-0.1-0.2-0.2-0.3-0.3c-0.1-0.1-0.3-0.1-0.5-0.1c-0.2,0-0.3,0-0.5,0.1
		c-0.1,0.1-0.2,0.2-0.3,0.3c-0.1,0.1-0.1,0.3-0.1,0.4c0,0.1,0,0.3,0,0.5v3.9c0,0.2,0,0.3,0,0.4c0,0.1,0,0.2,0.1,0.4
		c0,0.1,0.1,0.2,0.1,0.3C317.8,36.5,317.9,36.6,318,36.6"/>
	<polygon class="st6" points="323.2,37.7 321.4,29.1 322.8,29.1 324,35.1 325,29.1 326.5,29.1 324.7,37.7 	"/>
	<path class="st6" d="M326.4,37.7l1.7-8.6h1.6l1.7,8.6h-1.5l-0.3-2h-1.5l-0.4,2H326.4z M328.4,34.7h1.2l-0.6-3.5L328.4,34.7z"/>
	<path class="st6" d="M334.5,37.8c-0.4,0-0.7,0-1-0.1c-0.3-0.1-0.5-0.2-0.7-0.4c-0.2-0.2-0.3-0.4-0.5-0.6c-0.1-0.2-0.2-0.5-0.2-0.8
		c0-0.3-0.1-0.6-0.1-1v-3c0-0.4,0-0.7,0.1-1c0-0.3,0.1-0.6,0.2-0.8c0.1-0.2,0.3-0.5,0.4-0.6c0.2-0.2,0.4-0.3,0.7-0.4
		c0.3-0.1,0.6-0.1,1-0.1c0.4,0,0.8,0.1,1.1,0.2c0.3,0.1,0.5,0.3,0.7,0.5c0.2,0.2,0.3,0.5,0.4,0.8c0.1,0.3,0.1,0.6,0.1,1v0.7h-1.5
		v-0.7c0-0.4,0-0.7-0.1-0.9c-0.1-0.3-0.3-0.4-0.7-0.5h-0.1c-0.1,0-0.2,0-0.3,0c-0.1,0-0.2,0.1-0.2,0.1c-0.1,0.1-0.1,0.1-0.2,0.2
		c0,0.1-0.1,0.2-0.1,0.3c0,0.1,0,0.2,0,0.3c0,0.1,0,0.2,0,0.4v3.6c0,0.5,0.1,0.9,0.2,1.1c0.1,0.2,0.4,0.3,0.7,0.3c0.1,0,0.2,0,0.3,0
		c0.1,0,0.2-0.1,0.2-0.1c0.1,0,0.1-0.1,0.1-0.2c0-0.1,0.1-0.1,0.1-0.2c0-0.1,0-0.2,0-0.3c0-0.1,0-0.2,0-0.3c0-0.1,0-0.2,0-0.3v-0.8
		h1.5v0.7c0,0.3,0,0.6-0.1,0.9c0,0.3-0.1,0.5-0.2,0.7c-0.1,0.2-0.2,0.4-0.4,0.6c-0.2,0.1-0.4,0.3-0.7,0.4
		C335.1,37.8,334.8,37.8,334.5,37.8"/>
	<rect x="337.7" y="29.1" class="st6" width="1.5" height="8.6"/>
	<path class="st6" d="M342.7,37.8c-0.9,0-1.5-0.2-1.9-0.7c-0.4-0.5-0.6-1.2-0.6-2.1v-3.2c0-0.5,0-0.9,0.1-1.2
		c0.1-0.3,0.2-0.6,0.4-0.9c0.2-0.2,0.4-0.4,0.8-0.6c0.3-0.1,0.7-0.2,1.2-0.2c0.9,0,1.5,0.2,1.9,0.7c0.4,0.5,0.6,1.2,0.6,2.1V35
		c0,0.4,0,0.8-0.1,1.2c-0.1,0.3-0.2,0.6-0.4,0.9c-0.2,0.3-0.4,0.4-0.8,0.6C343.5,37.8,343.1,37.8,342.7,37.8 M342.3,36.6
		c0.1,0,0.2,0.1,0.4,0.1c0.2,0,0.3,0,0.4-0.1c0.1,0,0.2-0.1,0.3-0.2c0.1-0.1,0.1-0.2,0.2-0.3c0-0.1,0.1-0.2,0.1-0.4
		c0-0.1,0-0.3,0-0.4v-3.9c0-0.2,0-0.4,0-0.5c0-0.1-0.1-0.3-0.1-0.4c-0.1-0.1-0.2-0.2-0.3-0.3c-0.1-0.1-0.3-0.1-0.5-0.1
		c-0.2,0-0.3,0-0.5,0.1c-0.1,0.1-0.2,0.2-0.3,0.3c-0.1,0.1-0.1,0.3-0.1,0.4c0,0.1,0,0.3,0,0.5v3.9c0,0.2,0,0.3,0,0.4
		c0,0.1,0,0.2,0.1,0.4c0,0.1,0.1,0.2,0.1,0.3C342.1,36.5,342.2,36.6,342.3,36.6 M342.3,28.4l0.6-2.1h1.5l-1.3,2.1H342.3z"/>
	<polygon class="st6" points="346.1,37.7 346.1,29.1 347.2,29.1 349.3,34 349.3,29.1 350.6,29.1 350.6,37.7 349.6,37.7 347.4,32.6 
		347.4,37.7 	"/>
	<polygon class="st6" points="354,37.7 354,29.1 357.6,29.1 357.6,30.2 355.6,30.2 355.6,32.7 357.2,32.7 357.2,33.8 355.6,33.8 
		355.6,36.6 357.7,36.6 357.7,37.7 	"/>
	<rect x="302.3" y="43.2" class="st6" width="1.5" height="8.6"/>
	<polygon class="st6" points="305,51.8 305,43.2 306.1,43.2 308.2,48.1 308.2,43.2 309.5,43.2 309.5,51.8 308.4,51.8 306.3,46.7 
		306.3,51.8 	"/>
	<polygon class="st6" points="310.5,51.8 310.5,43.2 314.1,43.2 314.1,44.3 312.1,44.3 312.1,46.8 313.7,46.8 313.7,47.9 
		312.1,47.9 312.1,51.8 	"/>
	<path class="st6" d="M314.7,51.8v-8.6h2c0.5,0,0.8,0,1.2,0.1c0.3,0.1,0.6,0.2,0.8,0.4c0.2,0.2,0.4,0.4,0.5,0.7
		c0.1,0.3,0.2,0.7,0.2,1.1c0,0.5-0.1,1-0.2,1.3c-0.2,0.3-0.4,0.6-0.8,0.7l1.2,4.2H318l-1-3.9h-0.7v3.9H314.7z M316.3,46.9h0.4
		c0.5,0,0.8-0.1,1-0.3c0.2-0.2,0.3-0.5,0.3-1c0-0.5-0.1-0.8-0.3-1c-0.2-0.2-0.5-0.3-0.9-0.3h-0.5V46.9z"/>
	<path class="st6" d="M319.9,51.8l1.7-8.6h1.6l1.7,8.6h-1.5l-0.3-2h-1.5l-0.4,2H319.9z M321.9,48.8h1.2l-0.6-3.5L321.9,48.8z"/>
	<polygon class="st6" points="325.7,51.8 325.7,43.2 329.3,43.2 329.3,44.3 327.2,44.3 327.2,46.8 328.8,46.8 328.8,47.9 
		327.2,47.9 327.2,50.7 329.3,50.7 329.3,51.8 	"/>
	<path class="st6" d="M332.2,51.9c-1.5,0-2.3-0.9-2.4-2.6l1.4-0.3c0,1.1,0.4,1.7,1,1.7c0.2,0,0.4-0.1,0.5-0.2
		c0.1-0.1,0.2-0.3,0.2-0.6c0-0.2,0-0.5-0.1-0.7c-0.1-0.2-0.2-0.4-0.3-0.5c-0.1-0.1-0.3-0.3-0.5-0.5l-1.1-1c-0.3-0.3-0.6-0.6-0.7-0.9
		c-0.2-0.3-0.2-0.7-0.2-1.2c0-0.7,0.2-1.2,0.6-1.6c0.4-0.4,0.9-0.6,1.6-0.6c0.3,0,0.6,0,0.8,0.1c0.2,0.1,0.4,0.2,0.6,0.3
		c0.2,0.1,0.3,0.3,0.4,0.5c0.1,0.2,0.2,0.4,0.2,0.6c0.1,0.2,0.1,0.5,0.1,0.7l-1.3,0.3c0-0.2,0-0.3,0-0.5c0-0.1,0-0.3-0.1-0.4
		c0-0.1-0.1-0.2-0.1-0.3c-0.1-0.1-0.1-0.1-0.2-0.2c-0.1,0-0.2-0.1-0.4-0.1c-0.2,0-0.4,0.1-0.5,0.2c-0.1,0.1-0.2,0.3-0.2,0.6
		c0,0.3,0.1,0.5,0.2,0.7c0.1,0.2,0.3,0.4,0.5,0.6l1.1,1c0.2,0.2,0.3,0.3,0.5,0.5c0.1,0.2,0.3,0.3,0.4,0.5c0.1,0.2,0.2,0.4,0.3,0.7
		c0.1,0.2,0.1,0.5,0.1,0.8c0,0.6-0.2,1.1-0.6,1.5C333.3,51.7,332.8,51.9,332.2,51.9"/>
	<polygon class="st6" points="335.9,51.8 335.9,44.3 334.4,44.3 334.4,43.2 338.8,43.2 338.8,44.3 337.4,44.3 337.4,51.8 	"/>
	<path class="st6" d="M339.3,51.8v-8.6h2c0.5,0,0.8,0,1.2,0.1c0.3,0.1,0.6,0.2,0.8,0.4c0.2,0.2,0.4,0.4,0.5,0.7
		c0.1,0.3,0.2,0.7,0.2,1.1c0,0.5-0.1,1-0.2,1.3c-0.2,0.3-0.4,0.6-0.8,0.7l1.2,4.2h-1.6l-1-3.9h-0.7v3.9H339.3z M340.9,46.9h0.4
		c0.5,0,0.8-0.1,1-0.3c0.2-0.2,0.3-0.5,0.3-1c0-0.5-0.1-0.8-0.3-1c-0.2-0.2-0.5-0.3-0.9-0.3h-0.5V46.9z"/>
	<path class="st6" d="M347.3,51.9c-0.4,0-0.7,0-1-0.1c-0.3-0.1-0.5-0.2-0.7-0.4c-0.2-0.2-0.3-0.4-0.4-0.6c-0.1-0.3-0.2-0.5-0.2-0.8
		c0-0.3-0.1-0.6-0.1-1v-5.7h1.5v5.9c0,0.2,0,0.4,0,0.5c0,0.1,0,0.3,0.1,0.4c0,0.2,0.1,0.3,0.1,0.4c0.1,0.1,0.2,0.2,0.3,0.2
		c0.1,0.1,0.2,0.1,0.4,0.1c0.2,0,0.3,0,0.4-0.1c0.1-0.1,0.2-0.1,0.3-0.2c0.1-0.1,0.1-0.2,0.1-0.4c0-0.2,0.1-0.3,0.1-0.4
		c0-0.1,0-0.3,0-0.5v-5.9h1.5v5.7c0,0.4,0,0.7-0.1,1c0,0.3-0.1,0.6-0.2,0.8c-0.1,0.3-0.3,0.5-0.4,0.6c-0.2,0.2-0.4,0.3-0.7,0.4
		C348,51.8,347.7,51.9,347.3,51.9"/>
	<path class="st6" d="M353,51.9c-0.4,0-0.7,0-1-0.1c-0.3-0.1-0.5-0.2-0.7-0.4c-0.2-0.2-0.3-0.4-0.5-0.6c-0.1-0.2-0.2-0.5-0.2-0.8
		c0-0.3-0.1-0.6-0.1-1v-3c0-0.4,0-0.7,0.1-1c0-0.3,0.1-0.6,0.2-0.8c0.1-0.2,0.3-0.5,0.4-0.6c0.2-0.2,0.4-0.3,0.7-0.4
		c0.3-0.1,0.6-0.1,1-0.1c0.4,0,0.8,0.1,1.1,0.2c0.3,0.1,0.5,0.3,0.7,0.5c0.2,0.2,0.3,0.5,0.4,0.8c0.1,0.3,0.1,0.6,0.1,1v0.7h-1.5
		v-0.7c0-0.4,0-0.7-0.1-0.9c-0.1-0.3-0.3-0.4-0.7-0.5H353c-0.1,0-0.2,0-0.3,0c-0.1,0-0.2,0.1-0.2,0.1c-0.1,0.1-0.1,0.1-0.2,0.2
		c0,0.1-0.1,0.2-0.1,0.3c0,0.1,0,0.2,0,0.3c0,0.1,0,0.2,0,0.4v3.6c0,0.5,0.1,0.9,0.2,1.1c0.1,0.2,0.4,0.3,0.7,0.3c0.1,0,0.2,0,0.3,0
		c0.1,0,0.2-0.1,0.2-0.1c0.1,0,0.1-0.1,0.1-0.2c0-0.1,0.1-0.1,0.1-0.2c0-0.1,0-0.2,0-0.3c0-0.1,0-0.2,0-0.3c0-0.1,0-0.2,0-0.3v-0.8
		h1.5v0.7c0,0.3,0,0.6-0.1,0.9c0,0.3-0.1,0.5-0.2,0.7c-0.1,0.2-0.3,0.4-0.4,0.6c-0.2,0.1-0.4,0.3-0.7,0.4
		C353.7,51.8,353.4,51.9,353,51.9"/>
	<polygon class="st6" points="357.1,51.8 357.1,44.3 355.6,44.3 355.6,43.2 360,43.2 360,44.3 358.6,44.3 358.6,51.8 	"/>
	<path class="st6" d="M362.9,51.9c-0.4,0-0.7,0-1-0.1c-0.3-0.1-0.5-0.2-0.7-0.4s-0.3-0.4-0.4-0.6c-0.1-0.3-0.2-0.5-0.2-0.8
		c0-0.3-0.1-0.6-0.1-1v-5.7h1.5v5.9c0,0.2,0,0.4,0,0.5c0,0.1,0,0.3,0.1,0.4c0,0.2,0.1,0.3,0.1,0.4c0.1,0.1,0.2,0.2,0.3,0.2
		c0.1,0.1,0.2,0.1,0.4,0.1c0.2,0,0.3,0,0.4-0.1c0.1-0.1,0.2-0.1,0.3-0.2c0.1-0.1,0.1-0.2,0.1-0.4c0-0.2,0.1-0.3,0.1-0.4
		c0-0.1,0-0.3,0-0.5v-5.9h1.5v5.7c0,0.4,0,0.7-0.1,1c0,0.3-0.1,0.6-0.2,0.8c-0.1,0.3-0.3,0.5-0.4,0.6c-0.2,0.2-0.4,0.3-0.7,0.4
		C363.6,51.8,363.2,51.9,362.9,51.9"/>
	<path class="st6" d="M366.3,51.8v-8.6h2c0.5,0,0.8,0,1.2,0.1c0.3,0.1,0.6,0.2,0.8,0.4c0.2,0.2,0.4,0.4,0.5,0.7
		c0.1,0.3,0.2,0.7,0.2,1.1c0,0.5-0.1,1-0.2,1.3c-0.2,0.3-0.4,0.6-0.8,0.7l1.2,4.2h-1.6l-1-3.9h-0.7v3.9H366.3z M367.8,46.9h0.4
		c0.5,0,0.8-0.1,1-0.3c0.2-0.2,0.3-0.5,0.3-1c0-0.5-0.1-0.8-0.3-1c-0.2-0.2-0.5-0.3-0.9-0.3h-0.5V46.9z"/>
	<path class="st6" d="M371.5,51.8l1.7-8.6h1.6l1.7,8.6h-1.5l-0.3-2h-1.5l-0.4,2H371.5z M373.5,48.8h1.2l-0.6-3.5L373.5,48.8z"/>
	<path class="st6" d="M148.4,31.3c0-1.3,0.2-2.4,0.7-3.3c0.4-0.9,1.1-1.6,2-2.1c-0.7-0.5-1.2-1.2-1.7-2c-0.4-0.8-0.6-1.9-0.6-3.1
		c0-1.9,0.5-3.3,1.5-4.3c1-1,2.4-1.5,4.2-1.5c1.8,0,3.2,0.5,4.2,1.5c1,1,1.4,2.4,1.4,4.2c0,1.3-0.2,2.3-0.6,3.2
		c-0.4,0.9-1,1.5-1.6,2c0.9,0.4,1.5,1.1,2,2.1c0.4,1,0.7,2.1,0.7,3.4c0,2.1-0.5,3.7-1.4,4.9c-1,1.2-2.5,1.7-4.6,1.7
		C150.5,38.1,148.4,35.8,148.4,31.3 M155.9,33.9c0.3-0.7,0.4-1.5,0.4-2.5c0-1.1-0.1-2-0.4-2.6c-0.2-0.6-0.7-1-1.5-1
		c-0.7,0-1.2,0.3-1.5,1c-0.2,0.7-0.4,1.5-0.4,2.6c0,1,0.1,1.8,0.4,2.5c0.3,0.7,0.7,1,1.5,1C155.2,34.9,155.7,34.6,155.9,33.9
		 M156.1,20.8c0-0.8-0.1-1.5-0.4-1.9c-0.3-0.5-0.7-0.7-1.2-0.7c-0.5,0-0.9,0.2-1.2,0.7c-0.3,0.5-0.4,1.1-0.4,1.9
		c0,2.3,0.5,3.5,1.6,3.5C155.5,24.3,156.1,23.2,156.1,20.8"/>
	<polygon class="st6" points="169.8,23.8 169.8,16.4 168.3,16.4 168.3,15.2 172.7,15.2 172.7,16.4 171.3,16.4 171.3,23.8 	"/>
	<path class="st6" d="M173.1,23.8v-8.6h2c0.5,0,0.8,0,1.2,0.1c0.3,0.1,0.6,0.2,0.8,0.4c0.2,0.2,0.4,0.4,0.5,0.7
		c0.1,0.3,0.2,0.7,0.2,1.1c0,0.5-0.1,1-0.2,1.3c-0.2,0.3-0.4,0.6-0.8,0.7l1.2,4.2h-1.6l-1-3.9h-0.7v3.9H173.1z M174.7,18.9h0.4
		c0.5,0,0.8-0.1,1-0.3c0.2-0.2,0.3-0.5,0.3-1c0-0.5-0.1-0.8-0.3-1c-0.2-0.2-0.5-0.3-0.9-0.3h-0.5V18.9z"/>
	<path class="st6" d="M178.3,23.8l1.7-8.6h1.6l1.7,8.6H182l-0.3-2h-1.5l-0.4,2H178.3z M180.3,20.8h1.2l-0.6-3.5L180.3,20.8z"/>
	<path class="st6" d="M184,23.8v-8.6h2.1c0.4,0,0.7,0,1,0.1c0.3,0.1,0.6,0.2,0.8,0.4c0.2,0.2,0.4,0.4,0.5,0.7
		c0.1,0.3,0.2,0.6,0.2,1.1c0,1.1-0.4,1.7-1.3,1.8c0.5,0.1,0.9,0.3,1.1,0.7c0.3,0.3,0.4,0.8,0.4,1.5c0,0.8-0.2,1.4-0.6,1.9
		c-0.4,0.4-1,0.6-1.8,0.6H184z M185.6,18.7h0.5c0.5,0,0.8-0.1,0.9-0.3c0.2-0.2,0.3-0.5,0.3-1c0-0.2,0-0.4-0.1-0.6
		c-0.1-0.2-0.2-0.3-0.3-0.3c-0.1-0.1-0.3-0.1-0.4-0.2c-0.2,0-0.4,0-0.7,0h-0.2V18.7z M185.6,22.7h0.6c0.5,0,0.8-0.1,1-0.3
		c0.2-0.2,0.3-0.6,0.3-1.1c0-0.5-0.1-0.9-0.3-1.1c-0.2-0.2-0.5-0.4-1-0.4h-0.5V22.7z"/>
	<path class="st6" d="M189.2,23.8l1.7-8.6h1.6l1.7,8.6h-1.5l-0.3-2H191l-0.4,2H189.2z M191.2,20.8h1.2l-0.6-3.5L191.2,20.8z"/>
	<path class="st6" d="M194.3,24v-1.1c0.5,0,0.8-0.1,0.9-0.2c0.2-0.1,0.2-0.4,0.2-0.9v-6.6h1.6l0,6.6c0,0.4,0,0.7-0.1,1
		c-0.1,0.3-0.2,0.5-0.3,0.7c-0.1,0.2-0.3,0.3-0.6,0.4c-0.3,0.1-0.6,0.1-0.9,0.1H194.3z"/>
	<path class="st6" d="M200.4,23.9c-0.9,0-1.5-0.2-1.9-0.7c-0.4-0.5-0.6-1.2-0.6-2.1v-3.2c0-0.5,0-0.9,0.1-1.2
		c0.1-0.3,0.2-0.6,0.4-0.9c0.2-0.2,0.4-0.4,0.8-0.6c0.3-0.1,0.7-0.2,1.2-0.2c0.9,0,1.5,0.2,1.9,0.7c0.4,0.5,0.6,1.2,0.6,2.1v3.2
		c0,0.4,0,0.8-0.1,1.2c-0.1,0.3-0.2,0.6-0.4,0.9c-0.2,0.3-0.4,0.4-0.8,0.6C201.2,23.9,200.8,23.9,200.4,23.9 M200,22.7
		c0.1,0,0.2,0.1,0.4,0.1c0.2,0,0.3,0,0.4-0.1c0.1,0,0.2-0.1,0.3-0.2c0.1-0.1,0.1-0.2,0.2-0.3c0-0.1,0.1-0.2,0.1-0.4
		c0-0.1,0-0.3,0-0.4v-3.9c0-0.2,0-0.4,0-0.5c0-0.1-0.1-0.3-0.1-0.4c-0.1-0.1-0.2-0.2-0.3-0.3c-0.1-0.1-0.3-0.1-0.5-0.1
		c-0.2,0-0.3,0-0.5,0.1c-0.1,0.1-0.2,0.2-0.3,0.3c-0.1,0.1-0.1,0.3-0.1,0.4c0,0.1,0,0.3,0,0.5v3.9c0,0.2,0,0.3,0,0.4
		c0,0.1,0,0.2,0.1,0.4c0,0.1,0.1,0.2,0.1,0.3C199.8,22.6,199.9,22.7,200,22.7"/>
	<path class="st6" d="M206,23.8v-8.6h2c0.5,0,1,0.1,1.3,0.2c0.3,0.1,0.6,0.3,0.8,0.5c0.2,0.2,0.4,0.5,0.4,0.8
		c0.1,0.3,0.1,0.7,0.1,1.2V21c0,0.5,0,0.9-0.1,1.2c-0.1,0.3-0.2,0.6-0.4,0.9c-0.2,0.2-0.5,0.4-0.8,0.5c-0.3,0.1-0.8,0.2-1.3,0.2H206
		z M207.6,22.7h0.4c0.2,0,0.3,0,0.4,0c0.1,0,0.2-0.1,0.3-0.1c0.1,0,0.1-0.1,0.2-0.2c0.1-0.1,0.1-0.2,0.1-0.2c0-0.1,0-0.2,0.1-0.3
		c0-0.1,0-0.3,0-0.4c0-0.1,0-0.3,0-0.5v-3.1c0-0.2,0-0.4,0-0.5c0-0.1,0-0.3,0-0.4c0-0.1-0.1-0.2-0.1-0.3s-0.1-0.1-0.2-0.2
		c-0.1-0.1-0.2-0.1-0.3-0.1c-0.1,0-0.3,0-0.5,0h-0.4V22.7z"/>
	<polygon class="st6" points="211.6,23.8 211.6,15.2 215.2,15.2 215.2,16.3 213.2,16.3 213.2,18.8 214.8,18.8 214.8,19.9 
		213.2,19.9 213.2,22.8 215.3,22.8 215.3,23.8 	"/>
	<path class="st6" d="M218.2,23.9c-0.4,0-0.7,0-1-0.1c-0.3-0.1-0.5-0.2-0.7-0.4c-0.2-0.2-0.3-0.4-0.5-0.6s-0.2-0.5-0.2-0.8
		c0-0.3-0.1-0.6-0.1-1v-3c0-0.4,0-0.7,0.1-1c0-0.3,0.1-0.6,0.2-0.8c0.1-0.2,0.3-0.5,0.4-0.6c0.2-0.2,0.4-0.3,0.7-0.4
		c0.3-0.1,0.6-0.1,1-0.1c0.4,0,0.8,0.1,1.1,0.2c0.3,0.1,0.5,0.3,0.7,0.5c0.2,0.2,0.3,0.5,0.4,0.8c0.1,0.3,0.1,0.6,0.1,1v0.7H219
		v-0.7c0-0.4,0-0.7-0.1-0.9c-0.1-0.3-0.3-0.4-0.7-0.5h-0.1c-0.1,0-0.2,0-0.3,0c-0.1,0-0.2,0.1-0.2,0.1c-0.1,0.1-0.1,0.1-0.2,0.2
		c0,0.1-0.1,0.2-0.1,0.3c0,0.1,0,0.2,0,0.3c0,0.1,0,0.2,0,0.4v3.6c0,0.5,0.1,0.9,0.2,1.1c0.1,0.2,0.4,0.3,0.7,0.3c0.1,0,0.2,0,0.3,0
		c0.1,0,0.2-0.1,0.2-0.1c0.1,0,0.1-0.1,0.1-0.2c0-0.1,0.1-0.1,0.1-0.2c0-0.1,0-0.2,0-0.3c0-0.1,0-0.2,0-0.3c0-0.1,0-0.2,0-0.3v-0.8
		h1.5v0.7c0,0.3,0,0.6-0.1,0.9c0,0.3-0.1,0.5-0.2,0.7c-0.1,0.2-0.3,0.4-0.4,0.6c-0.2,0.1-0.4,0.3-0.7,0.4
		C218.9,23.9,218.6,23.9,218.2,23.9"/>
	<polygon class="st6" points="221.3,23.8 221.3,15.2 224.9,15.2 224.9,16.3 222.9,16.3 222.9,18.8 224.5,18.8 224.5,19.9 
		222.9,19.9 222.9,22.8 225,22.8 225,23.8 	"/>
	<polygon class="st6" points="225.6,23.8 225.6,15.2 226.7,15.2 228.8,20.1 228.8,15.2 230.1,15.2 230.1,23.8 229,23.8 226.9,18.7 
		226.9,23.8 	"/>
	<polygon class="st6" points="231.9,23.8 231.9,16.4 230.5,16.4 230.5,15.2 234.9,15.2 234.9,16.4 233.5,16.4 233.5,23.8 	"/>
	<polygon class="st6" points="235.3,23.8 235.3,15.2 238.9,15.2 238.9,16.3 236.8,16.3 236.8,18.8 238.5,18.8 238.5,19.9 
		236.8,19.9 236.8,22.8 238.9,22.8 238.9,23.8 	"/>
	<polygon class="st6" points="170.1,37.9 170.1,34.6 168.4,29.3 169.9,29.3 170.9,32.7 171.9,29.3 173.4,29.3 171.6,34.6 
		171.6,37.9 	"/>
	<path class="st6" d="M178.5,38c-0.4,0-0.7,0-1-0.1c-0.3-0.1-0.5-0.2-0.7-0.4c-0.2-0.2-0.3-0.4-0.5-0.6c-0.1-0.2-0.2-0.5-0.2-0.8
		c0-0.3-0.1-0.6-0.1-1v-3c0-0.4,0-0.7,0.1-1c0-0.3,0.1-0.6,0.2-0.8c0.1-0.2,0.3-0.5,0.4-0.6c0.2-0.2,0.4-0.3,0.7-0.4
		c0.3-0.1,0.6-0.1,1-0.1c0.4,0,0.8,0.1,1.1,0.2c0.3,0.1,0.5,0.3,0.7,0.5c0.2,0.2,0.3,0.5,0.4,0.8c0.1,0.3,0.1,0.6,0.1,1v0.7h-1.5
		v-0.7c0-0.4,0-0.7-0.1-0.9c-0.1-0.3-0.3-0.4-0.7-0.5h-0.1c-0.1,0-0.2,0-0.3,0c-0.1,0-0.2,0.1-0.2,0.1c-0.1,0.1-0.1,0.1-0.2,0.2
		c0,0.1-0.1,0.2-0.1,0.3c0,0.1,0,0.2,0,0.3c0,0.1,0,0.2,0,0.4v3.6c0,0.5,0.1,0.9,0.2,1.1c0.1,0.2,0.4,0.3,0.7,0.3c0.1,0,0.2,0,0.3,0
		c0.1,0,0.2-0.1,0.2-0.1c0.1,0,0.1-0.1,0.1-0.2c0-0.1,0.1-0.1,0.1-0.2c0-0.1,0-0.2,0-0.3c0-0.1,0-0.2,0-0.3c0-0.1,0-0.2,0-0.3v-0.8
		h1.5v0.7c0,0.3,0,0.6-0.1,0.9c0,0.3-0.1,0.5-0.2,0.7c-0.1,0.2-0.3,0.4-0.4,0.6c-0.2,0.2-0.4,0.3-0.7,0.4
		C179.1,37.9,178.8,38,178.5,38"/>
	<path class="st6" d="M181.6,37.9v-8.6h2c0.5,0,0.8,0,1.2,0.1c0.3,0.1,0.6,0.2,0.8,0.4c0.2,0.2,0.4,0.4,0.5,0.7
		c0.1,0.3,0.2,0.7,0.2,1.1c0,0.5-0.1,1-0.2,1.3c-0.2,0.3-0.4,0.6-0.8,0.7l1.2,4.2h-1.6l-1-3.9h-0.7v3.9H181.6z M183.2,33h0.4
		c0.5,0,0.8-0.1,1-0.3c0.2-0.2,0.3-0.5,0.3-1c0-0.5-0.1-0.8-0.3-1c-0.2-0.2-0.5-0.3-0.9-0.3h-0.5V33z"/>
	<polygon class="st6" points="187.2,37.9 187.2,29.3 190.8,29.3 190.8,30.4 188.8,30.4 188.8,32.9 190.4,32.9 190.4,34 188.8,34 
		188.8,36.8 190.8,36.8 190.8,37.9 	"/>
	<path class="st6" d="M193.8,38c-0.4,0-0.7,0-1-0.1c-0.3-0.1-0.5-0.2-0.7-0.4c-0.2-0.2-0.3-0.4-0.5-0.6c-0.1-0.2-0.2-0.5-0.2-0.8
		c0-0.3-0.1-0.6-0.1-1v-3c0-0.4,0-0.7,0.1-1c0-0.3,0.1-0.6,0.2-0.8c0.1-0.2,0.3-0.5,0.4-0.6c0.2-0.2,0.4-0.3,0.7-0.4
		c0.3-0.1,0.6-0.1,1-0.1c0.4,0,0.8,0.1,1.1,0.2c0.3,0.1,0.5,0.3,0.7,0.5c0.2,0.2,0.3,0.5,0.4,0.8c0.1,0.3,0.1,0.6,0.1,1v0.7h-1.5
		v-0.7c0-0.4,0-0.7-0.1-0.9c-0.1-0.3-0.3-0.4-0.7-0.5h-0.1c-0.1,0-0.2,0-0.3,0c-0.1,0-0.2,0.1-0.2,0.1c-0.1,0.1-0.1,0.1-0.2,0.2
		c0,0.1-0.1,0.2-0.1,0.3c0,0.1,0,0.2,0,0.3c0,0.1,0,0.2,0,0.4v3.6c0,0.5,0.1,0.9,0.2,1.1c0.1,0.2,0.4,0.3,0.7,0.3c0.1,0,0.2,0,0.3,0
		c0.1,0,0.2-0.1,0.2-0.1c0.1,0,0.1-0.1,0.1-0.2c0-0.1,0.1-0.1,0.1-0.2c0-0.1,0-0.2,0-0.3c0-0.1,0-0.2,0-0.3c0-0.1,0-0.2,0-0.3v-0.8
		h1.5v0.7c0,0.3,0,0.6-0.1,0.9c0,0.3-0.1,0.5-0.2,0.7c-0.1,0.2-0.3,0.4-0.4,0.6c-0.2,0.2-0.4,0.3-0.7,0.4
		C194.4,37.9,194.1,38,193.8,38"/>
	<rect x="197" y="29.3" class="st6" width="1.5" height="8.6"/>
	<polygon class="st6" points="199.5,37.9 199.7,29.3 201.3,29.3 202.5,35.3 203.8,29.3 205.4,29.3 205.5,37.9 204.3,37.9 204.2,32 
		203,37.9 202.1,37.9 200.8,31.9 200.7,37.9 	"/>
	<rect x="206.6" y="29.3" class="st6" width="1.5" height="8.6"/>
	<polygon class="st6" points="209.2,37.9 209.2,29.3 212.7,29.3 212.7,30.4 210.7,30.4 210.7,32.9 212.3,32.9 212.3,34 210.7,34 
		210.7,36.8 212.8,36.8 212.8,37.9 	"/>
	<polygon class="st6" points="213.4,37.9 213.4,29.3 214.5,29.3 216.6,34.2 216.6,29.3 217.9,29.3 217.9,37.9 216.9,37.9 
		214.7,32.8 214.7,37.9 	"/>
	<polygon class="st6" points="219.7,37.9 219.7,30.4 218.3,30.4 218.3,29.3 222.7,29.3 222.7,30.4 221.3,30.4 221.3,37.9 	"/>
	<path class="st6" d="M225.4,38c-0.9,0-1.5-0.2-1.9-0.7c-0.4-0.5-0.6-1.2-0.6-2.1V32c0-0.5,0-0.9,0.1-1.2c0.1-0.3,0.2-0.6,0.4-0.9
		c0.2-0.2,0.4-0.4,0.8-0.6c0.3-0.1,0.7-0.2,1.2-0.2c0.9,0,1.5,0.2,1.9,0.7c0.4,0.5,0.6,1.2,0.6,2.1v3.2c0,0.4,0,0.8-0.1,1.2
		c-0.1,0.3-0.2,0.6-0.4,0.9c-0.2,0.3-0.4,0.4-0.8,0.6C226.3,37.9,225.9,38,225.4,38 M225,36.8c0.1,0,0.2,0.1,0.4,0.1
		c0.2,0,0.3,0,0.4-0.1c0.1,0,0.2-0.1,0.3-0.2c0.1-0.1,0.1-0.2,0.2-0.3c0-0.1,0.1-0.2,0.1-0.4c0-0.1,0-0.3,0-0.4v-3.9
		c0-0.2,0-0.4,0-0.5c0-0.1-0.1-0.3-0.1-0.4c-0.1-0.1-0.2-0.2-0.3-0.3c-0.1-0.1-0.3-0.1-0.5-0.1c-0.2,0-0.3,0-0.5,0.1
		c-0.1,0.1-0.2,0.2-0.3,0.3c-0.1,0.1-0.1,0.3-0.1,0.4c0,0.1,0,0.3,0,0.5v3.9c0,0.2,0,0.3,0,0.4c0,0.1,0,0.2,0.1,0.4
		c0,0.1,0.1,0.2,0.1,0.3C224.9,36.7,224.9,36.7,225,36.8"/>
	<polygon class="st6" points="168.9,51.9 168.9,43.3 172.5,43.3 172.5,44.4 170.5,44.4 170.5,46.9 172.1,46.9 172.1,48 170.5,48 
		170.5,50.9 172.6,50.9 172.6,51.9 	"/>
	<path class="st6" d="M175.5,52c-0.4,0-0.7,0-1-0.1c-0.3-0.1-0.5-0.2-0.7-0.4c-0.2-0.2-0.3-0.4-0.5-0.6c-0.1-0.2-0.2-0.5-0.2-0.8
		c0-0.3-0.1-0.6-0.1-1v-3c0-0.4,0-0.7,0.1-1c0-0.3,0.1-0.6,0.2-0.8c0.1-0.2,0.3-0.5,0.4-0.6c0.2-0.2,0.4-0.3,0.7-0.4
		c0.3-0.1,0.6-0.1,1-0.1c0.4,0,0.8,0.1,1.1,0.2c0.3,0.1,0.5,0.3,0.7,0.5c0.2,0.2,0.3,0.5,0.4,0.8c0.1,0.3,0.1,0.6,0.1,1v0.7h-1.5
		v-0.7c0-0.4,0-0.7-0.1-0.9c-0.1-0.3-0.3-0.4-0.7-0.5h-0.1c-0.1,0-0.2,0-0.3,0c-0.1,0-0.2,0.1-0.2,0.1c-0.1,0.1-0.1,0.1-0.2,0.2
		c0,0.1-0.1,0.2-0.1,0.3c0,0.1,0,0.2,0,0.3c0,0.1,0,0.2,0,0.4v3.6c0,0.5,0.1,0.9,0.2,1.1c0.1,0.2,0.4,0.3,0.7,0.3c0.1,0,0.2,0,0.3,0
		c0.1,0,0.2-0.1,0.2-0.1c0.1,0,0.1-0.1,0.1-0.2c0-0.1,0.1-0.1,0.1-0.2c0-0.1,0-0.2,0-0.3c0-0.1,0-0.2,0-0.3c0-0.1,0-0.2,0-0.3v-0.8
		h1.5v0.7c0,0.3,0,0.6-0.1,0.9c0,0.3-0.1,0.5-0.2,0.7c-0.1,0.2-0.3,0.4-0.4,0.6c-0.2,0.1-0.4,0.3-0.7,0.4
		C176.2,52,175.9,52,175.5,52"/>
	<path class="st6" d="M181,52c-0.9,0-1.5-0.2-1.9-0.7c-0.4-0.5-0.6-1.2-0.6-2.1V46c0-0.5,0-0.9,0.1-1.2c0.1-0.3,0.2-0.6,0.4-0.9
		c0.2-0.2,0.4-0.4,0.8-0.6c0.3-0.1,0.7-0.2,1.2-0.2c0.9,0,1.5,0.2,1.9,0.7c0.4,0.5,0.6,1.2,0.6,2.1v3.2c0,0.4,0,0.8-0.1,1.2
		c-0.1,0.3-0.2,0.6-0.4,0.9c-0.2,0.3-0.4,0.4-0.8,0.6C181.8,52,181.4,52,181,52 M180.6,50.8c0.1,0,0.2,0.1,0.4,0.1
		c0.2,0,0.3,0,0.4-0.1c0.1,0,0.2-0.1,0.3-0.2c0.1-0.1,0.1-0.2,0.2-0.3c0-0.1,0.1-0.2,0.1-0.4c0-0.1,0-0.3,0-0.4v-3.9
		c0-0.2,0-0.4,0-0.5c0-0.1-0.1-0.3-0.1-0.4c-0.1-0.1-0.2-0.2-0.3-0.3c-0.1-0.1-0.3-0.1-0.5-0.1c-0.2,0-0.3,0-0.5,0.1
		c-0.1,0.1-0.2,0.2-0.3,0.3c-0.1,0.1-0.1,0.3-0.1,0.4c0,0.1,0,0.3,0,0.5v3.9c0,0.2,0,0.3,0,0.4c0,0.1,0,0.2,0.1,0.4
		c0,0.1,0.1,0.2,0.1,0.3C180.4,50.7,180.5,50.8,180.6,50.8"/>
	<polygon class="st6" points="184.3,51.9 184.3,43.3 185.4,43.3 187.5,48.2 187.5,43.3 188.8,43.3 188.8,51.9 187.8,51.9 
		185.6,46.8 185.6,51.9 	"/>
	<path class="st6" d="M192.1,52c-0.9,0-1.5-0.2-1.9-0.7c-0.4-0.5-0.6-1.2-0.6-2.1V46c0-0.5,0-0.9,0.1-1.2c0.1-0.3,0.2-0.6,0.4-0.9
		c0.2-0.2,0.4-0.4,0.8-0.6c0.3-0.1,0.7-0.2,1.2-0.2c0.9,0,1.5,0.2,1.9,0.7c0.4,0.5,0.6,1.2,0.6,2.1v3.2c0,0.4,0,0.8-0.1,1.2
		c-0.1,0.3-0.2,0.6-0.4,0.9c-0.2,0.3-0.4,0.4-0.8,0.6C193,52,192.6,52,192.1,52 M191.7,50.8c0.1,0,0.2,0.1,0.4,0.1
		c0.2,0,0.3,0,0.4-0.1c0.1,0,0.2-0.1,0.3-0.2c0.1-0.1,0.1-0.2,0.2-0.3c0-0.1,0.1-0.2,0.1-0.4c0-0.1,0-0.3,0-0.4v-3.9
		c0-0.2,0-0.4,0-0.5c0-0.1-0.1-0.3-0.1-0.4c-0.1-0.1-0.2-0.2-0.3-0.3c-0.1-0.1-0.3-0.1-0.5-0.1c-0.2,0-0.3,0-0.5,0.1
		c-0.1,0.1-0.2,0.2-0.3,0.3c-0.1,0.1-0.1,0.3-0.1,0.4c0,0.1,0,0.3,0,0.5v3.9c0,0.2,0,0.3,0,0.4c0,0.1,0,0.2,0.1,0.4
		c0,0.1,0.1,0.2,0.1,0.3C191.6,50.7,191.6,50.8,191.7,50.8 M191.7,42.6l0.6-2.1h1.5l-1.3,2.1H191.7z"/>
	<polygon class="st6" points="195.5,51.9 195.6,43.3 197.2,43.3 198.5,49.4 199.7,43.3 201.3,43.3 201.5,51.9 200.3,51.9 200.2,46 
		198.9,51.9 198,51.9 196.8,46 196.7,51.9 	"/>
	<rect x="202.5" y="43.3" class="st6" width="1.5" height="8.6"/>
	<path class="st6" d="M207.4,52c-0.4,0-0.7,0-1-0.1c-0.3-0.1-0.5-0.2-0.7-0.4c-0.2-0.2-0.3-0.4-0.5-0.6c-0.1-0.2-0.2-0.5-0.2-0.8
		c0-0.3-0.1-0.6-0.1-1v-3c0-0.4,0-0.7,0.1-1c0-0.3,0.1-0.6,0.2-0.8c0.1-0.2,0.3-0.5,0.4-0.6c0.2-0.2,0.4-0.3,0.7-0.4
		c0.3-0.1,0.6-0.1,1-0.1c0.4,0,0.8,0.1,1.1,0.2c0.3,0.1,0.5,0.3,0.7,0.5c0.2,0.2,0.3,0.5,0.4,0.8c0.1,0.3,0.1,0.6,0.1,1v0.7h-1.5
		v-0.7c0-0.4,0-0.7-0.1-0.9c-0.1-0.3-0.3-0.4-0.7-0.5h-0.1c-0.1,0-0.2,0-0.3,0c-0.1,0-0.2,0.1-0.2,0.1c-0.1,0.1-0.1,0.1-0.2,0.2
		c0,0.1-0.1,0.2-0.1,0.3c0,0.1,0,0.2,0,0.3c0,0.1,0,0.2,0,0.4v3.6c0,0.5,0.1,0.9,0.2,1.1c0.1,0.2,0.4,0.3,0.7,0.3c0.1,0,0.2,0,0.3,0
		c0.1,0,0.2-0.1,0.2-0.1c0.1,0,0.1-0.1,0.1-0.2c0-0.1,0.1-0.1,0.1-0.2c0-0.1,0-0.2,0-0.3c0-0.1,0-0.2,0-0.3c0-0.1,0-0.2,0-0.3v-0.8
		h1.5v0.7c0,0.3,0,0.6-0.1,0.9c0,0.3-0.1,0.5-0.2,0.7c-0.1,0.2-0.3,0.4-0.4,0.6c-0.2,0.1-0.4,0.3-0.7,0.4S207.8,52,207.4,52"/>
	<path class="st6" d="M212.9,52c-0.9,0-1.5-0.2-1.9-0.7c-0.4-0.5-0.6-1.2-0.6-2.1V46c0-0.5,0-0.9,0.1-1.2c0.1-0.3,0.2-0.6,0.4-0.9
		c0.2-0.2,0.4-0.4,0.8-0.6c0.3-0.1,0.7-0.2,1.2-0.2c0.9,0,1.5,0.2,1.9,0.7c0.4,0.5,0.6,1.2,0.6,2.1v3.2c0,0.4,0,0.8-0.1,1.2
		c-0.1,0.3-0.2,0.6-0.4,0.9c-0.2,0.3-0.4,0.4-0.8,0.6C213.7,52,213.3,52,212.9,52 M212.5,50.8c0.1,0,0.2,0.1,0.4,0.1
		c0.2,0,0.3,0,0.4-0.1c0.1,0,0.2-0.1,0.3-0.2c0.1-0.1,0.1-0.2,0.2-0.3c0-0.1,0.1-0.2,0.1-0.4c0-0.1,0-0.3,0-0.4v-3.9
		c0-0.2,0-0.4,0-0.5c0-0.1-0.1-0.3-0.1-0.4c-0.1-0.1-0.2-0.2-0.3-0.3c-0.1-0.1-0.3-0.1-0.5-0.1c-0.2,0-0.3,0-0.5,0.1
		c-0.1,0.1-0.2,0.2-0.3,0.3c-0.1,0.1-0.1,0.3-0.1,0.4c0,0.1,0,0.3,0,0.5v3.9c0,0.2,0,0.3,0,0.4c0,0.1,0,0.2,0.1,0.4
		c0,0.1,0.1,0.2,0.1,0.3C212.3,50.7,212.4,50.8,212.5,50.8"/>
	<path class="st6" d="M413.6,19.7c-0.2,0.1-0.8,0.3-1.8,0.7c-0.8,0.3-1.3,0.4-1.5,0.5v-3.2c0.6-0.2,1.4-0.6,2.3-1.1
		c0.9-0.5,1.5-1,1.9-1.4h3.4v22.5h-4.3V19.7z"/>
	<path class="st6" d="M421.6,36.4c-1-1.2-1.5-2.8-1.5-4.7V21.6c0-2.1,0.5-3.7,1.5-4.8c1-1.2,2.5-1.8,4.5-1.8c2,0,3.5,0.6,4.5,1.8
		c1,1.2,1.5,2.8,1.5,4.8v10.1c0,2-0.5,3.5-1.6,4.7c-1,1.2-2.5,1.8-4.4,1.8C424.2,38.1,422.7,37.5,421.6,36.4 M427.8,31.6v-9.9
		c0-0.8-0.1-1.5-0.3-2.1c-0.2-0.6-0.7-0.8-1.3-0.8c-0.7,0-1.2,0.3-1.4,0.8c-0.2,0.5-0.3,1.2-0.3,2.1v9.9c0,1.9,0.6,2.8,1.7,2.8
		C427.2,34.4,427.8,33.4,427.8,31.6"/>
	<path class="st6" d="M441,23.8v-8.6h2c0.5,0,0.8,0,1.2,0.1c0.3,0.1,0.6,0.2,0.8,0.4c0.2,0.2,0.4,0.4,0.5,0.7
		c0.1,0.3,0.2,0.7,0.2,1.1c0,0.5-0.1,1-0.2,1.3c-0.2,0.3-0.4,0.6-0.8,0.7l1.2,4.2h-1.6l-1-3.9h-0.7v3.9H441z M442.6,18.9h0.4
		c0.5,0,0.8-0.1,1-0.3c0.2-0.2,0.3-0.5,0.3-1c0-0.5-0.1-0.8-0.3-1c-0.2-0.2-0.5-0.3-0.9-0.3h-0.5V18.9z"/>
	<polygon class="st6" points="446.6,23.8 446.6,15.2 450.2,15.2 450.2,16.3 448.2,16.3 448.2,18.8 449.8,18.8 449.8,19.9 
		448.2,19.9 448.2,22.8 450.2,22.8 450.2,23.8 	"/>
	<path class="st6" d="M450.9,23.8v-8.6h2c0.5,0,1,0.1,1.3,0.2c0.3,0.1,0.6,0.3,0.8,0.5c0.2,0.2,0.4,0.5,0.4,0.8
		c0.1,0.3,0.1,0.7,0.1,1.2V21c0,0.5,0,0.9-0.1,1.2c-0.1,0.3-0.2,0.6-0.4,0.9c-0.2,0.2-0.5,0.4-0.8,0.5c-0.3,0.1-0.8,0.2-1.3,0.2
		H450.9z M452.4,22.7h0.4c0.2,0,0.3,0,0.4,0c0.1,0,0.2-0.1,0.3-0.1c0.1,0,0.1-0.1,0.2-0.2s0.1-0.2,0.1-0.2c0-0.1,0-0.2,0.1-0.3
		c0-0.1,0-0.3,0-0.4c0-0.1,0-0.3,0-0.5v-3.1c0-0.2,0-0.4,0-0.5c0-0.1,0-0.3,0-0.4c0-0.1-0.1-0.2-0.1-0.3c-0.1-0.1-0.1-0.1-0.2-0.2
		c-0.1-0.1-0.2-0.1-0.3-0.1c-0.1,0-0.3,0-0.5,0h-0.4V22.7z"/>
	<path class="st6" d="M458.8,23.9c-0.4,0-0.7,0-1-0.1s-0.5-0.2-0.7-0.4c-0.2-0.2-0.3-0.4-0.4-0.6c-0.1-0.3-0.2-0.5-0.2-0.8
		c0-0.3-0.1-0.6-0.1-1v-5.7h1.5v5.9c0,0.2,0,0.4,0,0.5c0,0.1,0,0.3,0.1,0.4c0,0.2,0.1,0.3,0.1,0.4c0.1,0.1,0.2,0.2,0.3,0.2
		c0.1,0.1,0.2,0.1,0.4,0.1s0.3,0,0.4-0.1c0.1-0.1,0.2-0.1,0.3-0.2c0.1-0.1,0.1-0.2,0.1-0.4s0.1-0.3,0.1-0.4c0-0.1,0-0.3,0-0.5v-5.9
		h1.5v5.7c0,0.4,0,0.7-0.1,1c0,0.3-0.1,0.6-0.2,0.8c-0.1,0.3-0.3,0.5-0.4,0.6c-0.2,0.2-0.4,0.3-0.7,0.4
		C459.5,23.9,459.2,23.9,458.8,23.9"/>
	<path class="st6" d="M464.5,23.9c-0.4,0-0.7,0-1-0.1c-0.3-0.1-0.5-0.2-0.7-0.4c-0.2-0.2-0.3-0.4-0.5-0.6c-0.1-0.2-0.2-0.5-0.2-0.8
		c0-0.3-0.1-0.6-0.1-1v-3c0-0.4,0-0.7,0.1-1c0-0.3,0.1-0.6,0.2-0.8c0.1-0.2,0.3-0.5,0.4-0.6c0.2-0.2,0.4-0.3,0.7-0.4
		c0.3-0.1,0.6-0.1,1-0.1c0.4,0,0.8,0.1,1.1,0.2c0.3,0.1,0.5,0.3,0.7,0.5c0.2,0.2,0.3,0.5,0.4,0.8c0.1,0.3,0.1,0.6,0.1,1v0.7h-1.5
		v-0.7c0-0.4,0-0.7-0.1-0.9c-0.1-0.3-0.3-0.4-0.7-0.5h-0.1c-0.1,0-0.2,0-0.3,0c-0.1,0-0.2,0.1-0.2,0.1c-0.1,0.1-0.1,0.1-0.2,0.2
		c0,0.1-0.1,0.2-0.1,0.3c0,0.1,0,0.2,0,0.3c0,0.1,0,0.2,0,0.4v3.6c0,0.5,0.1,0.9,0.2,1.1c0.1,0.2,0.4,0.3,0.7,0.3c0.1,0,0.2,0,0.3,0
		c0.1,0,0.2-0.1,0.2-0.1c0.1,0,0.1-0.1,0.1-0.2c0-0.1,0.1-0.1,0.1-0.2c0-0.1,0-0.2,0-0.3c0-0.1,0-0.2,0-0.3c0-0.1,0-0.2,0-0.3v-0.8
		h1.5v0.7c0,0.3,0,0.6-0.1,0.9c0,0.3-0.1,0.5-0.2,0.7c-0.1,0.2-0.3,0.4-0.4,0.6c-0.2,0.1-0.4,0.3-0.7,0.4
		C465.1,23.9,464.8,23.9,464.5,23.9"/>
	<path class="st6" d="M469.9,23.9c-0.4,0-0.7,0-1-0.1c-0.3-0.1-0.5-0.2-0.7-0.4c-0.2-0.2-0.3-0.4-0.5-0.6c-0.1-0.2-0.2-0.5-0.2-0.8
		c0-0.3-0.1-0.6-0.1-1v-3c0-0.4,0-0.7,0.1-1c0-0.3,0.1-0.6,0.2-0.8c0.1-0.2,0.3-0.5,0.4-0.6c0.2-0.2,0.4-0.3,0.7-0.4
		c0.3-0.1,0.6-0.1,1-0.1c0.4,0,0.8,0.1,1.1,0.2c0.3,0.1,0.5,0.3,0.7,0.5c0.2,0.2,0.3,0.5,0.4,0.8c0.1,0.3,0.1,0.6,0.1,1v0.7h-1.5
		v-0.7c0-0.4,0-0.7-0.1-0.9c-0.1-0.3-0.3-0.4-0.7-0.5h-0.1c-0.1,0-0.2,0-0.3,0c-0.1,0-0.2,0.1-0.2,0.1c-0.1,0.1-0.1,0.1-0.2,0.2
		c0,0.1-0.1,0.2-0.1,0.3c0,0.1,0,0.2,0,0.3c0,0.1,0,0.2,0,0.4v3.6c0,0.5,0.1,0.9,0.2,1.1c0.1,0.2,0.4,0.3,0.7,0.3c0.1,0,0.2,0,0.3,0
		c0.1,0,0.2-0.1,0.2-0.1c0.1,0,0.1-0.1,0.1-0.2c0-0.1,0.1-0.1,0.1-0.2c0-0.1,0-0.2,0-0.3c0-0.1,0-0.2,0-0.3c0-0.1,0-0.2,0-0.3v-0.8
		h1.5v0.7c0,0.3,0,0.6-0.1,0.9c0,0.3-0.1,0.5-0.2,0.7c-0.1,0.2-0.3,0.4-0.4,0.6c-0.2,0.1-0.4,0.3-0.7,0.4
		C470.6,23.9,470.3,23.9,469.9,23.9"/>
	<rect x="473.1" y="15.2" class="st6" width="1.5" height="8.6"/>
	<path class="st6" d="M478,23.9c-0.9,0-1.5-0.2-1.9-0.7c-0.4-0.5-0.6-1.2-0.6-2.1v-3.2c0-0.5,0-0.9,0.1-1.2c0.1-0.3,0.2-0.6,0.4-0.9
		c0.2-0.2,0.4-0.4,0.8-0.6c0.3-0.1,0.7-0.2,1.2-0.2c0.9,0,1.5,0.2,1.9,0.7c0.4,0.5,0.6,1.2,0.6,2.1v3.2c0,0.4,0,0.8-0.1,1.2
		c-0.1,0.3-0.2,0.6-0.4,0.9c-0.2,0.3-0.4,0.4-0.8,0.6C478.8,23.9,478.5,23.9,478,23.9 M477.6,22.7c0.1,0,0.2,0.1,0.4,0.1
		c0.2,0,0.3,0,0.4-0.1c0.1,0,0.2-0.1,0.3-0.2c0.1-0.1,0.1-0.2,0.2-0.3c0-0.1,0.1-0.2,0.1-0.4c0-0.1,0-0.3,0-0.4v-3.9
		c0-0.2,0-0.4,0-0.5c0-0.1-0.1-0.3-0.1-0.4c-0.1-0.1-0.2-0.2-0.3-0.3c-0.1-0.1-0.3-0.1-0.5-0.1c-0.2,0-0.3,0-0.5,0.1
		c-0.1,0.1-0.2,0.2-0.3,0.3c-0.1,0.1-0.1,0.3-0.1,0.4c0,0.1,0,0.3,0,0.5v3.9c0,0.2,0,0.3,0,0.4c0,0.1,0,0.2,0.1,0.4
		c0,0.1,0.1,0.2,0.1,0.3C477.4,22.6,477.5,22.7,477.6,22.7 M477.6,14.5l0.6-2.1h1.5l-1.3,2.1H477.6z"/>
	<polygon class="st6" points="481.4,23.8 481.4,15.2 482.4,15.2 484.5,20.1 484.5,15.2 485.8,15.2 485.8,23.8 484.8,23.8 
		482.7,18.7 482.7,23.8 	"/>
	<path class="st6" d="M489.2,23.8v-8.6h2c0.5,0,1,0.1,1.3,0.2c0.3,0.1,0.6,0.3,0.8,0.5c0.2,0.2,0.4,0.5,0.4,0.8
		c0.1,0.3,0.1,0.7,0.1,1.2V21c0,0.5,0,0.9-0.1,1.2c-0.1,0.3-0.2,0.6-0.4,0.9c-0.2,0.2-0.5,0.4-0.8,0.5c-0.3,0.1-0.8,0.2-1.3,0.2
		H489.2z M490.7,22.7h0.4c0.2,0,0.3,0,0.4,0c0.1,0,0.2-0.1,0.3-0.1c0.1,0,0.1-0.1,0.2-0.2c0.1-0.1,0.1-0.2,0.1-0.2
		c0-0.1,0-0.2,0.1-0.3c0-0.1,0-0.3,0-0.4c0-0.1,0-0.3,0-0.5v-3.1c0-0.2,0-0.4,0-0.5c0-0.1,0-0.3-0.1-0.4c0-0.1-0.1-0.2-0.1-0.3
		c-0.1-0.1-0.1-0.1-0.2-0.2c-0.1-0.1-0.2-0.1-0.3-0.1c-0.1,0-0.3,0-0.5,0h-0.4V22.7z"/>
	<polygon class="st6" points="494.8,23.8 494.8,15.2 498.4,15.2 498.4,16.3 496.3,16.3 496.3,18.8 497.9,18.8 497.9,19.9 
		496.3,19.9 496.3,22.8 498.4,22.8 498.4,23.8 	"/>
	<polygon class="st6" points="501.3,23.8 501.3,15.2 502.9,15.2 502.9,22.8 505,22.8 505,23.8 	"/>
	<path class="st6" d="M505.1,23.8l1.7-8.6h1.6l1.7,8.6h-1.5l-0.3-2h-1.5l-0.4,2H505.1z M507.1,20.8h1.2l-0.6-3.5L507.1,20.8z"/>
	<path class="st6" d="M512.9,23.9c-1.5,0-2.3-0.9-2.4-2.6l1.4-0.3c0,1.1,0.4,1.7,1,1.7c0.2,0,0.4-0.1,0.5-0.2
		c0.1-0.1,0.2-0.3,0.2-0.6c0-0.2,0-0.5-0.1-0.7c-0.1-0.2-0.2-0.4-0.3-0.5c-0.1-0.1-0.3-0.3-0.5-0.5l-1.1-1c-0.3-0.3-0.6-0.6-0.7-0.9
		c-0.2-0.3-0.2-0.7-0.2-1.2c0-0.7,0.2-1.2,0.6-1.6c0.4-0.4,0.9-0.6,1.6-0.6c0.3,0,0.6,0,0.8,0.1c0.2,0.1,0.4,0.2,0.6,0.3
		c0.2,0.1,0.3,0.3,0.4,0.5c0.1,0.2,0.2,0.4,0.2,0.6c0.1,0.2,0.1,0.5,0.1,0.7l-1.3,0.3c0-0.2,0-0.3,0-0.5c0-0.1,0-0.3-0.1-0.4
		c0-0.1-0.1-0.2-0.1-0.3c-0.1-0.1-0.1-0.1-0.2-0.2c-0.1,0-0.2-0.1-0.4-0.1c-0.2,0-0.4,0.1-0.5,0.2c-0.1,0.1-0.2,0.3-0.2,0.6
		c0,0.3,0.1,0.5,0.2,0.7c0.1,0.2,0.3,0.4,0.5,0.6l1.1,1c0.2,0.2,0.3,0.3,0.5,0.5c0.1,0.2,0.3,0.3,0.4,0.5c0.1,0.2,0.2,0.4,0.3,0.7
		c0.1,0.2,0.1,0.5,0.1,0.8c0,0.6-0.2,1.1-0.6,1.5C514.1,23.7,513.6,23.9,512.9,23.9"/>
	<path class="st6" d="M441,37.9v-8.6h2c0.5,0,1,0.1,1.3,0.2c0.3,0.1,0.6,0.3,0.8,0.5c0.2,0.2,0.4,0.5,0.4,0.8
		c0.1,0.3,0.1,0.7,0.1,1.2v3.1c0,0.5,0,0.9-0.1,1.2c-0.1,0.3-0.2,0.6-0.4,0.9c-0.2,0.2-0.5,0.4-0.8,0.5c-0.3,0.1-0.8,0.2-1.3,0.2
		H441z M442.6,36.8h0.4c0.2,0,0.3,0,0.4,0c0.1,0,0.2-0.1,0.3-0.1c0.1,0,0.1-0.1,0.2-0.2c0.1-0.1,0.1-0.2,0.1-0.2
		c0-0.1,0-0.2,0.1-0.3c0-0.1,0-0.3,0-0.4c0-0.1,0-0.3,0-0.5v-3.1c0-0.2,0-0.4,0-0.5c0-0.1,0-0.3,0-0.4c0-0.1-0.1-0.2-0.1-0.3
		c-0.1-0.1-0.1-0.1-0.2-0.2c-0.1-0.1-0.2-0.1-0.3-0.1c-0.1,0-0.3,0-0.5,0h-0.4V36.8z"/>
	<polygon class="st6" points="446.6,37.9 446.6,29.3 450.2,29.3 450.2,30.4 448.2,30.4 448.2,32.9 449.8,32.9 449.8,34 448.2,34 
		448.2,36.8 450.2,36.8 450.2,37.9 	"/>
	<path class="st6" d="M453,38c-1.5,0-2.3-0.9-2.4-2.6l1.4-0.3c0,1.1,0.4,1.7,1,1.7c0.2,0,0.4-0.1,0.5-0.2c0.1-0.1,0.2-0.3,0.2-0.6
		c0-0.2,0-0.5-0.1-0.7c-0.1-0.2-0.2-0.4-0.3-0.5c-0.1-0.1-0.3-0.3-0.5-0.5l-1.1-1c-0.3-0.3-0.6-0.6-0.7-0.9
		c-0.2-0.3-0.2-0.7-0.2-1.2c0-0.7,0.2-1.2,0.6-1.6c0.4-0.4,0.9-0.6,1.6-0.6c0.3,0,0.6,0,0.8,0.1c0.2,0.1,0.4,0.2,0.6,0.3
		c0.2,0.1,0.3,0.3,0.4,0.5c0.1,0.2,0.2,0.4,0.2,0.6c0.1,0.2,0.1,0.5,0.1,0.7l-1.3,0.3c0-0.2,0-0.3,0-0.5c0-0.1,0-0.3-0.1-0.4
		c0-0.1-0.1-0.2-0.1-0.3c-0.1-0.1-0.1-0.1-0.2-0.2c-0.1,0-0.2-0.1-0.4-0.1c-0.2,0-0.4,0.1-0.5,0.2c-0.1,0.1-0.2,0.3-0.2,0.6
		c0,0.3,0.1,0.5,0.2,0.7c0.1,0.2,0.3,0.4,0.5,0.6l1.1,1c0.2,0.2,0.3,0.3,0.5,0.5c0.1,0.2,0.3,0.3,0.4,0.5c0.1,0.2,0.2,0.4,0.3,0.7
		c0.1,0.2,0.1,0.5,0.1,0.8c0,0.6-0.2,1.1-0.6,1.5C454.2,37.8,453.6,38,453,38"/>
	<rect x="455.8" y="29.3" class="st6" width="1.5" height="8.6"/>
	<path class="st6" d="M460.6,38c-0.8,0-1.4-0.3-1.8-0.8c-0.4-0.5-0.5-1.2-0.5-2.2v-2.8c0-0.5,0-0.9,0.1-1.3c0.1-0.4,0.2-0.7,0.4-0.9
		c0.2-0.3,0.4-0.5,0.8-0.6c0.3-0.1,0.7-0.2,1.2-0.2c0.9,0,1.5,0.2,1.8,0.6c0.4,0.4,0.6,1,0.6,1.9v0.4h-1.5v-0.4c0-0.2,0-0.3,0-0.5
		c0-0.1,0-0.2-0.1-0.4c0-0.1-0.1-0.2-0.1-0.3c-0.1-0.1-0.1-0.1-0.3-0.2c-0.1,0-0.2-0.1-0.4-0.1c-0.1,0-0.2,0-0.3,0
		c-0.1,0-0.2,0.1-0.2,0.1c-0.1,0-0.1,0.1-0.2,0.2c0,0.1-0.1,0.2-0.1,0.2c0,0.1,0,0.2-0.1,0.3c0,0.1,0,0.2,0,0.3c0,0.1,0,0.2,0,0.3
		v3.5c0,0.5,0.1,0.9,0.2,1.1c0.1,0.2,0.4,0.4,0.7,0.4c0.2,0,0.3,0,0.5-0.1c0.1-0.1,0.2-0.2,0.3-0.3c0.1-0.1,0.1-0.3,0.2-0.5
		c0-0.2,0-0.4,0-0.7v-0.7h-0.9v-1h2.3v4.4h-1L462,37C461.8,37.7,461.3,38,460.6,38"/>
	<path class="st6" d="M466.4,38c-0.4,0-0.7,0-1-0.1c-0.3-0.1-0.5-0.2-0.7-0.4c-0.2-0.2-0.3-0.4-0.4-0.6c-0.1-0.3-0.2-0.5-0.2-0.8
		c0-0.3-0.1-0.6-0.1-1v-5.7h1.5v5.9c0,0.2,0,0.4,0,0.5c0,0.1,0,0.3,0.1,0.4c0,0.2,0.1,0.3,0.1,0.4c0.1,0.1,0.2,0.2,0.3,0.2
		c0.1,0.1,0.2,0.1,0.4,0.1c0.2,0,0.3,0,0.4-0.1c0.1-0.1,0.2-0.1,0.3-0.2s0.1-0.2,0.1-0.4c0-0.2,0.1-0.3,0.1-0.4c0-0.1,0-0.3,0-0.5
		v-5.9h1.5V35c0,0.4,0,0.7-0.1,1c0,0.3-0.1,0.6-0.2,0.8c-0.1,0.3-0.3,0.5-0.4,0.6c-0.2,0.2-0.4,0.3-0.7,0.4
		C467.1,37.9,466.8,38,466.4,38"/>
	<path class="st6" d="M469.3,37.9l1.7-8.6h1.6l1.7,8.6H473l-0.3-2h-1.5l-0.4,2H469.3z M471.3,34.9h1.2l-0.6-3.5L471.3,34.9z"/>
	<polygon class="st6" points="475,37.9 475,29.3 476.6,29.3 476.6,36.8 478.7,36.8 478.7,37.9 	"/>
	<path class="st6" d="M479.2,37.9v-8.6h2c0.5,0,1,0.1,1.3,0.2c0.3,0.1,0.6,0.3,0.8,0.5c0.2,0.2,0.4,0.5,0.4,0.8
		c0.1,0.3,0.1,0.7,0.1,1.2v3.1c0,0.5,0,0.9-0.1,1.2c-0.1,0.3-0.2,0.6-0.4,0.9c-0.2,0.2-0.5,0.4-0.8,0.5c-0.3,0.1-0.8,0.2-1.3,0.2
		H479.2z M480.8,36.8h0.4c0.2,0,0.3,0,0.4,0c0.1,0,0.2-0.1,0.3-0.1c0.1,0,0.1-0.1,0.2-0.2c0.1-0.1,0.1-0.2,0.1-0.2
		c0-0.1,0-0.2,0.1-0.3c0-0.1,0-0.3,0-0.4c0-0.1,0-0.3,0-0.5v-3.1c0-0.2,0-0.4,0-0.5c0-0.1,0-0.3-0.1-0.4c0-0.1-0.1-0.2-0.1-0.3
		c-0.1-0.1-0.1-0.1-0.2-0.2c-0.1-0.1-0.2-0.1-0.3-0.1s-0.3,0-0.5,0h-0.4V36.8z"/>
	<path class="st6" d="M484.2,37.9l1.7-8.6h1.6l1.7,8.6h-1.5l-0.3-2h-1.5l-0.4,2H484.2z M486.2,34.9h1.2l-0.6-3.5L486.2,34.9z"/>
	<path class="st6" d="M489.9,37.9v-8.6h2c0.5,0,1,0.1,1.3,0.2c0.3,0.1,0.6,0.3,0.8,0.5c0.2,0.2,0.4,0.5,0.4,0.8
		c0.1,0.3,0.1,0.7,0.1,1.2v3.1c0,0.5,0,0.9-0.1,1.2c-0.1,0.3-0.2,0.6-0.4,0.9c-0.2,0.2-0.5,0.4-0.8,0.5c-0.3,0.1-0.8,0.2-1.3,0.2
		H489.9z M491.5,36.8h0.4c0.2,0,0.3,0,0.4,0c0.1,0,0.2-0.1,0.3-0.1c0.1,0,0.1-0.1,0.2-0.2c0.1-0.1,0.1-0.2,0.1-0.2
		c0-0.1,0-0.2,0.1-0.3c0-0.1,0-0.3,0-0.4c0-0.1,0-0.3,0-0.5v-3.1c0-0.2,0-0.4,0-0.5c0-0.1,0-0.3,0-0.4c0-0.1-0.1-0.2-0.1-0.3
		c-0.1-0.1-0.1-0.1-0.2-0.2c-0.1-0.1-0.2-0.1-0.3-0.1c-0.1,0-0.3,0-0.5,0h-0.4V36.8z"/>
	<polygon class="st6" points="495.5,37.9 495.5,29.3 499.1,29.3 499.1,30.4 497.1,30.4 497.1,32.9 498.7,32.9 498.7,34 497.1,34 
		497.1,36.8 499.2,36.8 499.2,37.9 	"/>
	<path class="st6" d="M502,38c-1.5,0-2.3-0.9-2.4-2.6l1.4-0.3c0,1.1,0.4,1.7,1,1.7c0.2,0,0.4-0.1,0.5-0.2c0.1-0.1,0.2-0.3,0.2-0.6
		c0-0.2,0-0.5-0.1-0.7c-0.1-0.2-0.2-0.4-0.3-0.5c-0.1-0.1-0.3-0.3-0.5-0.5l-1.1-1c-0.3-0.3-0.6-0.6-0.7-0.9
		c-0.2-0.3-0.2-0.7-0.2-1.2c0-0.7,0.2-1.2,0.6-1.6c0.4-0.4,0.9-0.6,1.6-0.6c0.3,0,0.6,0,0.8,0.1c0.2,0.1,0.4,0.2,0.6,0.3
		c0.2,0.1,0.3,0.3,0.4,0.5c0.1,0.2,0.2,0.4,0.2,0.6c0.1,0.2,0.1,0.5,0.1,0.7l-1.3,0.3c0-0.2,0-0.3,0-0.5c0-0.1,0-0.3-0.1-0.4
		c0-0.1-0.1-0.2-0.1-0.3c-0.1-0.1-0.1-0.1-0.2-0.2c-0.1,0-0.2-0.1-0.4-0.1c-0.2,0-0.4,0.1-0.5,0.2c-0.1,0.1-0.2,0.3-0.2,0.6
		c0,0.3,0.1,0.5,0.2,0.7c0.1,0.2,0.3,0.4,0.5,0.6l1.1,1c0.2,0.2,0.3,0.3,0.5,0.5c0.1,0.2,0.3,0.3,0.4,0.5c0.1,0.2,0.2,0.4,0.3,0.7
		c0.1,0.2,0.1,0.5,0.1,0.8c0,0.6-0.2,1.1-0.6,1.5C503.1,37.8,502.6,38,502,38"/>
	<polygon class="st6" points="22.8,18.5 16.7,18.5 16.7,15.3 27,15.3 27,18.1 22.2,37.7 18.1,37.7 	"/>
	<polygon class="st6" points="36.6,23.8 36.6,15.2 40.2,15.2 40.2,16.3 38.1,16.3 38.1,18.8 39.7,18.8 39.7,19.9 38.1,19.9 
		38.1,22.8 40.2,22.8 40.2,23.8 	"/>
	<polygon class="st6" points="40.9,23.8 40.9,15.2 42,15.2 44.1,20.1 44.1,15.2 45.4,15.2 45.4,23.8 44.3,23.8 42.2,18.7 42.2,23.8 
			"/>
	<polygon class="st6" points="46.4,23.8 46.4,15.2 50,15.2 50,16.3 48,16.3 48,18.8 49.6,18.8 49.6,19.9 48,19.9 48,22.8 50.1,22.8 
		50.1,23.8 	"/>
	<path class="st6" d="M50.8,23.8v-8.6h2c0.5,0,0.8,0,1.2,0.1c0.3,0.1,0.6,0.2,0.8,0.4c0.2,0.2,0.4,0.4,0.5,0.7
		c0.1,0.3,0.2,0.7,0.2,1.1c0,0.5-0.1,1-0.2,1.3c-0.2,0.3-0.4,0.6-0.8,0.7l1.2,4.2H54l-1-3.9h-0.7v3.9H50.8z M52.3,18.9h0.4
		c0.5,0,0.8-0.1,1-0.3c0.2-0.2,0.3-0.5,0.3-1c0-0.5-0.1-0.8-0.3-1c-0.2-0.2-0.5-0.3-0.9-0.3h-0.5V18.9z"/>
	<path class="st6" d="M58.6,24c-0.8,0-1.4-0.3-1.8-0.8c-0.4-0.5-0.5-1.2-0.5-2.2v-2.8c0-0.5,0-0.9,0.1-1.3c0.1-0.4,0.2-0.7,0.4-0.9
		c0.2-0.3,0.4-0.5,0.8-0.6c0.3-0.1,0.7-0.2,1.2-0.2c0.9,0,1.5,0.2,1.8,0.6c0.4,0.4,0.6,1,0.6,1.9v0.4h-1.5v-0.4c0-0.2,0-0.3,0-0.5
		c0-0.1,0-0.2-0.1-0.4c0-0.1-0.1-0.2-0.1-0.3c-0.1-0.1-0.1-0.1-0.3-0.2c-0.1,0-0.2-0.1-0.4-0.1c-0.1,0-0.2,0-0.3,0
		c-0.1,0-0.2,0.1-0.2,0.1c-0.1,0-0.1,0.1-0.2,0.2c0,0.1-0.1,0.2-0.1,0.2c0,0.1,0,0.2-0.1,0.3c0,0.1,0,0.2,0,0.3c0,0.1,0,0.2,0,0.3
		v3.5c0,0.5,0.1,0.9,0.2,1.1c0.1,0.2,0.4,0.4,0.7,0.4c0.2,0,0.3,0,0.5-0.1c0.1-0.1,0.2-0.2,0.3-0.3c0.1-0.1,0.1-0.3,0.2-0.5
		c0-0.2,0-0.4,0-0.7v-0.7h-0.9v-1h2.3v4.4h-1L60,23C59.8,23.6,59.3,24,58.6,24"/>
	<path class="st6" d="M62.2,15.2h1.5v8.6h-1.5V15.2z M62.5,14.5l0.6-2.1h1.5l-1.3,2.1H62.5z"/>
	<path class="st6" d="M64.4,23.8l1.7-8.6h1.6l1.7,8.6h-1.5l-0.3-2h-1.5l-0.4,2H64.4z M66.4,20.8h1.2L67,17.3L66.4,20.8z"/>
	<path class="st6" d="M72.1,23.8l1.7-8.6h1.6l1.7,8.6h-1.5l-0.3-2h-1.5l-0.4,2H72.1z M74.1,20.8h1.2l-0.6-3.5L74.1,20.8z"/>
	<path class="st6" d="M80,23.9c-1.5,0-2.3-0.9-2.4-2.6L79,21c0,1.1,0.4,1.7,1,1.7c0.2,0,0.4-0.1,0.5-0.2c0.1-0.1,0.2-0.3,0.2-0.6
		c0-0.2,0-0.5-0.1-0.7c-0.1-0.2-0.2-0.4-0.3-0.5c-0.1-0.1-0.3-0.3-0.5-0.5l-1.1-1c-0.3-0.3-0.6-0.6-0.7-0.9
		c-0.2-0.3-0.2-0.7-0.2-1.2c0-0.7,0.2-1.2,0.6-1.6s0.9-0.6,1.6-0.6c0.3,0,0.6,0,0.8,0.1c0.2,0.1,0.4,0.2,0.6,0.3
		c0.2,0.1,0.3,0.3,0.4,0.5c0.1,0.2,0.2,0.4,0.2,0.6c0.1,0.2,0.1,0.5,0.1,0.7l-1.3,0.3c0-0.2,0-0.3,0-0.5c0-0.1,0-0.3-0.1-0.4
		c0-0.1-0.1-0.2-0.1-0.3c-0.1-0.1-0.1-0.1-0.2-0.2c-0.1,0-0.2-0.1-0.4-0.1c-0.2,0-0.4,0.1-0.5,0.2c-0.1,0.1-0.2,0.3-0.2,0.6
		c0,0.3,0.1,0.5,0.2,0.7c0.1,0.2,0.3,0.4,0.5,0.6l1.1,1c0.2,0.2,0.3,0.3,0.5,0.5c0.1,0.2,0.3,0.3,0.4,0.5c0.1,0.2,0.2,0.4,0.3,0.7
		c0.1,0.2,0.1,0.5,0.1,0.8c0,0.6-0.2,1.1-0.6,1.5C81.2,23.7,80.6,23.9,80,23.9"/>
	<polygon class="st6" points="82.9,23.8 82.9,15.2 86.5,15.2 86.5,16.3 84.4,16.3 84.4,18.8 86,18.8 86,19.9 84.4,19.9 84.4,22.8 
		86.5,22.8 86.5,23.8 	"/>
	<path class="st6" d="M91.3,25.6c-0.3-0.1-0.5-0.3-0.9-0.7c-0.3-0.3-0.6-0.6-0.8-1c0,0-0.1,0-0.2,0c-0.9,0-1.5-0.2-1.9-0.7
		C87.2,22.7,87,22,87,21.1v-3.2c0-0.5,0-0.9,0.1-1.2c0.1-0.3,0.2-0.6,0.4-0.9c0.2-0.2,0.4-0.4,0.8-0.6c0.3-0.1,0.7-0.2,1.2-0.2
		c0.9,0,1.5,0.2,1.9,0.7c0.4,0.5,0.6,1.2,0.6,2.1v3.2c0,1.3-0.4,2.2-1.2,2.6c0.3,0.4,0.6,0.7,0.8,0.8L91.3,25.6z M89.1,22.7
		c0.1,0,0.2,0.1,0.4,0.1s0.3,0,0.4-0.1c0.1,0,0.2-0.1,0.3-0.2c0.1-0.1,0.1-0.2,0.2-0.3c0-0.1,0.1-0.2,0.1-0.4c0-0.1,0-0.3,0-0.4
		v-3.9c0-0.2,0-0.4,0-0.5c0-0.1-0.1-0.3-0.1-0.4c-0.1-0.1-0.2-0.2-0.3-0.3c-0.1-0.1-0.3-0.1-0.5-0.1c-0.2,0-0.3,0-0.5,0.1
		c-0.1,0.1-0.2,0.2-0.3,0.3c-0.1,0.1-0.1,0.3-0.1,0.4c0,0.1,0,0.3,0,0.5v3.9c0,0.2,0,0.3,0,0.4c0,0.1,0,0.2,0.1,0.4
		c0,0.1,0.1,0.2,0.1,0.3C88.9,22.6,89,22.7,89.1,22.7"/>
	<path class="st6" d="M95.3,23.9c-0.4,0-0.7,0-1-0.1s-0.5-0.2-0.7-0.4c-0.2-0.2-0.3-0.4-0.4-0.6C93,22.6,93,22.3,92.9,22
		c0-0.3-0.1-0.6-0.1-1v-5.7h1.5v5.9c0,0.2,0,0.4,0,0.5c0,0.1,0,0.3,0.1,0.4c0,0.2,0.1,0.3,0.1,0.4c0.1,0.1,0.2,0.2,0.3,0.2
		c0.1,0.1,0.2,0.1,0.4,0.1c0.2,0,0.3,0,0.4-0.1c0.1-0.1,0.2-0.1,0.3-0.2c0.1-0.1,0.1-0.2,0.1-0.4c0-0.2,0.1-0.3,0.1-0.4
		c0-0.1,0-0.3,0-0.5v-5.9h1.5v5.7c0,0.4,0,0.7-0.1,1c0,0.3-0.1,0.6-0.2,0.8c-0.1,0.3-0.3,0.5-0.4,0.6c-0.2,0.2-0.4,0.3-0.7,0.4
		C96,23.9,95.7,23.9,95.3,23.9"/>
	<rect x="98.7" y="15.2" class="st6" width="1.5" height="8.6"/>
	<path class="st6" d="M101.4,23.8v-8.6h2.1c0.4,0,0.7,0,1,0.1c0.3,0.1,0.6,0.2,0.8,0.4c0.2,0.2,0.4,0.4,0.5,0.7
		c0.1,0.3,0.2,0.6,0.2,1.1c0,1.1-0.4,1.7-1.3,1.8c0.5,0.1,0.9,0.3,1.1,0.7c0.3,0.3,0.4,0.8,0.4,1.5c0,0.8-0.2,1.4-0.6,1.9
		c-0.4,0.4-1,0.6-1.8,0.6H101.4z M103,18.7h0.5c0.5,0,0.8-0.1,0.9-0.3c0.2-0.2,0.3-0.5,0.3-1c0-0.2,0-0.4-0.1-0.6
		c-0.1-0.2-0.2-0.3-0.3-0.3c-0.1-0.1-0.3-0.1-0.4-0.2c-0.2,0-0.4,0-0.7,0H103V18.7z M103,22.7h0.6c0.5,0,0.8-0.1,1-0.3
		c0.2-0.2,0.3-0.6,0.3-1.1c0-0.5-0.1-0.9-0.3-1.1c-0.2-0.2-0.5-0.4-1-0.4H103V22.7z"/>
	<polygon class="st6" points="107.1,23.8 107.1,15.2 108.6,15.2 108.6,22.8 110.7,22.8 110.7,23.8 	"/>
	<polygon class="st6" points="111.3,23.8 111.3,15.2 114.9,15.2 114.9,16.3 112.9,16.3 112.9,18.8 114.5,18.8 114.5,19.9 
		112.9,19.9 112.9,22.8 114.9,22.8 114.9,23.8 	"/>
	<polygon class="st6" points="37.8,37.9 37.8,34.6 36,29.3 37.5,29.3 38.6,32.7 39.6,29.3 41,29.3 39.3,34.6 39.3,37.9 	"/>
	<polygon class="st6" points="43.9,37.9 43.9,29.3 45,29.3 47.1,34.2 47.1,29.3 48.4,29.3 48.4,37.9 47.4,37.9 45.3,32.8 45.3,37.9 
			"/>
	<path class="st6" d="M51.8,38c-0.9,0-1.5-0.2-1.9-0.7c-0.4-0.5-0.6-1.2-0.6-2.1V32c0-0.5,0-0.9,0.1-1.2c0.1-0.3,0.2-0.6,0.4-0.9
		c0.2-0.2,0.4-0.4,0.8-0.6c0.3-0.1,0.7-0.2,1.2-0.2c0.9,0,1.5,0.2,1.9,0.7c0.4,0.5,0.6,1.2,0.6,2.1v3.2c0,0.4,0,0.8-0.1,1.2
		c-0.1,0.3-0.2,0.6-0.4,0.9c-0.2,0.3-0.4,0.4-0.8,0.6C52.7,37.9,52.3,38,51.8,38 M51.4,36.8c0.1,0,0.2,0.1,0.4,0.1
		c0.2,0,0.3,0,0.4-0.1c0.1,0,0.2-0.1,0.3-0.2c0.1-0.1,0.1-0.2,0.2-0.3c0-0.1,0.1-0.2,0.1-0.4c0-0.1,0-0.3,0-0.4v-3.9
		c0-0.2,0-0.4,0-0.5c0-0.1-0.1-0.3-0.1-0.4c-0.1-0.1-0.2-0.2-0.3-0.3c-0.1-0.1-0.3-0.1-0.5-0.1c-0.2,0-0.3,0-0.5,0.1
		c-0.1,0.1-0.2,0.2-0.3,0.3C51,30.8,51,31,51,31.1c0,0.1,0,0.3,0,0.5v3.9c0,0.2,0,0.3,0,0.4c0,0.1,0,0.2,0.1,0.4
		c0,0.1,0.1,0.2,0.1,0.3C51.2,36.7,51.3,36.7,51.4,36.8"/>
	<path class="st6" d="M59.9,38c-0.4,0-0.7,0-1-0.1c-0.3-0.1-0.5-0.2-0.7-0.4c-0.2-0.2-0.3-0.4-0.5-0.6c-0.1-0.2-0.2-0.5-0.2-0.8
		c0-0.3-0.1-0.6-0.1-1v-3c0-0.4,0-0.7,0.1-1c0-0.3,0.1-0.6,0.2-0.8c0.1-0.2,0.3-0.5,0.4-0.6c0.2-0.2,0.4-0.3,0.7-0.4
		c0.3-0.1,0.6-0.1,1-0.1c0.4,0,0.8,0.1,1.1,0.2c0.3,0.1,0.5,0.3,0.7,0.5c0.2,0.2,0.3,0.5,0.4,0.8c0.1,0.3,0.1,0.6,0.1,1v0.7h-1.5
		v-0.7c0-0.4,0-0.7-0.1-0.9c-0.1-0.3-0.3-0.4-0.7-0.5h-0.1c-0.1,0-0.2,0-0.3,0c-0.1,0-0.2,0.1-0.2,0.1c-0.1,0.1-0.1,0.1-0.2,0.2
		c0,0.1-0.1,0.2-0.1,0.3c0,0.1,0,0.2,0,0.3c0,0.1,0,0.2,0,0.4v3.6c0,0.5,0.1,0.9,0.2,1.1c0.1,0.2,0.4,0.3,0.7,0.3c0.1,0,0.2,0,0.3,0
		c0.1,0,0.2-0.1,0.2-0.1c0.1,0,0.1-0.1,0.1-0.2c0-0.1,0.1-0.1,0.1-0.2c0-0.1,0-0.2,0-0.3c0-0.1,0-0.2,0-0.3c0-0.1,0-0.2,0-0.3v-0.8
		h1.5v0.7c0,0.3,0,0.6-0.1,0.9c0,0.3-0.1,0.5-0.2,0.7c-0.1,0.2-0.2,0.4-0.4,0.6c-0.2,0.2-0.4,0.3-0.7,0.4C60.6,37.9,60.3,38,59.9,38
		"/>
	<path class="st6" d="M65.4,38c-0.9,0-1.5-0.2-1.9-0.7c-0.4-0.5-0.6-1.2-0.6-2.1V32c0-0.5,0-0.9,0.1-1.2c0.1-0.3,0.2-0.6,0.4-0.9
		c0.2-0.2,0.4-0.4,0.8-0.6c0.3-0.1,0.7-0.2,1.2-0.2c0.9,0,1.5,0.2,1.9,0.7c0.4,0.5,0.6,1.2,0.6,2.1v3.2c0,0.4,0,0.8-0.1,1.2
		c-0.1,0.3-0.2,0.6-0.4,0.9c-0.2,0.3-0.4,0.4-0.8,0.6C66.3,37.9,65.9,38,65.4,38 M65.1,36.8c0.1,0,0.2,0.1,0.4,0.1
		c0.2,0,0.3,0,0.4-0.1c0.1,0,0.2-0.1,0.3-0.2c0.1-0.1,0.1-0.2,0.2-0.3c0-0.1,0.1-0.2,0.1-0.4c0-0.1,0-0.3,0-0.4v-3.9
		c0-0.2,0-0.4,0-0.5c0-0.1-0.1-0.3-0.1-0.4c-0.1-0.1-0.2-0.2-0.3-0.3c-0.1-0.1-0.3-0.1-0.5-0.1c-0.2,0-0.3,0-0.5,0.1
		c-0.1,0.1-0.2,0.2-0.3,0.3c-0.1,0.1-0.1,0.3-0.1,0.4c0,0.1,0,0.3,0,0.5v3.9c0,0.2,0,0.3,0,0.4c0,0.1,0,0.2,0.1,0.4
		c0,0.1,0.1,0.2,0.1,0.3C64.9,36.7,65,36.7,65.1,36.8"/>
	<polygon class="st6" points="68.9,37.9 68.9,29.3 69.9,29.3 72,34.2 72,29.3 73.3,29.3 73.3,37.9 72.3,37.9 70.2,32.8 70.2,37.9 	
		"/>
	<polygon class="st6" points="75.3,37.9 75.3,30.4 73.8,30.4 73.8,29.3 78.2,29.3 78.2,30.4 76.8,30.4 76.8,37.9 	"/>
	<path class="st6" d="M78.2,37.9l1.7-8.6h1.6l1.7,8.6h-1.5l-0.3-2H80l-0.4,2H78.2z M80.2,34.9h1.2l-0.6-3.5L80.2,34.9z"/>
	<polygon class="st6" points="83.9,37.9 84.1,29.3 85.7,29.3 86.9,35.3 88.2,29.3 89.8,29.3 89.9,37.9 88.7,37.9 88.6,32 87.4,37.9 
		86.5,37.9 85.2,31.9 85.1,37.9 	"/>
	<rect x="91" y="29.3" class="st6" width="1.5" height="8.6"/>
	<polygon class="st6" points="93.7,37.9 93.7,29.3 94.8,29.3 96.9,34.2 96.9,29.3 98.2,29.3 98.2,37.9 97.1,37.9 95,32.8 95,37.9 	
		"/>
	<path class="st6" d="M98.8,37.9l1.7-8.6h1.6l1.7,8.6h-1.5l-0.3-2h-1.5l-0.4,2H98.8z M100.8,34.9h1.2l-0.6-3.5L100.8,34.9z"/>
	<polygon class="st6" points="104.6,37.9 104.6,29.3 105.6,29.3 107.7,34.2 107.7,29.3 109,29.3 109,37.9 108,37.9 105.9,32.8 
		105.9,37.9 	"/>
	<polygon class="st6" points="110.9,37.9 110.9,30.4 109.5,30.4 109.5,29.3 113.9,29.3 113.9,30.4 112.5,30.4 112.5,37.9 	"/>
	<polygon class="st6" points="114.4,37.9 114.4,29.3 118,29.3 118,30.4 115.9,30.4 115.9,32.9 117.5,32.9 117.5,34 115.9,34 
		115.9,36.8 118,36.8 118,37.9 	"/>
	<path class="st6" d="M546,19.7c-0.2,0.1-0.8,0.3-1.8,0.7c-0.8,0.3-1.3,0.4-1.5,0.5v-3.2c0.6-0.2,1.4-0.6,2.3-1.1
		c0.9-0.5,1.5-1,1.9-1.4h3.4v22.5H546V19.7z"/>
	<path class="st6" d="M555.4,19.7c-0.2,0.1-0.8,0.3-1.8,0.7c-0.8,0.3-1.3,0.4-1.5,0.5v-3.2c0.6-0.2,1.4-0.6,2.3-1.1
		c0.9-0.5,1.5-1,1.9-1.4h3.4v22.5h-4.3V19.7z"/>
	<path class="st6" d="M571,23.9c-0.4,0-0.7,0-1-0.1c-0.3-0.1-0.5-0.2-0.7-0.4c-0.2-0.2-0.3-0.4-0.5-0.6c-0.1-0.2-0.2-0.5-0.2-0.8
		c0-0.3-0.1-0.6-0.1-1v-3c0-0.4,0-0.7,0.1-1c0-0.3,0.1-0.6,0.2-0.8c0.1-0.2,0.3-0.5,0.4-0.6c0.2-0.2,0.4-0.3,0.7-0.4
		c0.3-0.1,0.6-0.1,1-0.1c0.4,0,0.8,0.1,1.1,0.2c0.3,0.1,0.5,0.3,0.7,0.5c0.2,0.2,0.3,0.5,0.4,0.8c0.1,0.3,0.1,0.6,0.1,1v0.7h-1.5
		v-0.7c0-0.4,0-0.7-0.1-0.9c-0.1-0.3-0.3-0.4-0.7-0.5H571c-0.1,0-0.2,0-0.3,0c-0.1,0-0.2,0.1-0.2,0.1c-0.1,0.1-0.1,0.1-0.2,0.2
		c0,0.1-0.1,0.2-0.1,0.3c0,0.1,0,0.2,0,0.3c0,0.1,0,0.2,0,0.4v3.6c0,0.5,0.1,0.9,0.2,1.1c0.1,0.2,0.4,0.3,0.7,0.3c0.1,0,0.2,0,0.3,0
		c0.1,0,0.2-0.1,0.2-0.1c0.1,0,0.1-0.1,0.1-0.2s0.1-0.1,0.1-0.2c0-0.1,0-0.2,0-0.3c0-0.1,0-0.2,0-0.3c0-0.1,0-0.2,0-0.3v-0.8h1.5
		v0.7c0,0.3,0,0.6-0.1,0.9c0,0.3-0.1,0.5-0.2,0.7c-0.1,0.2-0.2,0.4-0.4,0.6c-0.2,0.1-0.4,0.3-0.7,0.4
		C571.7,23.9,571.4,23.9,571,23.9"/>
	<rect x="574" y="15.2" class="st6" width="1.5" height="8.6"/>
	<path class="st6" d="M578.8,23.9c-0.4,0-0.7,0-1-0.1c-0.3-0.1-0.5-0.2-0.7-0.4c-0.2-0.2-0.3-0.4-0.4-0.6c-0.1-0.3-0.2-0.5-0.2-0.8
		c0-0.3-0.1-0.6-0.1-1v-5.7h1.5v5.9c0,0.2,0,0.4,0,0.5c0,0.1,0,0.3,0.1,0.4c0,0.2,0.1,0.3,0.1,0.4c0.1,0.1,0.2,0.2,0.3,0.2
		c0.1,0.1,0.2,0.1,0.4,0.1c0.2,0,0.3,0,0.4-0.1c0.1-0.1,0.2-0.1,0.3-0.2c0.1-0.1,0.1-0.2,0.1-0.4c0-0.2,0.1-0.3,0.1-0.4
		c0-0.1,0-0.3,0-0.5v-5.9h1.5v5.7c0,0.4,0,0.7-0.1,1c0,0.3-0.1,0.6-0.2,0.8c-0.1,0.3-0.3,0.5-0.4,0.6c-0.2,0.2-0.4,0.3-0.7,0.4
		C579.5,23.9,579.2,23.9,578.8,23.9"/>
	<path class="st6" d="M582,23.8v-8.6h2c0.5,0,1,0.1,1.3,0.2c0.3,0.1,0.6,0.3,0.8,0.5c0.2,0.2,0.4,0.5,0.4,0.8
		c0.1,0.3,0.1,0.7,0.1,1.2V21c0,0.5,0,0.9-0.1,1.2c-0.1,0.3-0.2,0.6-0.4,0.9c-0.2,0.2-0.5,0.4-0.8,0.5c-0.3,0.1-0.8,0.2-1.3,0.2H582
		z M583.6,22.7h0.4c0.2,0,0.3,0,0.4,0c0.1,0,0.2-0.1,0.3-0.1c0.1,0,0.1-0.1,0.2-0.2c0.1-0.1,0.1-0.2,0.1-0.2c0-0.1,0-0.2,0.1-0.3
		c0-0.1,0-0.3,0-0.4c0-0.1,0-0.3,0-0.5v-3.1c0-0.2,0-0.4,0-0.5c0-0.1,0-0.3-0.1-0.4c0-0.1-0.1-0.2-0.1-0.3s-0.1-0.1-0.2-0.2
		c-0.1-0.1-0.2-0.1-0.3-0.1c-0.1,0-0.3,0-0.5,0h-0.4V22.7z"/>
	<path class="st6" d="M586.9,23.8l1.7-8.6h1.6l1.7,8.6h-1.5l-0.3-2h-1.5l-0.4,2H586.9z M588.9,20.8h1.2l-0.6-3.5L588.9,20.8z"/>
	<path class="st6" d="M592.4,23.8v-8.6h2c0.5,0,1,0.1,1.3,0.2c0.3,0.1,0.6,0.3,0.8,0.5c0.2,0.2,0.4,0.5,0.4,0.8
		c0.1,0.3,0.1,0.7,0.1,1.2V21c0,0.5,0,0.9-0.1,1.2c-0.1,0.3-0.2,0.6-0.4,0.9c-0.2,0.2-0.5,0.4-0.8,0.5c-0.3,0.1-0.8,0.2-1.3,0.2
		H592.4z M594,22.7h0.4c0.2,0,0.3,0,0.4,0c0.1,0,0.2-0.1,0.3-0.1c0.1,0,0.1-0.1,0.2-0.2c0.1-0.1,0.1-0.2,0.1-0.2
		c0-0.1,0-0.2,0.1-0.3c0-0.1,0-0.3,0-0.4c0-0.1,0-0.3,0-0.5v-3.1c0-0.2,0-0.4,0-0.5c0-0.1,0-0.3-0.1-0.4c0-0.1-0.1-0.2-0.1-0.3
		s-0.1-0.1-0.2-0.2c-0.1-0.1-0.2-0.1-0.3-0.1s-0.3,0-0.5,0H594V22.7z"/>
	<polygon class="st6" points="597.9,23.8 597.9,15.2 601.5,15.2 601.5,16.3 599.4,16.3 599.4,18.8 601,18.8 601,19.9 599.4,19.9 
		599.4,22.8 601.5,22.8 601.5,23.8 	"/>
	<path class="st6" d="M604.1,23.9c-1.5,0-2.3-0.9-2.4-2.6l1.4-0.3c0,1.1,0.4,1.7,1,1.7c0.2,0,0.4-0.1,0.5-0.2
		c0.1-0.1,0.2-0.3,0.2-0.6c0-0.2,0-0.5-0.1-0.7c-0.1-0.2-0.2-0.4-0.3-0.5c-0.1-0.1-0.3-0.3-0.5-0.5l-1.1-1c-0.3-0.3-0.6-0.6-0.7-0.9
		c-0.2-0.3-0.2-0.7-0.2-1.2c0-0.7,0.2-1.2,0.6-1.6c0.4-0.4,0.9-0.6,1.6-0.6c0.3,0,0.6,0,0.8,0.1c0.2,0.1,0.4,0.2,0.6,0.3
		c0.2,0.1,0.3,0.3,0.4,0.5c0.1,0.2,0.2,0.4,0.2,0.6c0.1,0.2,0.1,0.5,0.1,0.7l-1.3,0.3c0-0.2,0-0.3,0-0.5c0-0.1,0-0.3-0.1-0.4
		c0-0.1-0.1-0.2-0.1-0.3c-0.1-0.1-0.1-0.1-0.2-0.2c-0.1,0-0.2-0.1-0.4-0.1c-0.2,0-0.4,0.1-0.5,0.2c-0.1,0.1-0.2,0.3-0.2,0.6
		c0,0.3,0.1,0.5,0.2,0.7c0.1,0.2,0.3,0.4,0.5,0.6l1.1,1c0.2,0.2,0.3,0.3,0.5,0.5c0.1,0.2,0.3,0.3,0.4,0.5c0.1,0.2,0.2,0.4,0.3,0.7
		c0.1,0.2,0.1,0.5,0.1,0.8c0,0.6-0.2,1.1-0.6,1.5C605.3,23.7,604.8,23.9,604.1,23.9"/>
	<polygon class="st6" points="610.1,23.8 610.1,20.6 608.4,15.2 609.8,15.2 610.9,18.7 611.9,15.2 613.4,15.2 611.6,20.6 
		611.6,23.8 	"/>
	<path class="st6" d="M571,38c-0.4,0-0.7,0-1-0.1c-0.3-0.1-0.5-0.2-0.7-0.4c-0.2-0.2-0.3-0.4-0.5-0.6c-0.1-0.2-0.2-0.5-0.2-0.8
		c0-0.3-0.1-0.6-0.1-1v-3c0-0.4,0-0.7,0.1-1c0-0.3,0.1-0.6,0.2-0.8c0.1-0.2,0.3-0.5,0.4-0.6c0.2-0.2,0.4-0.3,0.7-0.4
		c0.3-0.1,0.6-0.1,1-0.1c0.4,0,0.8,0.1,1.1,0.2c0.3,0.1,0.5,0.3,0.7,0.5c0.2,0.2,0.3,0.5,0.4,0.8c0.1,0.3,0.1,0.6,0.1,1v0.7h-1.5
		v-0.7c0-0.4,0-0.7-0.1-0.9c-0.1-0.3-0.3-0.4-0.7-0.5H571c-0.1,0-0.2,0-0.3,0c-0.1,0-0.2,0.1-0.2,0.1c-0.1,0.1-0.1,0.1-0.2,0.2
		c0,0.1-0.1,0.2-0.1,0.3c0,0.1,0,0.2,0,0.3c0,0.1,0,0.2,0,0.4v3.6c0,0.5,0.1,0.9,0.2,1.1c0.1,0.2,0.4,0.3,0.7,0.3c0.1,0,0.2,0,0.3,0
		c0.1,0,0.2-0.1,0.2-0.1c0.1,0,0.1-0.1,0.1-0.2c0-0.1,0.1-0.1,0.1-0.2c0-0.1,0-0.2,0-0.3c0-0.1,0-0.2,0-0.3c0-0.1,0-0.2,0-0.3v-0.8
		h1.5v0.7c0,0.3,0,0.6-0.1,0.9c0,0.3-0.1,0.5-0.2,0.7c-0.1,0.2-0.2,0.4-0.4,0.6c-0.2,0.2-0.4,0.3-0.7,0.4S571.4,38,571,38"/>
	<path class="st6" d="M576.3,38c-0.9,0-1.5-0.2-1.9-0.7c-0.4-0.5-0.6-1.2-0.6-2.1V32c0-0.5,0-0.9,0.1-1.2c0.1-0.3,0.2-0.6,0.4-0.9
		c0.2-0.2,0.4-0.4,0.8-0.6c0.3-0.1,0.7-0.2,1.2-0.2c0.9,0,1.5,0.2,1.9,0.7c0.4,0.5,0.6,1.2,0.6,2.1v3.2c0,0.4,0,0.8-0.1,1.2
		c-0.1,0.3-0.2,0.6-0.4,0.9c-0.2,0.3-0.4,0.4-0.8,0.6C577.2,37.9,576.8,38,576.3,38 M575.9,36.8c0.1,0,0.2,0.1,0.4,0.1
		c0.2,0,0.3,0,0.4-0.1c0.1,0,0.2-0.1,0.3-0.2c0.1-0.1,0.1-0.2,0.2-0.3c0-0.1,0.1-0.2,0.1-0.4c0-0.1,0-0.3,0-0.4v-3.9
		c0-0.2,0-0.4,0-0.5c0-0.1-0.1-0.3-0.1-0.4c-0.1-0.1-0.2-0.2-0.3-0.3c-0.1-0.1-0.3-0.1-0.5-0.1c-0.2,0-0.3,0-0.5,0.1
		c-0.1,0.1-0.2,0.2-0.3,0.3c-0.1,0.1-0.1,0.3-0.1,0.4c0,0.1,0,0.3,0,0.5v3.9c0,0.2,0,0.3,0,0.4c0,0.1,0,0.2,0.1,0.4
		c0,0.1,0.1,0.2,0.1,0.3C575.7,36.7,575.8,36.7,575.9,36.8"/>
	<polygon class="st6" points="579.5,37.9 579.6,29.3 581.2,29.3 582.5,35.3 583.8,29.3 585.3,29.3 585.5,37.9 584.3,37.9 584.2,32 
		583,37.9 582,37.9 580.8,31.9 580.7,37.9 	"/>
	<path class="st6" d="M588.7,38c-0.4,0-0.7,0-1-0.1c-0.3-0.1-0.5-0.2-0.7-0.4c-0.2-0.2-0.3-0.4-0.4-0.6c-0.1-0.3-0.2-0.5-0.2-0.8
		c0-0.3-0.1-0.6-0.1-1v-5.7h1.5v5.9c0,0.2,0,0.4,0,0.5c0,0.1,0,0.3,0.1,0.4c0,0.2,0.1,0.3,0.1,0.4c0.1,0.1,0.2,0.2,0.3,0.2
		c0.1,0.1,0.2,0.1,0.4,0.1s0.3,0,0.4-0.1c0.1-0.1,0.2-0.1,0.3-0.2c0.1-0.1,0.1-0.2,0.1-0.4c0-0.2,0.1-0.3,0.1-0.4c0-0.1,0-0.3,0-0.5
		v-5.9h1.5V35c0,0.4,0,0.7-0.1,1c0,0.3-0.1,0.6-0.2,0.8c-0.1,0.3-0.3,0.5-0.4,0.6c-0.2,0.2-0.4,0.3-0.7,0.4
		C589.4,37.9,589.1,38,588.7,38"/>
	<polygon class="st6" points="591.9,37.9 591.9,29.3 593,29.3 595.1,34.2 595.1,29.3 596.4,29.3 596.4,37.9 595.3,37.9 593.2,32.8 
		593.2,37.9 	"/>
	<rect x="597.3" y="29.3" class="st6" width="1.5" height="8.6"/>
	<path class="st6" d="M599.7,37.9v-8.6h2c0.5,0,1,0.1,1.3,0.2c0.3,0.1,0.6,0.3,0.8,0.5c0.2,0.2,0.4,0.5,0.4,0.8
		c0.1,0.3,0.1,0.7,0.1,1.2v3.1c0,0.5,0,0.9-0.1,1.2c-0.1,0.3-0.2,0.6-0.4,0.9c-0.2,0.2-0.5,0.4-0.8,0.5c-0.3,0.1-0.8,0.2-1.3,0.2
		H599.7z M601.2,36.8h0.4c0.2,0,0.3,0,0.4,0c0.1,0,0.2-0.1,0.3-0.1c0.1,0,0.1-0.1,0.2-0.2c0.1-0.1,0.1-0.2,0.1-0.2
		c0-0.1,0-0.2,0.1-0.3c0-0.1,0-0.3,0-0.4c0-0.1,0-0.3,0-0.5v-3.1c0-0.2,0-0.4,0-0.5c0-0.1,0-0.3,0-0.4c0-0.1-0.1-0.2-0.1-0.3
		c-0.1-0.1-0.1-0.1-0.2-0.2c-0.1-0.1-0.2-0.1-0.3-0.1c-0.1,0-0.3,0-0.5,0h-0.4V36.8z"/>
	<path class="st6" d="M604.6,37.9l1.7-8.6h1.6l1.7,8.6h-1.5l-0.3-2h-1.5l-0.4,2H604.6z M606.6,34.9h1.2l-0.6-3.5L606.6,34.9z"/>
	<path class="st6" d="M610.1,37.9v-8.6h2c0.5,0,1,0.1,1.3,0.2c0.3,0.1,0.6,0.3,0.8,0.5c0.2,0.2,0.4,0.5,0.4,0.8
		c0.1,0.3,0.1,0.7,0.1,1.2v3.1c0,0.5,0,0.9-0.1,1.2c-0.1,0.3-0.2,0.6-0.4,0.9c-0.2,0.2-0.5,0.4-0.8,0.5c-0.3,0.1-0.8,0.2-1.3,0.2
		H610.1z M611.7,36.8h0.4c0.2,0,0.3,0,0.4,0c0.1,0,0.2-0.1,0.3-0.1c0.1,0,0.1-0.1,0.2-0.2c0.1-0.1,0.1-0.2,0.1-0.2
		c0-0.1,0-0.2,0.1-0.3c0-0.1,0-0.3,0-0.4c0-0.1,0-0.3,0-0.5v-3.1c0-0.2,0-0.4,0-0.5c0-0.1,0-0.3,0-0.4c0-0.1-0.1-0.2-0.1-0.3
		c-0.1-0.1-0.1-0.1-0.2-0.2c-0.1-0.1-0.2-0.1-0.3-0.1c-0.1,0-0.3,0-0.5,0h-0.4V36.8z"/>
	<polygon class="st6" points="615.5,37.9 615.5,29.3 619.1,29.3 619.1,30.4 617.1,30.4 617.1,32.9 618.7,32.9 618.7,34 617.1,34 
		617.1,36.8 619.2,36.8 619.2,37.9 	"/>
	<path class="st6" d="M621.8,38c-1.5,0-2.3-0.9-2.4-2.6l1.4-0.3c0,1.1,0.4,1.7,1,1.7c0.2,0,0.4-0.1,0.5-0.2c0.1-0.1,0.2-0.3,0.2-0.6
		c0-0.2,0-0.5-0.1-0.7c-0.1-0.2-0.2-0.4-0.3-0.5c-0.1-0.1-0.3-0.3-0.5-0.5l-1.1-1c-0.3-0.3-0.6-0.6-0.7-0.9
		c-0.2-0.3-0.2-0.7-0.2-1.2c0-0.7,0.2-1.2,0.6-1.6c0.4-0.4,0.9-0.6,1.6-0.6c0.3,0,0.6,0,0.8,0.1c0.2,0.1,0.4,0.2,0.6,0.3
		c0.2,0.1,0.3,0.3,0.4,0.5c0.1,0.2,0.2,0.4,0.2,0.6c0.1,0.2,0.1,0.5,0.1,0.7l-1.3,0.3c0-0.2,0-0.3,0-0.5c0-0.1,0-0.3-0.1-0.4
		c0-0.1-0.1-0.2-0.1-0.3c-0.1-0.1-0.1-0.1-0.2-0.2c-0.1,0-0.2-0.1-0.4-0.1c-0.2,0-0.4,0.1-0.5,0.2c-0.1,0.1-0.2,0.3-0.2,0.6
		c0,0.3,0.1,0.5,0.2,0.7c0.1,0.2,0.3,0.4,0.5,0.6l1.1,1c0.2,0.2,0.3,0.3,0.5,0.5c0.1,0.2,0.3,0.3,0.4,0.5c0.1,0.2,0.2,0.4,0.3,0.7
		c0.1,0.2,0.1,0.5,0.1,0.8c0,0.6-0.2,1.1-0.6,1.5C622.9,37.8,622.4,38,621.8,38"/>
	<path class="st6" d="M570.9,52c-1.5,0-2.3-0.9-2.4-2.6l1.4-0.3c0,1.1,0.4,1.7,1,1.7c0.2,0,0.4-0.1,0.5-0.2c0.1-0.1,0.2-0.3,0.2-0.6
		c0-0.2,0-0.5-0.1-0.7c-0.1-0.2-0.2-0.4-0.3-0.5c-0.1-0.1-0.3-0.3-0.5-0.5l-1.1-1c-0.3-0.3-0.6-0.6-0.7-0.9
		c-0.2-0.3-0.2-0.7-0.2-1.2c0-0.7,0.2-1.2,0.6-1.6c0.4-0.4,0.9-0.6,1.6-0.6c0.3,0,0.6,0,0.8,0.1c0.2,0.1,0.4,0.2,0.6,0.3
		c0.2,0.1,0.3,0.3,0.4,0.5c0.1,0.2,0.2,0.4,0.2,0.6c0.1,0.2,0.1,0.5,0.1,0.7l-1.3,0.3c0-0.2,0-0.3,0-0.5c0-0.1,0-0.3-0.1-0.4
		c0-0.1-0.1-0.2-0.1-0.3c-0.1-0.1-0.1-0.1-0.2-0.2c-0.1,0-0.2-0.1-0.4-0.1c-0.2,0-0.4,0.1-0.5,0.2c-0.1,0.1-0.2,0.3-0.2,0.6
		c0,0.3,0.1,0.5,0.2,0.7c0.1,0.2,0.3,0.4,0.5,0.6l1.1,1c0.2,0.2,0.3,0.3,0.5,0.5c0.1,0.2,0.3,0.3,0.4,0.5c0.1,0.2,0.2,0.4,0.3,0.7
		c0.1,0.2,0.1,0.5,0.1,0.8c0,0.6-0.2,1.1-0.6,1.5C572,51.8,571.5,52,570.9,52"/>
	<path class="st6" d="M575.9,52c-0.9,0-1.5-0.2-1.9-0.7c-0.4-0.5-0.6-1.2-0.6-2.1V46c0-0.5,0-0.9,0.1-1.2c0.1-0.3,0.2-0.6,0.4-0.9
		c0.2-0.2,0.4-0.4,0.8-0.6c0.3-0.1,0.7-0.2,1.2-0.2c0.9,0,1.5,0.2,1.9,0.7c0.4,0.5,0.6,1.2,0.6,2.1v3.2c0,0.4,0,0.8-0.1,1.2
		c-0.1,0.3-0.2,0.6-0.4,0.9c-0.2,0.3-0.4,0.4-0.8,0.6C576.7,52,576.3,52,575.9,52 M575.5,50.8c0.1,0,0.2,0.1,0.4,0.1
		c0.2,0,0.3,0,0.4-0.1c0.1,0,0.2-0.1,0.3-0.2c0.1-0.1,0.1-0.2,0.2-0.3c0-0.1,0.1-0.2,0.1-0.4c0-0.1,0-0.3,0-0.4v-3.9
		c0-0.2,0-0.4,0-0.5c0-0.1-0.1-0.3-0.1-0.4c-0.1-0.1-0.2-0.2-0.3-0.3c-0.1-0.1-0.3-0.1-0.5-0.1c-0.2,0-0.3,0-0.5,0.1
		c-0.1,0.1-0.2,0.2-0.3,0.3c-0.1,0.1-0.1,0.3-0.1,0.4c0,0.1,0,0.3,0,0.5v3.9c0,0.2,0,0.3,0,0.4c0,0.1,0,0.2,0.1,0.4
		c0,0.1,0.1,0.2,0.1,0.3C575.3,50.7,575.4,50.8,575.5,50.8"/>
	<path class="st6" d="M581.2,52c-1.5,0-2.3-0.9-2.4-2.6l1.4-0.3c0,1.1,0.4,1.7,1,1.7c0.2,0,0.4-0.1,0.5-0.2c0.1-0.1,0.2-0.3,0.2-0.6
		c0-0.2,0-0.5-0.1-0.7c-0.1-0.2-0.2-0.4-0.3-0.5c-0.1-0.1-0.3-0.3-0.5-0.5l-1.1-1c-0.3-0.3-0.6-0.6-0.7-0.9
		c-0.2-0.3-0.2-0.7-0.2-1.2c0-0.7,0.2-1.2,0.6-1.6s0.9-0.6,1.6-0.6c0.3,0,0.6,0,0.8,0.1c0.2,0.1,0.4,0.2,0.6,0.3
		c0.2,0.1,0.3,0.3,0.4,0.5c0.1,0.2,0.2,0.4,0.2,0.6c0.1,0.2,0.1,0.5,0.1,0.7l-1.3,0.3c0-0.2,0-0.3,0-0.5c0-0.1,0-0.3-0.1-0.4
		c0-0.1-0.1-0.2-0.1-0.3c-0.1-0.1-0.1-0.1-0.2-0.2c-0.1,0-0.2-0.1-0.4-0.1c-0.2,0-0.4,0.1-0.5,0.2c-0.1,0.1-0.2,0.3-0.2,0.6
		c0,0.3,0.1,0.5,0.2,0.7c0.1,0.2,0.3,0.4,0.5,0.6l1.1,1c0.2,0.2,0.3,0.3,0.5,0.5c0.1,0.2,0.3,0.3,0.4,0.5c0.1,0.2,0.2,0.4,0.3,0.7
		c0.1,0.2,0.1,0.5,0.1,0.8c0,0.6-0.2,1.1-0.6,1.5C582.4,51.8,581.9,52,581.2,52"/>
	<polygon class="st6" points="584.7,51.9 584.7,44.5 583.2,44.5 583.2,43.3 587.6,43.3 587.6,44.5 586.2,44.5 586.2,51.9 	"/>
	<polygon class="st6" points="587.9,51.9 587.9,43.3 591.5,43.3 591.5,44.4 589.5,44.4 589.5,46.9 591.1,46.9 591.1,48 589.5,48 
		589.5,50.9 591.5,50.9 591.5,51.9 	"/>
	<polygon class="st6" points="592,51.9 592,43.3 593.1,43.3 595.2,48.2 595.2,43.3 596.5,43.3 596.5,51.9 595.4,51.9 593.3,46.8 
		593.3,51.9 	"/>
	<rect x="597.4" y="43.3" class="st6" width="1.5" height="8.6"/>
	<path class="st6" d="M599.8,51.9v-8.6h2.1c0.4,0,0.7,0,1,0.1c0.3,0.1,0.6,0.2,0.8,0.4c0.2,0.2,0.4,0.4,0.5,0.7
		c0.1,0.3,0.2,0.6,0.2,1.1c0,1.1-0.4,1.7-1.3,1.8c0.5,0.1,0.9,0.3,1.1,0.7c0.3,0.3,0.4,0.8,0.4,1.5c0,0.8-0.2,1.4-0.6,1.9
		c-0.4,0.4-1,0.6-1.8,0.6H599.8z M601.4,46.8h0.5c0.5,0,0.8-0.1,0.9-0.3c0.2-0.2,0.3-0.5,0.3-1c0-0.2,0-0.4-0.1-0.6
		c-0.1-0.2-0.2-0.3-0.3-0.3c-0.1-0.1-0.3-0.1-0.4-0.2c-0.2,0-0.4,0-0.7,0h-0.2V46.8z M601.4,50.8h0.6c0.5,0,0.8-0.1,1-0.3
		c0.2-0.2,0.3-0.6,0.3-1.1c0-0.5-0.1-0.9-0.3-1.1c-0.2-0.2-0.5-0.4-1-0.4h-0.5V50.8z"/>
	<polygon class="st6" points="605.3,51.9 605.3,43.3 606.8,43.3 606.8,50.9 608.9,50.9 608.9,51.9 	"/>
	<polygon class="st6" points="609.3,51.9 609.3,43.3 612.9,43.3 612.9,44.4 610.8,44.4 610.8,46.9 612.4,46.9 612.4,48 610.8,48 
		610.8,50.9 612.9,50.9 612.9,51.9 	"/>
	<path class="st6" d="M615.5,52c-1.5,0-2.3-0.9-2.4-2.6l1.4-0.3c0,1.1,0.4,1.7,1,1.7c0.2,0,0.4-0.1,0.5-0.2c0.1-0.1,0.2-0.3,0.2-0.6
		c0-0.2,0-0.5-0.1-0.7c-0.1-0.2-0.2-0.4-0.3-0.5c-0.1-0.1-0.3-0.3-0.5-0.5l-1.1-1c-0.3-0.3-0.6-0.6-0.7-0.9
		c-0.2-0.3-0.2-0.7-0.2-1.2c0-0.7,0.2-1.2,0.6-1.6c0.4-0.4,0.9-0.6,1.6-0.6c0.3,0,0.6,0,0.8,0.1c0.2,0.1,0.4,0.2,0.6,0.3
		c0.2,0.1,0.3,0.3,0.4,0.5c0.1,0.2,0.2,0.4,0.2,0.6c0.1,0.2,0.1,0.5,0.1,0.7l-1.3,0.3c0-0.2,0-0.3,0-0.5c0-0.1,0-0.3-0.1-0.4
		c0-0.1-0.1-0.2-0.1-0.3c-0.1-0.1-0.1-0.1-0.2-0.2c-0.1,0-0.2-0.1-0.4-0.1c-0.2,0-0.4,0.1-0.5,0.2c-0.1,0.1-0.2,0.3-0.2,0.6
		c0,0.3,0.1,0.5,0.2,0.7c0.1,0.2,0.3,0.4,0.5,0.6l1.1,1c0.2,0.2,0.3,0.3,0.5,0.5c0.1,0.2,0.3,0.3,0.4,0.5c0.1,0.2,0.2,0.4,0.3,0.7
		c0.1,0.2,0.1,0.5,0.1,0.8c0,0.6-0.2,1.1-0.6,1.5C616.7,51.8,616.2,52,615.5,52"/>
	<path class="st6" d="M678.1,19.7c-0.2,0.1-0.8,0.3-1.8,0.7c-0.8,0.3-1.3,0.4-1.5,0.5v-3.2c0.6-0.2,1.4-0.6,2.3-1.1
		c0.9-0.5,1.5-1,1.9-1.4h3.4v22.5h-4.3V19.7z"/>
	<path class="st6" d="M684.8,34.7l5.4-8.4l0.3-0.5c0.7-1.1,1.2-1.9,1.6-2.7c0.3-0.7,0.5-1.5,0.5-2.3c0-0.7-0.1-1.3-0.4-1.7
		c-0.3-0.4-0.7-0.6-1.2-0.6c-0.8,0-1.3,0.3-1.6,0.9c-0.3,0.6-0.4,1.4-0.4,2.4v1h-4.2v-1.1c0-2.1,0.5-3.8,1.5-5
		c1-1.2,2.5-1.8,4.7-1.8c1.9,0,3.4,0.5,4.4,1.5c1,1,1.5,2.5,1.5,4.4c0,0.9-0.1,1.7-0.4,2.4c-0.3,0.8-0.6,1.4-0.9,2
		c-0.4,0.6-0.9,1.4-1.6,2.5l-4.3,6.5h6.7v3.4h-11.5V34.7z"/>
	<path class="st6" d="M705.6,23.8v-8.6h2.5c1.5,0,2.2,0.8,2.2,2.4c0,0.8-0.2,1.4-0.6,1.8c-0.4,0.4-1,0.6-1.7,0.6h-0.8v3.8H705.6z
		 M707.1,18.9h0.5c0.4,0,0.7-0.1,0.9-0.3c0.2-0.2,0.2-0.5,0.2-1c0-0.3,0-0.5,0-0.6c0-0.1-0.1-0.3-0.1-0.4c-0.1-0.1-0.2-0.2-0.3-0.2
		c-0.2,0-0.4-0.1-0.6-0.1h-0.5V18.9z"/>
	<path class="st6" d="M710.7,23.8v-8.6h2c0.5,0,0.8,0,1.2,0.1c0.3,0.1,0.6,0.2,0.8,0.4c0.2,0.2,0.4,0.4,0.5,0.7
		c0.1,0.3,0.2,0.7,0.2,1.1c0,0.5-0.1,1-0.2,1.3c-0.2,0.3-0.4,0.6-0.8,0.7l1.2,4.2H714l-1-3.9h-0.7v3.9H710.7z M712.3,18.9h0.4
		c0.5,0,0.8-0.1,1-0.3c0.2-0.2,0.3-0.5,0.3-1c0-0.5-0.1-0.8-0.3-1c-0.2-0.2-0.5-0.3-0.9-0.3h-0.5V18.9z"/>
	<path class="st6" d="M718.7,23.9c-0.9,0-1.5-0.2-1.9-0.7c-0.4-0.5-0.6-1.2-0.6-2.1v-3.2c0-0.5,0-0.9,0.1-1.2
		c0.1-0.3,0.2-0.6,0.4-0.9c0.2-0.2,0.4-0.4,0.8-0.6c0.3-0.1,0.7-0.2,1.2-0.2c0.9,0,1.5,0.2,1.9,0.7c0.4,0.5,0.6,1.2,0.6,2.1v3.2
		c0,0.4,0,0.8-0.1,1.2c-0.1,0.3-0.2,0.6-0.4,0.9c-0.2,0.3-0.4,0.4-0.8,0.6C719.5,23.9,719.1,23.9,718.7,23.9 M718.3,22.7
		c0.1,0,0.2,0.1,0.4,0.1c0.2,0,0.3,0,0.4-0.1c0.1,0,0.2-0.1,0.3-0.2c0.1-0.1,0.1-0.2,0.2-0.3c0-0.1,0.1-0.2,0.1-0.4
		c0-0.1,0-0.3,0-0.4v-3.9c0-0.2,0-0.4,0-0.5c0-0.1-0.1-0.3-0.1-0.4c-0.1-0.1-0.2-0.2-0.3-0.3c-0.1-0.1-0.3-0.1-0.5-0.1
		c-0.2,0-0.3,0-0.5,0.1c-0.1,0.1-0.2,0.2-0.3,0.3c-0.1,0.1-0.1,0.3-0.1,0.4c0,0.1,0,0.3,0,0.5v3.9c0,0.2,0,0.3,0,0.4
		c0,0.1,0,0.2,0.1,0.4c0,0.1,0.1,0.2,0.1,0.3C718.1,22.6,718.2,22.7,718.3,22.7"/>
	<path class="st6" d="M722,23.8v-8.6h2c0.5,0,1,0.1,1.3,0.2c0.3,0.1,0.6,0.3,0.8,0.5c0.2,0.2,0.4,0.5,0.4,0.8
		c0.1,0.3,0.1,0.7,0.1,1.2V21c0,0.5,0,0.9-0.1,1.2c-0.1,0.3-0.2,0.6-0.4,0.9c-0.2,0.2-0.5,0.4-0.8,0.5c-0.3,0.1-0.8,0.2-1.3,0.2H722
		z M723.5,22.7h0.4c0.2,0,0.3,0,0.4,0c0.1,0,0.2-0.1,0.3-0.1c0.1,0,0.1-0.1,0.2-0.2c0.1-0.1,0.1-0.2,0.1-0.2c0-0.1,0-0.2,0.1-0.3
		c0-0.1,0-0.3,0-0.4c0-0.1,0-0.3,0-0.5v-3.1c0-0.2,0-0.4,0-0.5c0-0.1,0-0.3,0-0.4c0-0.1-0.1-0.2-0.1-0.3s-0.1-0.1-0.2-0.2
		c-0.1-0.1-0.2-0.1-0.3-0.1c-0.1,0-0.3,0-0.5,0h-0.4V22.7z"/>
	<path class="st6" d="M729.9,23.9c-0.4,0-0.7,0-1-0.1s-0.5-0.2-0.7-0.4c-0.2-0.2-0.3-0.4-0.4-0.6c-0.1-0.3-0.2-0.5-0.2-0.8
		c0-0.3-0.1-0.6-0.1-1v-5.7h1.5v5.9c0,0.2,0,0.4,0,0.5c0,0.1,0,0.3,0.1,0.4c0,0.2,0.1,0.3,0.1,0.4c0.1,0.1,0.2,0.2,0.3,0.2
		c0.1,0.1,0.2,0.1,0.4,0.1s0.3,0,0.4-0.1c0.1-0.1,0.2-0.1,0.3-0.2c0.1-0.1,0.1-0.2,0.1-0.4c0-0.2,0.1-0.3,0.1-0.4c0-0.1,0-0.3,0-0.5
		v-5.9h1.5v5.7c0,0.4,0,0.7-0.1,1c0,0.3-0.1,0.6-0.2,0.8c-0.1,0.3-0.3,0.5-0.4,0.6c-0.2,0.2-0.4,0.3-0.7,0.4S730.3,23.9,729.9,23.9"
		/>
	<path class="st6" d="M735.5,23.9c-0.4,0-0.7,0-1-0.1c-0.3-0.1-0.5-0.2-0.7-0.4c-0.2-0.2-0.3-0.4-0.5-0.6c-0.1-0.2-0.2-0.5-0.2-0.8
		c0-0.3-0.1-0.6-0.1-1v-3c0-0.4,0-0.7,0.1-1c0-0.3,0.1-0.6,0.2-0.8c0.1-0.2,0.3-0.5,0.4-0.6c0.2-0.2,0.4-0.3,0.7-0.4
		c0.3-0.1,0.6-0.1,1-0.1c0.4,0,0.8,0.1,1.1,0.2c0.3,0.1,0.5,0.3,0.7,0.5c0.2,0.2,0.3,0.5,0.4,0.8c0.1,0.3,0.1,0.6,0.1,1v0.7h-1.5
		v-0.7c0-0.4,0-0.7-0.1-0.9c-0.1-0.3-0.3-0.4-0.7-0.5h-0.1c-0.1,0-0.2,0-0.3,0c-0.1,0-0.2,0.1-0.2,0.1c-0.1,0.1-0.1,0.1-0.2,0.2
		c0,0.1-0.1,0.2-0.1,0.3c0,0.1,0,0.2,0,0.3c0,0.1,0,0.2,0,0.4v3.6c0,0.5,0.1,0.9,0.2,1.1c0.1,0.2,0.4,0.3,0.7,0.3c0.1,0,0.2,0,0.3,0
		c0.1,0,0.2-0.1,0.2-0.1c0.1,0,0.1-0.1,0.1-0.2s0.1-0.1,0.1-0.2c0-0.1,0-0.2,0-0.3c0-0.1,0-0.2,0-0.3c0-0.1,0-0.2,0-0.3v-0.8h1.5
		v0.7c0,0.3,0,0.6-0.1,0.9c0,0.3-0.1,0.5-0.2,0.7c-0.1,0.2-0.2,0.4-0.4,0.6c-0.2,0.1-0.4,0.3-0.7,0.4
		C736.2,23.9,735.8,23.9,735.5,23.9"/>
	<path class="st6" d="M740.9,23.9c-0.4,0-0.7,0-1-0.1c-0.3-0.1-0.5-0.2-0.7-0.4c-0.2-0.2-0.3-0.4-0.5-0.6c-0.1-0.2-0.2-0.5-0.2-0.8
		c0-0.3-0.1-0.6-0.1-1v-3c0-0.4,0-0.7,0.1-1c0-0.3,0.1-0.6,0.2-0.8c0.1-0.2,0.3-0.5,0.4-0.6c0.2-0.2,0.4-0.3,0.7-0.4
		c0.3-0.1,0.6-0.1,1-0.1c0.4,0,0.8,0.1,1.1,0.2c0.3,0.1,0.5,0.3,0.7,0.5c0.2,0.2,0.3,0.5,0.4,0.8c0.1,0.3,0.1,0.6,0.1,1v0.7h-1.5
		v-0.7c0-0.4,0-0.7-0.1-0.9c-0.1-0.3-0.3-0.4-0.7-0.5h-0.1c-0.1,0-0.2,0-0.3,0c-0.1,0-0.2,0.1-0.2,0.1c-0.1,0.1-0.1,0.1-0.2,0.2
		c0,0.1-0.1,0.2-0.1,0.3c0,0.1,0,0.2,0,0.3c0,0.1,0,0.2,0,0.4v3.6c0,0.5,0.1,0.9,0.2,1.1c0.1,0.2,0.4,0.3,0.7,0.3c0.1,0,0.2,0,0.3,0
		c0.1,0,0.2-0.1,0.2-0.1c0.1,0,0.1-0.1,0.1-0.2c0-0.1,0.1-0.1,0.1-0.2c0-0.1,0-0.2,0-0.3c0-0.1,0-0.2,0-0.3c0-0.1,0-0.2,0-0.3v-0.8
		h1.5v0.7c0,0.3,0,0.6-0.1,0.9c0,0.3-0.1,0.5-0.2,0.7c-0.1,0.2-0.3,0.4-0.4,0.6c-0.2,0.1-0.4,0.3-0.7,0.4
		C741.6,23.9,741.2,23.9,740.9,23.9"/>
	<rect x="744" y="15.2" class="st6" width="1.5" height="8.6"/>
	<path class="st6" d="M748.9,23.9c-0.9,0-1.5-0.2-1.9-0.7c-0.4-0.5-0.6-1.2-0.6-2.1v-3.2c0-0.5,0-0.9,0.1-1.2
		c0.1-0.3,0.2-0.6,0.4-0.9c0.2-0.2,0.4-0.4,0.8-0.6c0.3-0.1,0.7-0.2,1.2-0.2c0.9,0,1.5,0.2,1.9,0.7c0.4,0.5,0.6,1.2,0.6,2.1v3.2
		c0,0.4,0,0.8-0.1,1.2c-0.1,0.3-0.2,0.6-0.4,0.9c-0.2,0.3-0.4,0.4-0.8,0.6C749.7,23.9,749.4,23.9,748.9,23.9 M748.5,22.7
		c0.1,0,0.2,0.1,0.4,0.1c0.2,0,0.3,0,0.4-0.1c0.1,0,0.2-0.1,0.3-0.2c0.1-0.1,0.1-0.2,0.2-0.3c0-0.1,0.1-0.2,0.1-0.4
		c0-0.1,0-0.3,0-0.4v-3.9c0-0.2,0-0.4,0-0.5c0-0.1-0.1-0.3-0.1-0.4c-0.1-0.1-0.2-0.2-0.3-0.3c-0.1-0.1-0.3-0.1-0.5-0.1
		c-0.2,0-0.3,0-0.5,0.1c-0.1,0.1-0.2,0.2-0.3,0.3c-0.1,0.1-0.1,0.3-0.1,0.4c0,0.1,0,0.3,0,0.5v3.9c0,0.2,0,0.3,0,0.4
		c0,0.1,0,0.2,0.1,0.4c0,0.1,0.1,0.2,0.1,0.3C748.3,22.6,748.4,22.7,748.5,22.7 M748.5,14.5l0.6-2.1h1.5l-1.3,2.1H748.5z"/>
	<polygon class="st6" points="752.3,23.8 752.3,15.2 753.3,15.2 755.4,20.1 755.4,15.2 756.7,15.2 756.7,23.8 755.7,23.8 
		753.6,18.7 753.6,23.8 	"/>
	<polygon class="st6" points="706.8,37.9 706.8,34.6 705,29.3 706.5,29.3 707.5,32.7 708.6,29.3 710,29.3 708.3,34.6 708.3,37.9 	
		"/>
	<path class="st6" d="M715,38c-0.4,0-0.7,0-1-0.1c-0.3-0.1-0.5-0.2-0.7-0.4c-0.2-0.2-0.3-0.4-0.5-0.6c-0.1-0.2-0.2-0.5-0.2-0.8
		c0-0.3-0.1-0.6-0.1-1v-3c0-0.4,0-0.7,0.1-1c0-0.3,0.1-0.6,0.2-0.8c0.1-0.2,0.3-0.5,0.4-0.6c0.2-0.2,0.4-0.3,0.7-0.4
		c0.3-0.1,0.6-0.1,1-0.1c0.4,0,0.8,0.1,1.1,0.2c0.3,0.1,0.5,0.3,0.7,0.5c0.2,0.2,0.3,0.5,0.4,0.8c0.1,0.3,0.1,0.6,0.1,1v0.7h-1.5
		v-0.7c0-0.4,0-0.7-0.1-0.9c-0.1-0.3-0.3-0.4-0.7-0.5H715c-0.1,0-0.2,0-0.3,0c-0.1,0-0.2,0.1-0.2,0.1c-0.1,0.1-0.1,0.1-0.2,0.2
		c0,0.1-0.1,0.2-0.1,0.3c0,0.1,0,0.2,0,0.3c0,0.1,0,0.2,0,0.4v3.6c0,0.5,0.1,0.9,0.2,1.1c0.1,0.2,0.4,0.3,0.7,0.3c0.1,0,0.2,0,0.3,0
		c0.1,0,0.2-0.1,0.2-0.1c0.1,0,0.1-0.1,0.1-0.2c0-0.1,0.1-0.1,0.1-0.2c0-0.1,0-0.2,0-0.3c0-0.1,0-0.2,0-0.3c0-0.1,0-0.2,0-0.3v-0.8
		h1.5v0.7c0,0.3,0,0.6-0.1,0.9c0,0.3-0.1,0.5-0.2,0.7c-0.1,0.2-0.3,0.4-0.4,0.6c-0.2,0.2-0.4,0.3-0.7,0.4S715.4,38,715,38"/>
	<path class="st6" d="M720.4,38c-0.9,0-1.5-0.2-1.9-0.7c-0.4-0.5-0.6-1.2-0.6-2.1V32c0-0.5,0-0.9,0.1-1.2c0.1-0.3,0.2-0.6,0.4-0.9
		c0.2-0.2,0.4-0.4,0.8-0.6c0.3-0.1,0.7-0.2,1.2-0.2c0.9,0,1.5,0.2,1.9,0.7c0.4,0.5,0.6,1.2,0.6,2.1v3.2c0,0.4,0,0.8-0.1,1.2
		c-0.1,0.3-0.2,0.6-0.4,0.9c-0.2,0.3-0.4,0.4-0.8,0.6C721.3,37.9,720.9,38,720.4,38 M720,36.8c0.1,0,0.2,0.1,0.4,0.1
		c0.2,0,0.3,0,0.4-0.1c0.1,0,0.2-0.1,0.3-0.2c0.1-0.1,0.1-0.2,0.2-0.3c0-0.1,0.1-0.2,0.1-0.4c0-0.1,0-0.3,0-0.4v-3.9
		c0-0.2,0-0.4,0-0.5c0-0.1-0.1-0.3-0.1-0.4c-0.1-0.1-0.2-0.2-0.3-0.3c-0.1-0.1-0.3-0.1-0.5-0.1c-0.2,0-0.3,0-0.5,0.1
		c-0.1,0.1-0.2,0.2-0.3,0.3c-0.1,0.1-0.1,0.3-0.1,0.4c0,0.1,0,0.3,0,0.5v3.9c0,0.2,0,0.3,0,0.4c0,0.1,0,0.2,0.1,0.4
		c0,0.1,0.1,0.2,0.1,0.3C719.9,36.7,719.9,36.7,720,36.8"/>
	<polygon class="st6" points="723.7,37.9 723.7,29.3 724.8,29.3 726.9,34.2 726.9,29.3 728.2,29.3 728.2,37.9 727.2,37.9 
		725.1,32.8 725.1,37.9 	"/>
	<path class="st6" d="M731.4,38c-1.5,0-2.3-0.9-2.4-2.6l1.4-0.3c0,1.1,0.4,1.7,1,1.7c0.2,0,0.4-0.1,0.5-0.2c0.1-0.1,0.2-0.3,0.2-0.6
		c0-0.2,0-0.5-0.1-0.7c-0.1-0.2-0.2-0.4-0.3-0.5c-0.1-0.1-0.3-0.3-0.5-0.5l-1.1-1c-0.3-0.3-0.6-0.6-0.7-0.9
		c-0.2-0.3-0.2-0.7-0.2-1.2c0-0.7,0.2-1.2,0.6-1.6c0.4-0.4,0.9-0.6,1.6-0.6c0.3,0,0.6,0,0.8,0.1c0.2,0.1,0.4,0.2,0.6,0.3
		c0.2,0.1,0.3,0.3,0.4,0.5c0.1,0.2,0.2,0.4,0.2,0.6c0.1,0.2,0.1,0.5,0.1,0.7l-1.3,0.3c0-0.2,0-0.3,0-0.5c0-0.1,0-0.3-0.1-0.4
		c0-0.1-0.1-0.2-0.1-0.3c-0.1-0.1-0.1-0.1-0.2-0.2c-0.1,0-0.2-0.1-0.4-0.1c-0.2,0-0.4,0.1-0.5,0.2c-0.1,0.1-0.2,0.3-0.2,0.6
		c0,0.3,0.1,0.5,0.2,0.7c0.1,0.2,0.3,0.4,0.5,0.6l1.1,1c0.2,0.2,0.3,0.3,0.5,0.5c0.1,0.2,0.3,0.3,0.4,0.5c0.1,0.2,0.2,0.4,0.3,0.7
		c0.1,0.2,0.1,0.5,0.1,0.8c0,0.6-0.2,1.1-0.6,1.5C732.5,37.8,732,38,731.4,38"/>
	<path class="st6" d="M736.5,38c-0.4,0-0.7,0-1-0.1c-0.3-0.1-0.5-0.2-0.7-0.4c-0.2-0.2-0.3-0.4-0.4-0.6c-0.1-0.3-0.2-0.5-0.2-0.8
		c0-0.3-0.1-0.6-0.1-1v-5.7h1.5v5.9c0,0.2,0,0.4,0,0.5c0,0.1,0,0.3,0.1,0.4c0,0.2,0.1,0.3,0.1,0.4c0.1,0.1,0.2,0.2,0.3,0.2
		c0.1,0.1,0.2,0.1,0.4,0.1c0.2,0,0.3,0,0.4-0.1c0.1-0.1,0.2-0.1,0.3-0.2c0.1-0.1,0.1-0.2,0.1-0.4c0-0.2,0.1-0.3,0.1-0.4
		c0-0.1,0-0.3,0-0.5v-5.9h1.5V35c0,0.4,0,0.7-0.1,1c0,0.3-0.1,0.6-0.2,0.8c-0.1,0.3-0.3,0.5-0.4,0.6c-0.2,0.2-0.4,0.3-0.7,0.4
		C737.2,37.9,736.8,38,736.5,38"/>
	<polygon class="st6" points="739.8,37.9 739.9,29.3 741.5,29.3 742.8,35.3 744,29.3 745.6,29.3 745.8,37.9 744.6,37.9 744.5,32 
		743.2,37.9 742.3,37.9 741.1,31.9 741,37.9 	"/>
	<path class="st6" d="M749,38c-0.9,0-1.5-0.2-1.9-0.7c-0.4-0.5-0.6-1.2-0.6-2.1V32c0-0.5,0-0.9,0.1-1.2c0.1-0.3,0.2-0.6,0.4-0.9
		c0.2-0.2,0.4-0.4,0.8-0.6c0.3-0.1,0.7-0.2,1.2-0.2c0.9,0,1.5,0.2,1.9,0.7c0.4,0.5,0.6,1.2,0.6,2.1v3.2c0,0.4,0,0.8-0.1,1.2
		c-0.1,0.3-0.2,0.6-0.4,0.9c-0.2,0.3-0.4,0.4-0.8,0.6C749.9,37.9,749.5,38,749,38 M748.6,36.8c0.1,0,0.2,0.1,0.4,0.1
		c0.2,0,0.3,0,0.4-0.1c0.1,0,0.2-0.1,0.3-0.2c0.1-0.1,0.1-0.2,0.2-0.3c0-0.1,0.1-0.2,0.1-0.4c0-0.1,0-0.3,0-0.4v-3.9
		c0-0.2,0-0.4,0-0.5c0-0.1-0.1-0.3-0.1-0.4c-0.1-0.1-0.2-0.2-0.3-0.3c-0.1-0.1-0.3-0.1-0.5-0.1s-0.3,0-0.5,0.1
		c-0.1,0.1-0.2,0.2-0.3,0.3c-0.1,0.1-0.1,0.3-0.1,0.4c0,0.1,0,0.3,0,0.5v3.9c0,0.2,0,0.3,0,0.4c0,0.1,0,0.2,0.1,0.4
		c0,0.1,0.1,0.2,0.1,0.3C748.5,36.7,748.5,36.7,748.6,36.8"/>
	<path class="st6" d="M705.6,51.9v-8.6h2c0.5,0,0.8,0,1.2,0.1c0.3,0.1,0.6,0.2,0.8,0.4c0.2,0.2,0.4,0.4,0.5,0.7
		c0.1,0.3,0.2,0.7,0.2,1.1c0,0.5-0.1,1-0.2,1.3c-0.2,0.3-0.4,0.6-0.8,0.7l1.2,4.2h-1.6l-1-3.9h-0.7v3.9H705.6z M707.1,47h0.4
		c0.5,0,0.8-0.1,1-0.3c0.2-0.2,0.3-0.5,0.3-1c0-0.5-0.1-0.8-0.3-1c-0.2-0.2-0.5-0.3-0.9-0.3h-0.5V47z"/>
	<polygon class="st6" points="711.1,51.9 711.1,43.3 714.7,43.3 714.7,44.4 712.7,44.4 712.7,46.9 714.3,46.9 714.3,48 712.7,48 
		712.7,50.9 714.8,50.9 714.8,51.9 	"/>
	<path class="st6" d="M717.5,52c-1.5,0-2.3-0.9-2.4-2.6l1.4-0.3c0,1.1,0.4,1.7,1,1.7c0.2,0,0.4-0.1,0.5-0.2c0.1-0.1,0.2-0.3,0.2-0.6
		c0-0.2,0-0.5-0.1-0.7c-0.1-0.2-0.2-0.4-0.3-0.5c-0.1-0.1-0.3-0.3-0.5-0.5l-1.1-1c-0.3-0.3-0.6-0.6-0.7-0.9
		c-0.2-0.3-0.2-0.7-0.2-1.2c0-0.7,0.2-1.2,0.6-1.6c0.4-0.4,0.9-0.6,1.6-0.6c0.3,0,0.6,0,0.8,0.1c0.2,0.1,0.4,0.2,0.6,0.3
		c0.2,0.1,0.3,0.3,0.4,0.5c0.1,0.2,0.2,0.4,0.2,0.6c0.1,0.2,0.1,0.5,0.1,0.7l-1.3,0.3c0-0.2,0-0.3,0-0.5c0-0.1,0-0.3-0.1-0.4
		c0-0.1-0.1-0.2-0.1-0.3c-0.1-0.1-0.1-0.1-0.2-0.2c-0.1,0-0.2-0.1-0.4-0.1c-0.2,0-0.4,0.1-0.5,0.2c-0.1,0.1-0.2,0.3-0.2,0.6
		c0,0.3,0.1,0.5,0.2,0.7c0.1,0.2,0.3,0.4,0.5,0.6l1.1,1c0.2,0.2,0.3,0.3,0.5,0.5c0.1,0.2,0.3,0.3,0.4,0.5c0.1,0.2,0.2,0.4,0.3,0.7
		c0.1,0.2,0.1,0.5,0.1,0.8c0,0.6-0.2,1.1-0.6,1.5C718.7,51.8,718.2,52,717.5,52"/>
	<path class="st6" d="M720.3,51.9v-8.6h2.5c1.5,0,2.2,0.8,2.2,2.4c0,0.8-0.2,1.4-0.6,1.8c-0.4,0.4-1,0.6-1.7,0.6h-0.8v3.8H720.3z
		 M721.8,47h0.5c0.4,0,0.7-0.1,0.9-0.3c0.2-0.2,0.2-0.5,0.2-1c0-0.3,0-0.5,0-0.6c0-0.1-0.1-0.3-0.1-0.4c-0.1-0.1-0.2-0.2-0.3-0.2
		c-0.2,0-0.4-0.1-0.6-0.1h-0.5V47z"/>
	<path class="st6" d="M727.8,52c-0.9,0-1.5-0.2-1.9-0.7c-0.4-0.5-0.6-1.2-0.6-2.1V46c0-0.5,0-0.9,0.1-1.2c0.1-0.3,0.2-0.6,0.4-0.9
		c0.2-0.2,0.4-0.4,0.8-0.6c0.3-0.1,0.7-0.2,1.2-0.2c0.9,0,1.5,0.2,1.9,0.7c0.4,0.5,0.6,1.2,0.6,2.1v3.2c0,0.4,0,0.8-0.1,1.2
		c-0.1,0.3-0.2,0.6-0.4,0.9c-0.2,0.3-0.4,0.4-0.8,0.6C728.6,52,728.2,52,727.8,52 M727.4,50.8c0.1,0,0.2,0.1,0.4,0.1
		c0.2,0,0.3,0,0.4-0.1c0.1,0,0.2-0.1,0.3-0.2c0.1-0.1,0.1-0.2,0.2-0.3c0-0.1,0.1-0.2,0.1-0.4c0-0.1,0-0.3,0-0.4v-3.9
		c0-0.2,0-0.4,0-0.5c0-0.1-0.1-0.3-0.1-0.4c-0.1-0.1-0.2-0.2-0.3-0.3c-0.1-0.1-0.3-0.1-0.5-0.1c-0.2,0-0.3,0-0.5,0.1
		c-0.1,0.1-0.2,0.2-0.3,0.3c-0.1,0.1-0.1,0.3-0.1,0.4c0,0.1,0,0.3,0,0.5v3.9c0,0.2,0,0.3,0,0.4c0,0.1,0,0.2,0.1,0.4
		c0,0.1,0.1,0.2,0.1,0.3C727.2,50.7,727.3,50.8,727.4,50.8"/>
	<polygon class="st6" points="731.1,51.9 731.1,43.3 732.2,43.3 734.3,48.2 734.3,43.3 735.6,43.3 735.6,51.9 734.5,51.9 
		732.4,46.8 732.4,51.9 	"/>
	<path class="st6" d="M738.7,52c-1.5,0-2.3-0.9-2.4-2.6l1.4-0.3c0,1.1,0.4,1.7,1,1.7c0.2,0,0.4-0.1,0.5-0.2c0.1-0.1,0.2-0.3,0.2-0.6
		c0-0.2,0-0.5-0.1-0.7c-0.1-0.2-0.2-0.4-0.3-0.5c-0.1-0.1-0.3-0.3-0.5-0.5l-1.1-1c-0.3-0.3-0.6-0.6-0.7-0.9
		c-0.2-0.3-0.2-0.7-0.2-1.2c0-0.7,0.2-1.2,0.6-1.6c0.4-0.4,0.9-0.6,1.6-0.6c0.3,0,0.6,0,0.8,0.1c0.2,0.1,0.4,0.2,0.6,0.3
		c0.2,0.1,0.3,0.3,0.4,0.5c0.1,0.2,0.2,0.4,0.2,0.6c0.1,0.2,0.1,0.5,0.1,0.7l-1.3,0.3c0-0.2,0-0.3,0-0.5c0-0.1,0-0.3-0.1-0.4
		c0-0.1-0.1-0.2-0.1-0.3c-0.1-0.1-0.1-0.1-0.2-0.2c-0.1,0-0.2-0.1-0.4-0.1c-0.2,0-0.4,0.1-0.5,0.2c-0.1,0.1-0.2,0.3-0.2,0.6
		c0,0.3,0.1,0.5,0.2,0.7c0.1,0.2,0.3,0.4,0.5,0.6l1.1,1c0.2,0.2,0.3,0.3,0.5,0.5c0.1,0.2,0.3,0.3,0.4,0.5c0.1,0.2,0.2,0.4,0.3,0.7
		c0.1,0.2,0.1,0.5,0.1,0.8c0,0.6-0.2,1.1-0.6,1.5C739.9,51.8,739.3,52,738.7,52"/>
	<path class="st6" d="M741,51.9l1.7-8.6h1.6l1.7,8.6h-1.5l-0.3-2h-1.5l-0.4,2H741z M743,48.9h1.2l-0.6-3.5L743,48.9z"/>
	<path class="st6" d="M746.7,51.9v-8.6h2.1c0.4,0,0.7,0,1,0.1c0.3,0.1,0.6,0.2,0.8,0.4c0.2,0.2,0.4,0.4,0.5,0.7
		c0.1,0.3,0.2,0.6,0.2,1.1c0,1.1-0.4,1.7-1.3,1.8c0.5,0.1,0.9,0.3,1.1,0.7c0.3,0.3,0.4,0.8,0.4,1.5c0,0.8-0.2,1.4-0.6,1.9
		c-0.4,0.4-1,0.6-1.8,0.6H746.7z M748.2,46.8h0.5c0.5,0,0.8-0.1,0.9-0.3c0.2-0.2,0.3-0.5,0.3-1c0-0.2,0-0.4-0.1-0.6
		c-0.1-0.2-0.2-0.3-0.3-0.3c-0.1-0.1-0.3-0.1-0.4-0.2c-0.2,0-0.4,0-0.7,0h-0.2V46.8z M748.2,50.8h0.6c0.5,0,0.8-0.1,1-0.3
		c0.2-0.2,0.3-0.6,0.3-1.1c0-0.5-0.1-0.9-0.3-1.1c-0.2-0.2-0.5-0.4-1-0.4h-0.5V50.8z"/>
	<polygon class="st6" points="752.2,51.9 752.2,43.3 753.8,43.3 753.8,50.9 755.9,50.9 755.9,51.9 	"/>
	<polygon class="st6" points="756.4,51.9 756.4,43.3 760,43.3 760,44.4 757.9,44.4 757.9,46.9 759.5,46.9 759.5,48 757.9,48 
		757.9,50.9 760,50.9 760,51.9 	"/>
	<path class="st6" d="M762.7,52c-1.5,0-2.3-0.9-2.4-2.6l1.4-0.3c0,1.1,0.4,1.7,1,1.7c0.2,0,0.4-0.1,0.5-0.2c0.1-0.1,0.2-0.3,0.2-0.6
		c0-0.2,0-0.5-0.1-0.7c-0.1-0.2-0.2-0.4-0.3-0.5c-0.1-0.1-0.3-0.3-0.5-0.5l-1.1-1c-0.3-0.3-0.6-0.6-0.7-0.9
		c-0.2-0.3-0.2-0.7-0.2-1.2c0-0.7,0.2-1.2,0.6-1.6c0.4-0.4,0.9-0.6,1.6-0.6c0.3,0,0.6,0,0.8,0.1c0.2,0.1,0.4,0.2,0.6,0.3
		c0.2,0.1,0.3,0.3,0.4,0.5c0.1,0.2,0.2,0.4,0.2,0.6c0.1,0.2,0.1,0.5,0.1,0.7l-1.3,0.3c0-0.2,0-0.3,0-0.5c0-0.1,0-0.3-0.1-0.4
		c0-0.1-0.1-0.2-0.1-0.3c-0.1-0.1-0.1-0.1-0.2-0.2c-0.1,0-0.2-0.1-0.4-0.1c-0.2,0-0.4,0.1-0.5,0.2c-0.1,0.1-0.2,0.3-0.2,0.6
		c0,0.3,0.1,0.5,0.2,0.7c0.1,0.2,0.3,0.4,0.5,0.6l1.1,1c0.2,0.2,0.3,0.3,0.5,0.5c0.1,0.2,0.3,0.3,0.4,0.5c0.1,0.2,0.2,0.4,0.3,0.7
		c0.1,0.2,0.1,0.5,0.1,0.8c0,0.6-0.2,1.1-0.6,1.5C763.9,51.8,763.4,52,762.7,52"/>
	<path class="st6" d="M66,69.5c-8.2,0-14.8,6.6-14.8,14.8c0,8.2,6.6,14.8,14.8,14.8s14.8-6.6,14.8-14.8C80.8,76.1,74.2,69.5,66,69.5
		 M64.9,75.3c0-0.5,0.5-1,1.1-1s1.1,0.5,1.1,1v5.1c0,0.5-0.5,1-1.1,1s-1.1-0.5-1.1-1V75.3z M66,91.9c-4.3,0-7.7-3.4-7.7-7.7
		c0-3.5,2.3-6.4,5.4-7.4v2.9c-1.6,0.8-2.8,2.5-2.8,4.5c0,2.8,2.3,5,5,5c2.8,0,5-2.3,5-5c0-2-1.1-3.7-2.8-4.5v-2.9
		c3.1,1,5.4,3.9,5.4,7.4C73.7,88.4,70.3,91.9,66,91.9"/>
	<path class="st6" d="M49,84.2c0-0.7-0.6-1.2-1.1-1.2h-6.5c-0.5,0-1.1,0.5-1.1,1.2c0,0.7,0.6,1.2,1.1,1.2h6.5
		C48.4,85.4,49,84.8,49,84.2"/>
	<path class="st6" d="M91.8,84.2c0-0.7-0.6-1.2-1.1-1.2h-6.5c-0.5,0-1.1,0.5-1.1,1.2c0,0.7,0.6,1.2,1.1,1.2h6.5
		C91.2,85.4,91.8,84.8,91.8,84.2"/>
	<path class="st6" d="M66,109.9c0.7,0,1.2-0.6,1.2-1.1v-6.5c0-0.5-0.5-1.1-1.2-1.1c-0.7,0-1.2,0.6-1.2,1.1v6.5
		C64.8,109.3,65.4,109.9,66,109.9"/>
	<path class="st6" d="M88.4,97c0.3-0.6,0.1-1.3-0.4-1.6l-5.6-3.2c-0.5-0.3-1.3-0.1-1.6,0.5c-0.3,0.6-0.1,1.4,0.4,1.6l5.6,3.2
		C87.3,97.7,88.1,97.5,88.4,97"/>
	<path class="st6" d="M53.2,106.5c0.6,0.3,1.3,0.1,1.6-0.4l3.2-5.6c0.3-0.5,0.1-1.3-0.5-1.6c-0.6-0.3-1.4-0.1-1.6,0.4l-3.2,5.6
		C52.5,105.4,52.7,106.2,53.2,106.5"/>
	<path class="st6" d="M78.9,106.5c0.6-0.3,0.8-1.1,0.5-1.6l-3.2-5.6c-0.3-0.5-1-0.7-1.6-0.4c-0.6,0.3-0.8,1.1-0.5,1.6l3.2,5.6
		C77.5,106.6,78.3,106.8,78.9,106.5"/>
	<path class="st6" d="M43.7,97c0.3,0.6,1.1,0.8,1.6,0.5l5.6-3.2c0.5-0.3,0.7-1,0.4-1.6c-0.3-0.6-1.1-0.8-1.6-0.5l-5.6,3.2
		C43.6,95.7,43.4,96.4,43.7,97"/>
	<path class="st6" d="M66,67.2c0.7,0,1.2-0.6,1.2-1.1v-6.5c0-0.5-0.5-1.1-1.2-1.1c-0.7,0-1.2,0.6-1.2,1.1V66
		C64.8,66.6,65.4,67.2,66,67.2"/>
	<path class="st6" d="M51.3,75.7c0.3-0.6,0.1-1.3-0.4-1.6l-5.6-3.2c-0.5-0.3-1.3-0.1-1.6,0.5c-0.3,0.6-0.1,1.4,0.4,1.6l5.6,3.2
		C50.2,76.5,51,76.3,51.3,75.7"/>
	<path class="st6" d="M74.5,69.4c0.6,0.3,1.3,0.1,1.6-0.4l3.2-5.6c0.3-0.5,0.1-1.3-0.5-1.6c-0.6-0.3-1.4-0.1-1.6,0.4L74,67.8
		C73.7,68.3,73.9,69.1,74.5,69.4"/>
	<path class="st6" d="M57.6,69.4c0.6-0.3,0.8-1.1,0.5-1.6l-3.2-5.6c-0.3-0.5-1-0.7-1.6-0.4c-0.6,0.3-0.8,1.1-0.5,1.6l3.2,5.6
		C56.2,69.5,57,69.8,57.6,69.4"/>
	<path class="st6" d="M80.8,75.7c0.3,0.6,1.1,0.8,1.6,0.5L88,73c0.5-0.3,0.7-1,0.4-1.6c-0.3-0.6-1.1-0.8-1.6-0.5l-5.6,3.2
		C80.7,74.3,80.4,75.1,80.8,75.7"/>
	<path class="st6" d="M217,70.4L206.9,80c-0.4,0.4-0.6,0.7-0.6,1.4v27c0,0.3,0.3,0.6,0.6,0.6h10.5c0.3,0,0.6-0.3,0.6-0.6V70.6
		C217.9,70.3,217.7,69.7,217,70.4"/>
	<path class="st6" d="M187.8,82.9l-10.1,9.6c-0.4,0.4-0.6,0.7-0.6,1.4v14.4c0,0.3,0.3,0.6,0.6,0.6h10.5c0.3,0,0.6-0.3,0.6-0.6V83.2
		C188.8,82.9,188.5,82.3,187.8,82.9"/>
	<path class="st6" d="M221.6,58.7c0-0.1,0-0.2-0.1-0.2c-0.1-0.1-0.1-0.1-0.2-0.1l-0.1,0l-0.1,0l-7.7,1.7l-0.1,0
		c-0.1,0-0.1,0-0.2,0.1c-0.1,0.1-0.1,0.3,0,0.4l0.1,0.1l1.8,1.8l-17.6,17.6l-8.1-8.1c-0.1-0.1-0.2-0.1-0.3,0l-2.2,2.2c0,0,0,0,0,0
		l-13,13c-0.1,0.1-0.1,0.2,0,0.3l2.2,2.2c0.1,0.1,0.2,0.1,0.3,0l12.8-12.8l5.9,5.9c0,0,0,0,0,0l2.2,2.2c0.1,0.1,0.2,0.1,0.3,0
		l19.9-19.9l1.9,1.9c0.1,0.1,0.3,0.1,0.4,0c0.1-0.1,0.1-0.1,0.1-0.2l0,0L221.6,58.7L221.6,58.7z"/>
	<path class="st6" d="M202.5,84.6l-4.9,4.9c-0.1,0.1-0.2,0.1-0.3,0l-4.4-4.5c-0.8-0.8-1-0.2-1,0.2v23.2c0,0.3,0.3,0.6,0.6,0.6h10.5
		c0.3,0,0.6-0.3,0.6-0.6V84.8C203.4,84.5,203.2,83.9,202.5,84.6"/>
	<path class="st6" d="M561.4,97.2h0.2h15.2c0.2,0,0.4-0.2,0.4-0.4c0-0.1,0-0.2-0.1-0.3l0,0l-7.6-9.9l-0.1-0.1
		c-0.1-0.1-0.2-0.1-0.3-0.1c-0.1,0-0.2,0-0.2,0.1l0,0.1l-0.1,0.1l-7.5,9.8l-0.1,0.1c0,0.1-0.1,0.1-0.1,0.2
		C561,97.1,561.2,97.2,561.4,97.2"/>
	<path class="st6" d="M576.7,98.6h-15.4c-0.2,0-0.4,0.2-0.4,0.4v12.1c0,0.2,0.2,0.4,0.4,0.4h5v-7.6c0-0.2,0.2-0.4,0.4-0.4h4.6
		c0.2,0,0.4,0.2,0.4,0.4v7.6h5.1c0.2,0,0.4-0.2,0.4-0.4V99C577.1,98.8,576.9,98.6,576.7,98.6"/>
	<path class="st6" d="M630,95.5h-15.2c-0.2,0-0.4,0.2-0.4,0.4v15.4c0,0.2,0.2,0.4,0.4,0.4H630c0.2,0,0.4-0.2,0.4-0.4V95.8
		C630.3,95.6,630.2,95.5,630,95.5 M621.6,105.5c0,0.2-0.2,0.4-0.4,0.4h-4.6c-0.2,0-0.4-0.2-0.4-0.4v-2.8c0-0.2,0.2-0.4,0.4-0.4h4.6
		c0.2,0,0.4,0.2,0.4,0.4V105.5z M621.6,100.4c0,0.2-0.2,0.4-0.4,0.4h-4.6c-0.2,0-0.4-0.2-0.4-0.4v-2.8c0-0.2,0.2-0.4,0.4-0.4h4.6
		c0.2,0,0.4,0.2,0.4,0.4V100.4z M628.6,105.5c0,0.2-0.2,0.4-0.4,0.4h-4.6c-0.2,0-0.4-0.2-0.4-0.4v-2.8c0-0.2,0.2-0.4,0.4-0.4h4.6
		c0.2,0,0.4,0.2,0.4,0.4V105.5z M628.6,100.4c0,0.2-0.2,0.4-0.4,0.4h-4.6c-0.2,0-0.4-0.2-0.4-0.4v-2.8c0-0.2,0.2-0.4,0.4-0.4h4.6
		c0.2,0,0.4,0.2,0.4,0.4V100.4z"/>
	<path class="st6" d="M594.5,59.7h-14.9c-0.2,0-0.4,0.2-0.4,0.4v51c0,0.2,0.2,0.4,0.4,0.4h14.9c0.2,0,0.4-0.2,0.4-0.4v-51
		C594.9,59.9,594.7,59.7,594.5,59.7 M585.7,105.7c0,0.1-0.1,0.2-0.2,0.2H582c-0.1,0-0.2-0.1-0.2-0.2v-3.8c0-0.1,0.1-0.2,0.2-0.2h3.4
		c0.1,0,0.2,0.1,0.2,0.2V105.7z M585.7,96.9c0,0.1-0.1,0.2-0.2,0.2H582c-0.1,0-0.2-0.1-0.2-0.2v-3.8c0-0.1,0.1-0.2,0.2-0.2h3.4
		c0.1,0,0.2,0.1,0.2,0.2V96.9z M585.7,88.2c0,0.1-0.1,0.2-0.2,0.2H582c-0.1,0-0.2-0.1-0.2-0.2v-3.8c0-0.1,0.1-0.2,0.2-0.2h3.4
		c0.1,0,0.2,0.1,0.2,0.2V88.2z M585.7,79.4c0,0.1-0.1,0.2-0.2,0.2H582c-0.1,0-0.2-0.1-0.2-0.2v-3.8c0-0.1,0.1-0.2,0.2-0.2h3.4
		c0.1,0,0.2,0.1,0.2,0.2V79.4z M585.7,70.7c0,0.1-0.1,0.2-0.2,0.2H582c-0.1,0-0.2-0.1-0.2-0.2v-3.8c0-0.1,0.1-0.2,0.2-0.2h3.4
		c0.1,0,0.2,0.1,0.2,0.2V70.7z M592.4,105.7c0,0.1-0.1,0.2-0.2,0.2h-3.4c-0.1,0-0.2-0.1-0.2-0.2v-3.8c0-0.1,0.1-0.2,0.2-0.2h3.4
		c0.1,0,0.2,0.1,0.2,0.2V105.7z M592.4,96.9c0,0.1-0.1,0.2-0.2,0.2h-3.4c-0.1,0-0.2-0.1-0.2-0.2v-3.8c0-0.1,0.1-0.2,0.2-0.2h3.4
		c0.1,0,0.2,0.1,0.2,0.2V96.9z M592.4,88.2c0,0.1-0.1,0.2-0.2,0.2h-3.4c-0.1,0-0.2-0.1-0.2-0.2v-3.8c0-0.1,0.1-0.2,0.2-0.2h3.4
		c0.1,0,0.2,0.1,0.2,0.2V88.2z M592.4,79.4c0,0.1-0.1,0.2-0.2,0.2h-3.4c-0.1,0-0.2-0.1-0.2-0.2v-3.8c0-0.1,0.1-0.2,0.2-0.2h3.4
		c0.1,0,0.2,0.1,0.2,0.2V79.4z M592.4,70.7c0,0.1-0.1,0.2-0.2,0.2h-3.4c-0.1,0-0.2-0.1-0.2-0.2v-3.8c0-0.1,0.1-0.2,0.2-0.2h3.4
		c0.1,0,0.2,0.1,0.2,0.2V70.7z"/>
	<path class="st6" d="M630.3,93.9c0,0.2-0.1,0.3-0.3,0.3h-15.3c-0.2,0-0.3-0.1-0.3-0.3v-3.1c0-0.2,0.1-0.3,0.3-0.3H630
		c0.2,0,0.3,0.1,0.3,0.3V93.9z"/>
	<path class="st6" d="M612.6,69.4c-0.1-0.2-0.2-0.3-0.4-0.3c-0.1,0-0.2,0-0.2,0.1c0,0,0,0,0,0l-0.1,0.2l-14.7,18.6l-0.1,0.1
		c-0.1,0.1-0.1,0.2-0.1,0.3v0v22.8c0,0.2,0.2,0.4,0.4,0.4h14.9c0.2,0,0.4-0.2,0.4-0.4V69.5C612.6,69.5,612.6,69.4,612.6,69.4
		 M606.4,79.5l0.1-0.1c1-1.3,2.7-3.4,3.5-4.4l0.1-0.1c0.1-0.1,0.2-0.2,0.3-0.2c0.2,0,0.4,0.1,0.4,0.3v0.2v0.1v4.4
		c0,0.2-0.2,0.4-0.4,0.4c0,0,0,0,0,0s0,0,0,0h-3.5h-0.2c0,0,0,0,0,0c0,0,0,0,0,0c-0.2,0-0.4-0.2-0.4-0.4
		C606.3,79.6,606.3,79.5,606.4,79.5 M604.1,105.5c0,0.2-0.2,0.4-0.4,0.4h-4.4c-0.2,0-0.4-0.2-0.4-0.4v-2.8c0-0.2,0.2-0.4,0.4-0.4
		h4.4c0.2,0,0.4,0.2,0.4,0.4V105.5z M604.1,100.4c0,0.2-0.2,0.4-0.4,0.4h-4.4c-0.2,0-0.4-0.2-0.4-0.4v-2.8c0-0.2,0.2-0.4,0.4-0.4
		h4.4c0.2,0,0.4,0.2,0.4,0.4V100.4z M604.1,95.2c0,0.2-0.2,0.4-0.4,0.4h-4.4c-0.2,0-0.4-0.2-0.4-0.4v-2.8c0-0.2,0.2-0.4,0.4-0.4h4.4
		c0.2,0,0.4,0.2,0.4,0.4V95.2z M604.1,84v0.1v6c0,0.2-0.2,0.4-0.4,0.4h-4.4c-0.2,0-0.4-0.2-0.4-0.4v-0.7v0c0,0,0-0.1,0-0.1
		c0,0,0,0,0,0c0,0,0,0,0,0c0,0,0,0,0-0.1c0.6-0.8,3.1-4,4.2-5.3l0.1-0.1c0.1-0.1,0.2-0.2,0.3-0.2c0.2,0,0.4,0.1,0.4,0.3V84z
		 M610.9,105.5c0,0.2-0.2,0.4-0.4,0.4H606c-0.2,0-0.4-0.2-0.4-0.4v-2.8c0-0.2,0.2-0.4,0.4-0.4h4.4c0.2,0,0.4,0.2,0.4,0.4V105.5z
		 M610.9,100.4c0,0.2-0.2,0.4-0.4,0.4H606c-0.2,0-0.4-0.2-0.4-0.4v-2.8c0-0.2,0.2-0.4,0.4-0.4h4.4c0.2,0,0.4,0.2,0.4,0.4V100.4z
		 M610.9,95.2c0,0.2-0.2,0.4-0.4,0.4H606c-0.2,0-0.4-0.2-0.4-0.4v-2.8c0-0.2,0.2-0.4,0.4-0.4h4.4c0.2,0,0.4,0.2,0.4,0.4V95.2z
		 M610.9,90.1c0,0.2-0.2,0.4-0.4,0.4H606c-0.2,0-0.4-0.2-0.4-0.4v-2.8c0-0.2,0.2-0.4,0.4-0.4h4.4c0.2,0,0.4,0.2,0.4,0.4V90.1z
		 M610.9,85c0,0.2-0.2,0.4-0.4,0.4H606c-0.2,0-0.4-0.2-0.4-0.4v-2.8c0-0.2,0.2-0.4,0.4-0.4h4.4c0.2,0,0.4,0.2,0.4,0.4V85z"/>
	<path class="st6" d="M356,86.9L344.1,80V66.3c0-0.3-0.2-0.6-0.4-0.7l-12.3-7.1c-0.3-0.1-0.6-0.1-0.8,0l-12.3,7.1
		c-0.3,0.1-0.4,0.4-0.4,0.7V80l-11.9,6.9c-0.3,0.1-0.4,0.4-0.4,0.7v14.2c0,0.3,0.2,0.6,0.4,0.7l12.3,7.1c0.1,0.1,0.3,0.1,0.4,0.1
		c0.1,0,0.3,0,0.4-0.1l11.9-6.9l11.9,6.9c0.1,0.1,0.3,0.1,0.4,0.1c0.1,0,0.3,0,0.4-0.1l12.3-7.1c0.3-0.1,0.4-0.4,0.4-0.7V87.6
		C356.4,87.3,356.3,87,356,86.9 M330.2,100.3l-9.8-5.7l9.8-5.7V100.3z M341.7,80.5l-9.8,5.7V74.8L341.7,80.5z M330.2,86.2l-9.8-5.7
		l9.8-5.7V86.2z M332.7,87.6l10.7-6.2l10.7,6.2l-10.7,6.2L332.7,87.6z M342.5,79.1l-9.8-5.7l9.8-5.7V79.1z M329.4,73.4l-9.8,5.7
		V67.7L329.4,73.4z M318,107.4l-10.7-6.2V89l10.7,6.2V107.4z M319.6,107.4V96.1l9.8,5.7L319.6,107.4z M354.8,101.3l-10.7,6.2V95.1
		l10.7-6.2V101.3z"/>
	<path class="st6" d="M473.5,82.4h-21.7c-0.1,0-0.2,0.1-0.2,0.3v6.5c0,0.1,0.1,0.3,0.2,0.3h21.7c0.1,0,0.2-0.1,0.2-0.3v-6.5
		C473.8,82.5,473.7,82.4,473.5,82.4"/>
	<path class="st6" d="M473.5,68.5h-21.7c-0.1,0-0.2,0.1-0.2,0.3v6.5c0,0.1,0.1,0.3,0.2,0.3h21.7c0.1,0,0.2-0.1,0.2-0.3v-6.5
		C473.8,68.6,473.7,68.5,473.5,68.5"/>
	<path class="st6" d="M473.2,58.6l-10.4-10.4c-0.1-0.1-0.2-0.1-0.3,0l-10.4,10.4c-0.1,0.1,0,0.3,0.1,0.3h20.9
		C473.3,59,473.4,58.8,473.2,58.6"/>
	<path class="st6" d="M483,89.5l10.4-10.4c0.1-0.1,0.1-0.2,0-0.3L483,68.4c-0.1-0.1-0.3,0-0.3,0.1v20.9
		C482.7,89.6,482.9,89.7,483,89.5"/>
	<path class="st6" d="M452.1,99.3l10.4,10.4c0.1,0.1,0.2,0.1,0.3,0l10.4-10.4c0.1-0.1,0-0.3-0.1-0.3h-20.9
		C452.1,99,452,99.2,452.1,99.3"/>
	<path class="st6" d="M442.3,68.4l-10.4,10.4c-0.1,0.1-0.1,0.2,0,0.3l10.4,10.4c0.1,0.1,0.3,0,0.3-0.1V68.6
		C442.6,68.4,442.5,68.3,442.3,68.4"/>
	<path class="st6" d="M757.1,66.2c-5.2-4.1-12.2-4.2-14.7-3.6l-0.3,0.1c-2.9,0.7-7.6,1.8-13,8.6c0,0-0.1,0.1-0.1,0.1l-0.1,0.1
		c-0.1,0.1-0.1,0.2-0.1,0.3c0,0.1,0,0.2,0.1,0.2l0.1,0.2c0.7,1.1,1.5,2.6,2.3,4c0,0,0,0,0,0c0.1,0.2,0.2,0.3,0.4,0.3
		c0.1,0,0.2-0.1,0.3-0.1c0,0,0.1-0.1,0.1-0.1c4.8-6.7,8.6-7.6,11.2-8.2l0.3-0.1c1.3-0.3,6.4-0.3,10.1,2.6c2.9,2.3,4.3,5.9,4.3,10.7
		c0,8.1-3.9,11.3-7.2,12.5c-5.1,1.9-10-0.6-10.1-0.7l-0.2-0.1c-2.8-1.2-7-3.8-11-11.7c-8-16-14.7-17.5-19.1-18.5l-0.2-0.1
		c-2-0.5-9-0.8-14.5,3.6c-2.9,2.3-6.3,6.7-6.3,14.9c0,5,1,8.3,3.7,11.8c0.6,0.8,6.5,8.4,17.9,6.2c1.8-0.3,4.3-1.2,7-3.3l2.5,2.3
		c0.2,0.2,0.4,0.1,0.6,0c0.1-0.1,0.1-0.2,0.1-0.3v0l1.8-11.2l0-0.1c0-0.1,0-0.2-0.1-0.3c-0.1-0.1-0.2-0.1-0.3-0.1l-0.1,0l-0.1,0
		l-10.7,3l-0.2,0c-0.1,0-0.2,0.1-0.2,0.1c-0.2,0.2-0.1,0.4,0,0.6l0.1,0.1l2.4,2.2c-1.5,1-2.9,1.5-3.9,1.7c-8.3,1.6-12.3-3.8-12.5-4
		l-0.1-0.1c-1.9-2.5-2.6-4.7-2.6-8.5c0-4.8,1.4-8.4,4.2-10.7c3.6-2.9,8.5-2.9,9.9-2.6l0.2,0.1c3.6,0.8,8.6,1.9,15.4,15.7
		c3.5,7.1,8,11.8,13.6,14.2c0.7,0.4,4.1,2,8.5,2c1.8,0,3.9-0.3,5.9-1.1c3.2-1.2,10.8-5.3,10.8-17.6C763.5,73,760,68.5,757.1,66.2"/>
</g>
</svg>
